<?xml version="1.0" encoding="UTF-8" standalone="no"?>
<svg
   xmlns:dc="http://purl.org/dc/elements/1.1/"
   xmlns:cc="http://creativecommons.org/ns#"
   xmlns:rdf="http://www.w3.org/1999/02/22-rdf-syntax-ns#"
   xmlns:svg="http://www.w3.org/2000/svg"
   xmlns="http://www.w3.org/2000/svg"
   xmlns:sodipodi="http://sodipodi.sourceforge.net/DTD/sodipodi-0.dtd"
   xmlns:inkscape="http://www.inkscape.org/namespaces/inkscape"
   width="1500"
   height="900"
   id="svg2"
   version="1.1"
   inkscape:version="0.91 r13725"
   sodipodi:docname="3.svg">
  <metadata
     id="metadata10">
    <rdf:RDF>
      <cc:Work
         rdf:about="">
        <dc:format>image/svg+xml</dc:format>
        <dc:type
           rdf:resource="http://purl.org/dc/dcmitype/StillImage" />
      </cc:Work>
    </rdf:RDF>
  </metadata>
  <defs
     id="defs8">
    <inkscape:path-effect
       effect="spiro"
       id="path-effect4138"
       is_visible="true" />
  </defs>
  <sodipodi:namedview
     pagecolor="#ffffff"
     bordercolor="#666666"
     borderopacity="1"
     objecttolerance="10"
     gridtolerance="10"
     guidetolerance="10"
     inkscape:pageopacity="0"
     inkscape:pageshadow="2"
     inkscape:window-width="1855"
     inkscape:window-height="1056"
     id="namedview6"
     showgrid="false"
     inkscape:zoom="0.63356768"
     inkscape:cx="494.12988"
     inkscape:cy="432.37886"
     inkscape:window-x="65"
     inkscape:window-y="24"
     inkscape:window-maximized="1"
     inkscape:current-layer="svg2" />
  <path
     style="fill:none;stroke:#000000"
     d="m 596,266 c 4.7833,-42.15302 4.7833,-84.84698 0,-127 -0.94944,-8.36701 -2.08874,-16.7705 -1.60353,-25.17722 0.48521,-8.40672 2.72333,-16.942357 7.88153,-23.59828 5.00308,-6.455757 12.6582,-10.790281 20.76798,-11.759348 C 631.15576,77.496086 639.61666,79.904846 646,85 m -128,6 0,4 m -410,3 c 0.54876,30.66339 0.54876,61.33661 0,92 -0.29797,16.64999 -0.60258,34.04615 6.725,49 4.49193,9.16696 11.71007,16.90308 20.28181,22.44707 8.57174,5.54399 18.46169,8.93148 28.57601,10.3139 20.22863,2.76484 40.87873,-2.42314 59.41718,-10.97697 11.26221,-5.1965 22.40316,-12.08213 28.673,-22.784 4.05173,-6.91582 5.7785,-14.98798 6.23214,-22.99044 C 258.35879,207.0071 257.60081,198.99276 257,191 c -2.30085,-30.6091 -2.30085,-61.3909 0,-92 m 82,167 c 7.01306,-24.34076 7.01306,-50.65924 0,-75 -1.48745,-5.1626 -3.29339,-10.29299 -3.73445,-15.64746 -0.22053,-2.67724 -0.0914,-5.39976 0.58619,-7.99921 0.67756,-2.59945 1.91857,-5.07528 3.75126,-7.03933 2.17854,-2.33469 5.09992,-3.86166 8.11936,-4.90079 3.01944,-1.03913 6.17088,-1.62908 9.27764,-2.36721 9.20403,-2.18677 18.0385,-5.68096 27.08414,-8.45091 9.04564,-2.76996 18.49045,-4.83016 27.91586,-4.01909 3.91436,0.33684 7.80604,1.17573 11.41232,2.73469 3.60629,1.55897 6.92398,3.85511 9.45468,6.86031 4.11346,4.88472 5.92969,11.36311 6.33477,17.73626 0.40508,6.37315 -0.4855,12.74703 -1.20177,19.09274 -2.95983,26.22235 -2.95983,52.77765 0,79 m 129,-126 78,0 m 105,0.425 c 18.23611,0.9065 35.94982,9.6584 47.74961,23.59189 11.7998,13.9335 17.51475,32.84673 15.40539,50.98311 -1.39613,12.00397 -6.15318,23.65825 -13.89146,32.94069 -7.73828,9.28243 -18.47492,16.11081 -30.26354,18.77031 -9.87611,2.22804 -20.31718,1.53214 -30,-1.425 -11.59489,-3.54108 -22.18527,-10.33409 -30.19824,-19.43207 -8.01297,-9.09797 -13.41816,-20.47669 -15.35449,-32.44463 -1.93633,-11.96793 -0.39037,-24.48585 4.44905,-35.60165 4.83942,-11.11579 12.96151,-20.78657 23.10368,-27.42865 8.63904,-5.65768 18.70748,-9.11358 29,-9.954 M 890,266 c 8.12071,-26.1809 8.12071,-54.8191 0,-81 -1.54134,-4.96923 -3.38074,-9.91941 -3.76351,-15.10809 -0.19138,-2.59435 -0.008,-5.23498 0.7506,-7.72331 0.75859,-2.48833 2.11058,-4.82173 4.04091,-6.5656 2.10172,-1.8987 4.80063,-3.03192 7.55643,-3.68604 2.7558,-0.65411 5.59473,-0.85977 8.41557,-1.11496 17.67001,-1.59856 35.15523,-5.23078 52,-10.802 m 56,126 c 7.614,-26.28046 7.614,-54.71954 0,-81 -1.5922,-5.49557 -3.5206,-10.95728 -3.9965,-16.65902 -0.2379,-2.85087 -0.1037,-5.75029 0.614,-8.51958 0.7178,-2.76928 2.035,-5.40786 3.9825,-7.5034 2.2672,-2.43959 5.3147,-4.06661 8.5134,-4.99407 3.1987,-0.92745 6.5561,-1.18835 9.8866,-1.18893 12.1935,-0.002 24.0933,3.39618 35.9005,6.44098 11.8073,3.0448 23.9816,5.7802 36.0995,4.42402 11.0221,-1.23355 21.3509,-5.77794 31.6958,-9.77695 10.3448,-3.99901 21.25,-7.5484 32.3042,-6.64705 4.603,0.37532 9.1616,1.53595 13.2881,3.60974 4.1265,2.07379 7.812,5.07522 10.5019,8.82926 4.1014,5.72393 5.7182,12.91435 5.9304,19.95283 0.2121,7.03848 -0.8795,14.04088 -1.7204,21.03217 -2.8329,23.55352 -2.8329,47.44648 0,71 m 76,-63 c -2.605,-15.56931 1.6306,-32.15978 11.38,-44.575 10.2114,-13.00349 26.3141,-21.17842 42.8368,-21.78145 16.5227,-0.60302 33.1657,6.36653 44.3532,18.54045 4.1875,4.55676 7.6465,9.82081 9.8685,15.59679 2.222,5.77599 3.1844,12.07176 2.4715,18.21921 -0.3311,2.85546 -1.0275,5.69089 -2.3099,8.26361 -1.2823,2.57272 -3.1731,4.87798 -5.6001,6.41839 -3.6056,2.28847 -8.1034,2.73501 -12.3582,2.36918 -4.2549,-0.36584 -8.4105,-1.47345 -12.6418,-2.05118 -8.7895,-1.20009 -17.7065,-0.0966 -26.5365,0.75563 -8.83,0.85223 -17.8679,1.43764 -26.4635,-0.75563 -4.2022,-1.07225 -8.2744,-2.80328 -12.5964,-3.16222 -2.161,-0.17947 -4.3771,-0.002 -6.4075,0.75935 -2.0305,0.76124 -3.8665,2.13694 -4.9661,4.00587 -0.9886,1.68012 -1.3436,3.67463 -1.3118,5.62374 0.032,1.94911 0.4305,3.8722 0.8618,5.77326 2.4988,11.01385 6.2572,21.96593 13.04,30.996 7.6979,10.24828 19.1038,17.53845 31.5137,20.74474 12.4098,3.2063 25.7456,2.39831 37.8663,-1.76974 8.8099,-3.02954 17.0153,-7.80607 24,-13.971 m -491,-108 0,9 m 125,-9 0,5 m -676,-4 0,12 m 179,-12 0,120 m 588,-108 0,109 m -951,98 c 3.64821,-5.10278 9.93143,-8.20737 16.20095,-8.00502 6.26951,0.20234 12.33946,3.70562 15.65105,9.03302 2.78185,4.47521 3.60205,9.90629 3.65169,15.17542 0.0496,5.26912 -0.60728,10.52824 -0.50369,15.79658 0.031,1.57912 0.13022,3.16371 -0.0344,4.73453 -0.16465,1.57083 -0.61296,3.15093 -1.56857,4.40847 -0.6724,0.88485 -1.57605,1.58065 -2.56926,2.07926 -0.99322,0.49861 -2.07521,0.8051 -3.17201,0.98433 -2.1936,0.35847 -4.43322,0.21495 -6.65573,0.24341 -9.14014,0.11703 -17.96859,3.13956 -27,4.55 -11.80405,1.84345 -24.28018,0.82039 -35,-4.454 C 100.66626,401.98551 90.855383,388.91327 87.766512,374.37754 84.677641,359.84181 88.207963,344.13265 96.7886,332 106.98584,317.58154 124.23477,308.41266 141.89054,308.02552 159.5463,307.63838 177.18055,316.04237 188,330 m 607,-1 c 1.30845,-7.34617 5.40548,-14.16067 11.27993,-18.76167 5.87445,-4.601 13.47208,-6.94601 20.91778,-6.45628 7.44571,0.48973 14.67073,3.80967 19.89194,9.14047 5.2212,5.33079 8.39037,12.62321 8.72535,20.07748 0.28618,6.36838 -1.44232,12.73698 -4.40203,18.38307 -2.9597,5.64608 -7.1163,10.60241 -11.77077,14.95833 -9.30893,8.71183 -20.54557,15.05602 -30.6412,22.8426 -3.70325,2.85625 -7.3295,5.99705 -9.6373,10.06476 -1.15389,2.03386 -1.95709,4.28488 -2.18663,6.61197 -0.22954,2.3271 0.13064,4.73152 1.17993,6.82127 1.41998,2.82803 4.04604,4.94979 6.99128,6.10723 2.94524,1.15745 6.1909,1.40564 9.34097,1.10369 C 820.98939,419.28901 826.87179,416.58163 833,415 c 8.48158,-2.18902 17.51842,-2.18902 26,0 m 98,-46 c -5.95623,4.11097 -13.13101,6.43239 -20.36648,6.58963 -7.23547,0.15724 -14.50432,-1.8503 -20.63352,-5.69863 -4.99165,-3.1341 -9.23178,-7.48432 -12.12587,-12.61886 -2.89409,-5.13453 -4.42356,-11.04876 -4.25411,-16.94032 0.16945,-5.89156 2.05361,-11.74127 5.45861,-16.55221 C 908.48362,318.96866 913.41,315.22845 919,313.36 c 4.87624,-1.62988 10.19474,-1.83074 15.22397,-0.7625 5.02923,1.06824 9.76601,3.38532 13.82017,6.54728 8.10833,6.32393 13.31673,15.86365 15.74686,25.85522 3.374,13.87238 1.60313,28.93491 -4.8963,41.64649 C 952.39527,399.35807 941.2214,409.61285 928,415 M 238,351 c 1.66084,-5.46844 5.03469,-10.40311 9.52759,-13.93526 4.49289,-3.53216 10.08451,-5.64582 15.79046,-5.96888 5.70596,-0.32307 11.50042,1.14593 16.3633,4.14837 4.86288,3.00244 8.77217,7.52474 11.03965,12.77077 2.95801,6.84362 3.08141,14.5297 3.14,21.985 0.10741,13.66637 0.15374,27.33322 0.139,41 m 48,1 c 3.47744,-15.06955 3.47744,-30.93045 0,-46 -0.68457,-2.9666 -1.50586,-5.93193 -1.60552,-8.97486 -0.0498,-1.52147 0.0843,-3.05665 0.50026,-4.52099 0.416,-1.46433 1.12037,-2.85776 2.13326,-3.99415 1.23195,-1.38216 2.87933,-2.34297 4.60841,-3.00504 1.72909,-0.66206 3.55055,-1.04348 5.36359,-1.41896 10.31196,-2.1356 20.64603,-4.16441 31,-6.086 m 32,13 c 6.95519,-6.74622 16.38892,-10.87809 26.0635,-11.41552 9.67457,-0.53742 19.5079,2.52415 27.1675,8.45852 9.29213,7.19919 15.198,18.59475 15.72282,30.33769 C 485.47863,390.12363 480.61287,402.00059 472,410 m 44,22 c 14.99497,4.78462 31.80434,3.60612 45.985,-3.224 2.09553,-1.00931 4.14519,-2.14313 5.96665,-3.58958 1.82147,-1.44645 3.41484,-3.22061 4.44068,-5.3081 1.02584,-2.08748 1.4573,-4.50342 0.97984,-6.77982 -0.47745,-2.27639 -1.91601,-4.38158 -3.97917,-5.4555 -1.41985,-0.73906 -3.06059,-0.97201 -4.66006,-0.90963 -1.59947,0.0624 -3.17332,0.40639 -4.73294,0.76663 -7.578,1.75037 -15.25966,3.93359 -23,3.174 -6.49926,-0.6378 -12.75899,-3.40477 -17.66438,-7.71573 -4.90538,-4.31096 -8.44344,-10.13679 -10.09329,-16.45543 -1.64985,-6.31864 -1.4172,-13.10396 0.57637,-19.32271 1.99357,-6.21875 5.73167,-11.85583 10.6253,-16.18013 8.79415,-7.77103 20.82941,-11.00954 32.556,-11.471 6.36178,-0.25034 12.75257,0.24444 19,1.471 m 45,34 c -1.38073,-10.69811 2.4238,-21.94647 10.015,-29.61 4.35274,-4.39421 9.88108,-7.62778 15.86586,-9.18915 5.98477,-1.56137 12.411,-1.43644 18.30658,0.43373 5.89558,1.87016 11.23628,5.48924 15.09557,10.32259 3.85929,4.83335 6.21137,10.86762 6.56099,17.04283 0.11426,2.0181 0.0159,4.07079 -0.56742,6.00613 -0.58331,1.93534 -1.6814,3.75456 -3.29958,4.96587 -1.92378,1.44007 -4.42144,1.91588 -6.82426,1.88156 -2.40283,-0.0343 -4.7711,-0.53333 -7.15274,-0.85356 -10.58403,-1.42312 -21.34302,0.6897 -32,0 -2.55298,-0.16523 -5.10315,-0.49141 -7.66007,-0.40655 -2.55692,0.0849 -5.16585,0.61079 -7.30793,2.00955 -2.54601,1.66253 -4.23763,4.48673 -4.76417,7.48155 -0.52654,2.99482 0.0588,6.13087 1.38871,8.86538 1.3299,2.73452 3.37587,5.08248 5.7345,7.00161 2.35862,1.91914 5.02816,3.4257 7.77996,4.71946 16.13469,7.58573 35.59931,7.70929 51.829,0.329 m -338,-66 0,6 m 230,-1 -1,62 m -278,-1 c -1.95149,4.30403 -5.022,8.09491 -8.82687,10.89775 -3.80487,2.80285 -8.33563,4.61142 -13.02473,5.19915 -4.68909,0.58773 -9.52606,-0.0467 -13.90498,-1.82376 -4.37893,-1.77709 -8.29004,-4.69289 -11.24342,-8.38214 -3.54498,-4.42827 -5.68136,-9.94574 -6.16551,-15.59746 -0.48414,-5.65173 0.66957,-11.41812 3.18051,-16.50454 4.33406,-8.77953 12.81719,-15.39615 22.38781,-17.46191 C 274.97343,360.26132 285.43048,362.7898 293,369 m 178,38 c -4.10219,8.17875 -12.51042,14.03856 -21.60355,15.0558 -9.09314,1.01725 -18.58838,-2.83971 -24.39645,-9.9098 -3.65823,-4.45312 -5.86483,-10.05696 -6.35109,-15.79947 -0.48625,-5.74251 0.73237,-11.60184 3.35509,-16.73353 4.34826,-8.50793 12.64541,-14.89197 21.98355,-16.9147 9.33814,-2.02273 19.53333,0.35569 27.01245,6.3017 m -281,38 0,4 m 461,34 c 15.55583,2.28078 31.44417,2.28078 47,0 2.83488,-0.41565 5.68656,-0.90807 8.54699,-0.74302 2.86043,0.16506 5.78491,1.05942 7.83501,3.06102 1.7987,1.75614 2.78262,4.25352 2.93301,6.76285 0.1504,2.50933 -0.48952,5.0255 -1.57597,7.29243 -2.1729,4.53387 -5.9982,8.0114 -9.49204,11.62672 -19.43554,20.11129 -30.5483,48.03371 -30.247,76 M 122,447 c 2.86832,25.24057 2.53144,50.84364 -1,76 -0.6356,4.52774 -1.37607,9.06861 -1.28604,13.63986 0.09,4.57125 1.06747,9.23816 3.60404,13.04214 2.95034,4.4245 7.98233,7.39392 13.28175,7.83768 C 141.89916,557.96343 147.35492,555.87222 151,552 M 579,448 c 2.81492,24.90981 2.47806,50.1741 -1,75 -0.63434,4.52782 -1.37454,9.06859 -1.2847,13.63975 0.0898,4.57116 1.06661,9.23806 3.6027,13.04225 2.94995,4.42499 7.98206,7.39487 13.28167,7.83864 C 598.89927,557.96441 604.35522,555.87277 608,552 M 246,451 c -4.24706,2.08139 -8.14478,4.87348 -11.482,8.225 -5.88759,5.91282 -9.90048,13.38502 -13.96659,20.67145 -4.0661,7.28642 -8.38347,14.6414 -14.69141,20.10355 -3.30983,2.86603 -7.16083,5.20673 -9.76888,8.72343 -1.30403,1.75835 -2.26893,3.81231 -2.49809,5.98941 -0.22915,2.1771 0.33159,4.48025 1.75997,6.13916 1.24898,1.45056 3.06593,2.3224 4.93283,2.7452 1.8669,0.42279 3.80022,0.43223 5.71417,0.4028 9.34267,-0.14364 18.72891,-1.16316 28,0 1.94182,0.24362 3.88211,0.58321 5.83899,0.55801 1.95689,-0.0252 3.96766,-0.44548 5.55801,-1.58601 1.23702,-0.88713 2.16016,-2.17464 2.72307,-3.58898 0.56292,-1.41434 0.77741,-2.95208 0.75277,-4.47413 C 248.82355,511.8648 247.84571,508.92467 247,506 c -4.86623,-16.82866 -5.55926,-34.84728 -2,-52 m -153,7 28,-4 m 429,4 28,-4 m 268,19 c 12.71348,6.02915 26.95254,8.8075 41,8 9.03142,-0.51916 17.91538,-2.48507 26.90896,-3.46056 8.99359,-0.97549 18.35723,-0.90783 26.74704,2.47556 6.33567,2.55501 11.90481,6.97788 15.8282,12.57037 3.92338,5.59248 6.18687,12.33442 6.43312,19.16144 0.24625,6.82702 -1.52562,13.71451 -5.0359,19.57513 C 953.37115,540.18256 948.13513,544.99517 942,548 m 47,-62 c 7.27789,-6.60463 16.9293,-10.53655 26.7506,-10.89804 9.8213,-0.36148 19.7357,2.8503 27.4794,8.90204 9.5579,7.46954 15.6164,19.2402 16.141,31.3593 0.5245,12.11911 -4.4942,24.36924 -13.371,32.6367 m 48,1 c 4.1661,-15.63677 4.1661,-32.36323 0,-48 -0.8331,-3.12684 -1.8355,-6.24851 -1.9844,-9.48101 -0.074,-1.61624 0.07,-3.25273 0.548,-4.79841 0.4782,-1.54568 1.2998,-2.99954 2.4664,-4.12058 1.2932,-1.24265 2.9625,-2.03699 4.6841,-2.53961 1.7216,-0.50262 3.5091,-0.73121 5.2859,-0.97539 10.4382,-1.4345 20.7941,-3.46727 31,-6.085 m 29,61 c 3.4293,6.47532 8.9709,11.80992 15.5721,14.99025 6.6011,3.18032 14.2267,4.18949 21.4279,2.83575 5.6563,-1.06333 11.1411,-3.64233 15.0155,-7.89838 1.9372,-2.12802 3.45,-4.65525 4.3123,-7.40071 0.8624,-2.74546 1.0645,-5.70873 0.4822,-8.52691 -0.8157,-3.94794 -3.1439,-7.4874 -6.1421,-10.18226 -2.9982,-2.69485 -6.6409,-4.59329 -10.4214,-5.99309 -7.5609,-2.79959 -15.734,-3.68942 -23.2465,-6.61665 -3.3724,-1.31403 -6.6341,-3.06678 -9.2016,-5.61774 -2.5676,-2.55095 -4.3951,-5.97304 -4.5184,-9.59026 -0.072,-2.10823 0.4345,-4.22209 1.3708,-6.11233 0.9364,-1.89025 2.2954,-3.55912 3.8967,-4.93225 3.2027,-2.74625 7.3023,-4.2733 11.4525,-5.03142 6.6729,-1.21893 13.6811,-0.5439 19.9987,1.92627 6.3175,2.47017 11.925,6.72785 16.0013,12.14973 m -127,-13 0,5 m -262,-3 0,71 m 1,-69 9,-2 m 44,7 0,65 m 159,-7 c -3.8503,6.89418 -10.6857,12.052 -18.3718,13.86291 -7.686,1.81091 -16.105,0.24718 -22.6282,-4.20291 -5.48008,-3.73851 -9.57678,-9.4281 -11.49442,-15.77873 -1.91764,-6.35062 -1.66392,-13.31757 0.60242,-19.55227 3.59482,-9.88933 12.3852,-17.71974 22.6227,-20.15206 10.2375,-2.43231 21.6105,0.60747 29.2693,7.82306 m -675,7 68,0 m -191,38 c -2.9094,-3.26841 -4.56725,-7.62426 -4.56725,-12 0,-4.37574 1.65785,-8.73159 4.56725,-12 3.22001,-3.61736 7.9478,-5.84856 12.78713,-6.03469 4.83933,-0.18613 9.72452,1.67535 13.21287,5.03469 m -152,24 -29,4 m 486,-4 -29,4 m -241,29 0,103 M 411,583 c 15.97277,-1.14306 32.02723,-1.14306 48,0 2.48414,0.17777 5.0028,0.39094 7.33877,1.25455 1.16798,0.4318 2.28229,1.0268 3.24205,1.82021 0.95976,0.79341 1.76228,1.78974 2.26218,2.93024 0.78955,1.80132 0.78304,3.9004 0.15963,5.76574 -0.6234,1.86534 -1.83251,3.5032 -3.30863,4.80289 -2.95224,2.59938 -6.83243,3.82976 -10.59359,4.98138 -3.76115,1.15162 -7.64458,2.35523 -10.6289,4.91772 -1.49216,1.28124 -2.72568,2.89882 -3.38375,4.75221 -0.65807,1.8534 -0.71029,3.94968 0.0342,5.77006 0.85073,2.08003 2.6533,3.64564 4.62682,4.72059 1.97352,1.07494 4.14277,1.72765 6.25118,2.50541 3.99279,1.47288 7.83124,3.42855 11.18853,6.04395 3.35729,2.61541 6.22633,5.90828 8.08847,9.73505 2.10044,4.31648 2.8685,9.20242 2.704,14 -0.25651,7.48119 -2.76983,14.87039 -7.12801,20.95646 -4.35818,6.08607 -10.54423,10.84528 -17.54419,13.49754 -6.99996,2.65226 -14.78655,3.18725 -22.08347,1.51726 C 422.92841,691.30128 416.14959,687.43283 411,682 M 91,602 c 1.437281,-7.34395 5.660013,-14.10764 11.62711,-18.62352 5.9671,-4.51587 13.62358,-6.74234 21.0818,-6.13047 7.45822,0.61188 14.64946,4.05644 19.80076,9.48447 5.1513,5.42803 8.2152,12.78951 8.43633,20.26952 0.18995,6.4253 -1.6612,12.81801 -4.73944,18.46114 -3.07823,5.64314 -7.34925,10.57143 -12.10371,14.89759 -9.50893,8.65231 -20.90146,14.94076 -31.06385,22.81527 -3.61791,2.8034 -7.192671,5.95704 -9.02377,10.15172 -0.915549,2.09734 -1.357575,4.42895 -1.061054,6.69812 0.29652,2.26917 1.36535,4.46522 3.108324,5.94816 1.178691,1.00284 2.628742,1.65869 4.13488,2.01442 1.50614,0.35573 3.06981,0.42016 4.61457,0.32673 3.08952,-0.18686 6.10931,-0.99477 9.18805,-1.31315 5.30775,-0.54888 10.66395,0 16,0 l 26,0 m 64,-102.471 c 15.85354,4.10198 29.74195,15.25702 37.16728,29.85241 7.42533,14.59539 8.2645,32.38917 2.24572,47.61859 -2.1409,5.41716 -5.12346,10.53516 -9.06031,14.82822 -3.93685,4.29305 -8.84948,7.74392 -14.35269,9.65278 -8.90204,3.08779 -19.05879,1.91414 -27.33625,-2.58746 -8.27747,-4.5016 -14.66774,-12.15856 -18.21632,-20.88715 -3.54858,-8.7286 -4.33646,-18.46452 -2.88182,-27.77391 1.45465,-9.3094 5.09364,-18.20325 10.02439,-26.23248 5.82331,-9.48267 13.47494,-17.838 22.41,-24.471 m 325,0.003 c 16.18047,3.91411 30.41495,15.22571 37.88268,30.10391 7.46773,14.87819 8.03223,33.05109 1.50232,48.36409 -2.23282,5.23609 -5.26742,10.16207 -9.2008,14.27677 -3.93337,4.1147 -8.78508,7.402 -14.1842,9.20523 -8.79194,2.93639 -18.75729,1.72532 -26.89634,-2.7105 -8.13905,-4.43582 -14.44597,-11.93348 -18.0051,-20.49229 -3.55913,-8.55881 -4.44709,-18.11807 -3.15375,-27.29673 1.29334,-9.17867 4.7128,-17.98684 9.40219,-25.98248 5.78505,-9.8638 13.531,-18.57231 22.653,-25.468 M 309,622 c 1.62864,-5.06128 4.68938,-9.65315 8.73442,-13.10376 4.04504,-3.45061 9.06193,-5.74935 14.31665,-6.55989 5.25472,-0.81055 10.73111,-0.1304 15.62791,1.94092 4.8968,2.07133 9.19896,5.52746 12.27702,9.86273 3.91545,5.51468 5.76771,12.21743 7.04,18.86 3.15405,16.46714 3.15542,33.53235 0.004,50 m -137,-52 0,10 m 325,-10 0,10 m -228,88 27,-17 m 634,4 0,103 m -390,-102 0,2 m -408,72 c -6.71622,14.69049 -20.3387,26.04104 -36,29.996 -13.989,3.53265 -29.38015,1.16872 -41.63159,-6.45191 C 100.11697,806.92346 91.183012,794.13737 88.3009,780 86.234399,769.86337 87.224649,759.13096 91.064889,749.52502 94.90513,739.91907 101.57529,731.47182 110,725.468 c 12.59829,-8.9781 29.10477,-12.25139 44.17577,-8.76019 C 169.24676,720.199 182.63265,730.39686 190,744 m 332,-23 c 0.68069,23.99356 0.68069,48.00644 0,72 -0.13014,4.58736 -0.28394,9.19958 0.33256,13.74719 0.61651,4.5476 2.04962,9.07368 4.81144,12.73881 3.39105,4.50017 8.75097,7.45984 14.36588,7.93264 5.61491,0.4728 11.39429,-1.5489 15.49012,-5.41864 m -321,-4 c 3.62909,-14.70618 3.62909,-30.29382 0,-45 -0.72987,-2.95766 -1.60878,-5.91237 -1.72419,-8.95657 -0.0577,-1.5221 0.0797,-3.06023 0.51545,-4.51976 0.43578,-1.45952 1.17761,-2.83997 2.23674,-3.93467 1.26083,-1.30318 2.92478,-2.15921 4.65142,-2.71298 1.72664,-0.55378 3.52901,-0.82433 5.32058,-1.10402 10.06361,-1.57109 20.07188,-3.49668 30,-5.772 m 141,13 c 6.94664,-6.70734 16.34869,-10.81347 25.99004,-11.35057 9.64136,-0.53711 19.4413,2.49932 27.08996,8.39357 9.31223,7.17625 15.24781,18.5591 15.80128,30.3026 C 487.43474,798.08911 482.59603,809.97975 474,818 m 33,-72 50,0 m 114,0.428 c 9.42108,-0.87468 19.13674,1.95365 26.61632,7.74828 7.47958,5.79463 12.6456,14.49553 14.15245,23.83637 1.50685,9.34084 -0.66108,19.22485 -5.9391,27.07752 -5.27802,7.85266 -13.61145,13.59264 -22.82967,15.72483 -8.32968,1.92667 -17.30882,0.91382 -25,-2.82 -7.35157,-3.56895 -13.48419,-9.59445 -17.18213,-16.88198 -3.69794,-7.28754 -4.93972,-15.79481 -3.47918,-23.83532 1.46054,-8.0405 5.61493,-15.56757 11.63959,-21.08902 6.02467,-5.52144 13.88463,-9.00521 22.02172,-9.76068 M 755,818 c 3.1272,-13.76638 3.1272,-28.23362 0,-42 -0.6782,-2.98554 -1.50468,-5.96191 -1.66616,-9.01926 -0.16149,-3.05734 0.40948,-6.27065 2.26916,-8.70274 1.32427,-1.73188 3.21527,-2.95771 5.20821,-3.84161 1.99294,-0.88389 4.10707,-1.45468 6.18879,-2.10239 7.55452,-2.35054 14.85707,-5.76806 22.70663,-6.75811 3.92478,-0.49503 7.97236,-0.3588 11.74782,0.82223 3.77546,1.18104 7.26805,3.45788 9.54055,6.69588 2.16332,3.08243 3.1309,6.87198 3.40543,10.62777 0.27454,3.7558 -0.10135,7.52431 -0.40043,11.27823 -1.16605,14.63575 -1.16605,29.36425 0,44 m 173,-2 c -6.90612,4.98626 -15.36073,7.795 -23.87768,7.93252 -8.51694,0.13752 -17.05782,-2.39682 -24.12132,-7.15752 -10.98527,-7.40392 -18.09045,-20.3086 -18.33237,-33.55382 -0.24192,-13.24522 6.44,-26.45625 17.33237,-33.99618 7.24313,-5.01384 16.18127,-7.53048 24.97635,-7.03238 8.79508,0.4981 17.39193,4.00781 24.02265,9.80738 m 48,6 c 7.1522,-6.7296 16.7886,-10.75699 26.6024,-11.11807 9.8139,-0.36109 19.7202,2.94726 27.3476,9.13307 8.9149,7.22995 14.5581,18.34822 15.1314,29.81201 C 1104.6547,798.2908 1100.149,809.91665 1092,818 m 60,-65 c 2.0733,-4.33467 5.4443,-8.03842 9.5653,-10.50936 4.121,-2.47094 8.9761,-3.6996 13.7763,-3.48631 4.8003,0.21328 9.5273,1.8677 13.4129,4.69438 3.8855,2.82669 6.9148,6.81482 8.5955,11.31629 2.4726,6.62251 1.9938,13.92433 1.65,20.985 -0.6974,14.32202 -0.6974,28.67798 0,43 m 45,-12 c 4.2951,6.21477 10.5887,11.02517 17.7129,13.53859 7.1242,2.51342 15.0431,2.71716 22.2871,0.57341 4.6973,-1.39009 9.1889,-3.81361 12.3979,-7.51485 1.6045,-1.85062 2.8705,-4.00622 3.6135,-6.34016 0.7429,-2.33394 0.9549,-4.84682 0.5186,-7.25699 -0.7067,-3.90437 -3.0901,-7.37891 -6.1449,-9.91105 -3.0547,-2.53215 -6.7491,-4.19008 -10.5357,-5.37558 -7.5731,-2.37101 -15.734,-2.99169 -22.8494,-6.50537 -6.0369,-2.98115 -11.0617,-8.04825 -13.78,-14.208 -3.5369,-8.01458 -2.9366,-17.72803 1.5603,-25.2461 4.4968,-7.51808 12.771,-12.64151 21.5053,-13.31623 8.7343,-0.67472 17.6971,3.11714 23.2953,9.85538 5.5981,6.73824 7.6831,16.24425 5.4191,24.70695 m 45,23 c -0.5194,-10.61567 3.1478,-21.38024 10.04,-29.471 4.4509,-5.22497 10.2309,-9.35753 16.7168,-11.60354 6.4859,-2.24601 13.6709,-2.56164 20.2524,-0.61367 6.5815,1.94797 12.5064,6.19759 16.2255,11.9664 3.7191,5.76881 5.1402,13.0342 3.5953,19.72181 -0.9183,3.97504 -2.8812,7.74665 -5.83,10.566 -2.84,2.71536 -6.512,4.47687 -10.3419,5.35504 -3.8298,0.87816 -7.8189,0.90374 -11.7216,0.44729 -7.8053,-0.9129 -15.2554,-3.708 -22.9365,-5.36833 -2.6421,-0.57111 -5.3478,-1.00966 -8.0408,-0.77703 -2.6931,0.23263 -5.3982,1.19331 -7.3192,3.09503 -1.6063,1.59017 -2.5792,3.76843 -2.855,6.01181 -0.2759,2.24338 0.1224,4.54415 0.983,6.63418 1.7212,4.18006 5.172,7.40955 8.852,10.03501 7.765,5.53988 17.0156,8.97647 26.5141,9.84999 9.4985,0.87352 19.2208,-0.81825 27.8659,-4.84899 m -266,-66 0,71 m -542,-70 0,69 m -362,-68 0,3 m 519,-3 0,5 m 386,1 7,-1 m -837,25 c -2.89142,-4.70946 -4.56606,-10.15904 -4.81825,-15.67952 -0.2522,-5.52049 0.91858,-11.10006 3.36856,-16.05353 2.44998,-4.95348 6.17392,-9.27026 10.71451,-12.42024 4.5406,-3.14997 9.88812,-5.1264 15.3859,-5.68658 5.49778,-0.56018 11.13403,0.2971 16.21663,2.46656 5.0826,2.16946 9.60065,5.64645 12.99935,10.004 3.39869,4.35754 5.67075,9.58632 6.53715,15.04422 0.86641,5.4579 0.32531,11.13324 -1.55685,16.32909 -0.82086,2.26605 -1.89982,4.45349 -3.36059,6.3705 -1.46077,1.91702 -3.31549,3.55964 -5.48641,4.6065 -2.01222,0.97034 -4.25851,1.41102 -6.49242,1.42648 -2.23391,0.0154 -4.45802,-0.38558 -6.59624,-1.03261 -4.27642,-1.29406 -8.18592,-3.5464 -12.16851,-5.57159 -3.98259,-2.02519 -8.17492,-3.86481 -12.6284,-4.22384 -2.22674,-0.17952 -4.49867,0.0226 -6.61425,0.74022 -2.11557,0.7176 -4.07014,1.96407 -5.50018,3.68034 -1.67906,2.01513 -2.5786,4.60772 -2.8148,7.22003 -0.23621,2.61231 0.16031,5.25034 0.8538,7.77997 2.60855,9.51513 9.52183,17.63673 18.21821,22.29668 8.69638,4.65996 19.03395,5.94448 28.74279,4.18932 6.00277,-1.08518 11.79992,-3.29696 17,-6.486 m 100,-1 c -1.91096,4.19987 -4.90338,7.90223 -8.60906,10.65153 -3.70568,2.74929 -8.11666,4.53962 -12.69021,5.15068 -4.57354,0.61107 -9.29982,0.0416 -13.59729,-1.63844 -4.29748,-1.68001 -8.15691,-4.4669 -11.10344,-8.01777 -3.69266,-4.45004 -5.91661,-10.07424 -6.40051,-15.83657 -0.48389,-5.76233 0.75543,-11.64029 3.40451,-16.78043 4.37318,-8.48548 12.67608,-14.84075 22.00911,-16.84637 C 455.34615,768.677 465.52691,771.06022 473,777 m 618,37 c -1.9348,4.31253 -4.9892,8.11698 -8.7817,10.93802 -3.7924,2.82103 -8.3146,4.65239 -13.0013,5.26526 -4.6867,0.61287 -9.5277,0.006 -13.9181,-1.74512 -4.3903,-1.751 -8.3203,-4.64213 -11.2989,-8.31216 -3.6274,-4.46941 -5.8126,-10.06842 -6.2987,-15.80402 -0.4861,-5.73561 0.7117,-11.5869 3.2987,-16.72898 4.3927,-8.73124 12.8904,-15.2844 22.4513,-17.31381 9.561,-2.02941 19.988,0.5068 27.5487,6.70081"
     id="path4"
     inkscape:connector-curvature="0"
     sodipodi:nodetypes="caaccccaaaaaccaaaaaaccccaaaaccaaaccaaaaaaaccaaaaaaaaaaccccccccccccaaaaaaaccaaaaccaaaccaaccaaaccaccaaaaaaccaaaaaaaccccccaaccaaccccaaaccaaccaaccaaaaaaaccccccaaccaccaaaccaaaaaccccccccccaaccccaccccccccaaaaaaccaaaaaccaaaccaaaccaaccccccccccccaaaccaaccaaaccaccccaaccaaaaaccaaccaccaaccaaaaccaaaaaaccccccccccccaaaaaccaaccaac"
     inkscape:path-effect="#path-effect4138"
     inkscape:original-d="m 596,266 c 0,0 -2.70766,-84.75335 0,-127 1.04848,-16.35906 -5.36583,-37.2369 6.278,-48.7755 C 612.70369,79.893032 646,85 646,85 m -128,6 0,4 m -410,3 c 0,0 -2.08974,61.40462 0,92 1.12344,16.44812 -4.56486,36.98576 6.725,49 25.21069,26.82827 72.4845,30.40813 108.275,21.784 11.86802,-2.85974 22.75504,-12.10665 28.673,-22.784 7.6434,-13.79043 4.43775,-31.25812 5.327,-47 1.72958,-30.61785 0,-92 0,-92 m 82,167 c 0,0 -0.2456,-50.00121 0,-75 0.1005,-10.23015 -5.1513,-22.22704 0.603,-30.686 3.53489,-5.19637 11.4106,-5.35471 17.397,-7.268 17.90633,-5.72297 36.30296,-14.42181 55,-12.47 7.61438,0.79488 16.30027,3.45044 20.867,9.595 7.39373,9.9483 4.27545,24.46371 5.133,36.829 1.82189,26.27023 0,79 0,79 m 129,-126 78,0 m 105,0.425 c 45.191,-6.152 63.2213,42.00039 63.155,74.575 -0.0461,22.66586 -23.35225,42.71162 -44.155,51.711 -9.18834,3.97493 -22.54946,5.26193 -30,-1.425 -28.85279,-25.89566 -38.012,-81.70175 -18,-114.907 5.27549,-8.75344 18.474,-8.521 29,-9.954 M 890,266 c 0,0 -0.47187,-54.00412 0,-81 0.17136,-9.80349 -4.95939,-21.6324 1.028,-29.397 3.39478,-4.40244 10.58332,-3.43418 15.972,-4.801 C 924.15997,146.44944 959,140 959,140 m 56,126 c 0,0 -0.2478,-54.00114 0,-81 0.1,-10.89538 -5.8411,-23.89386 0.6,-32.682 3.825,-5.21873 11.9542,-5.61948 18.4,-6.183 24.1795,-2.11388 47.7595,12.09543 72,10.865 21.9963,-1.11651 42.1216,-18.95748 64,-16.424 8.8892,1.02935 18.7691,5.03173 23.79,12.439 7.7056,11.36809 3.5074,27.26943 4.21,40.985 1.2107,23.63568 0,71 0,71 m 76,-63 c 0,0 -0.5537,-34.9445 11.38,-44.575 22.6328,-18.26471 63.0537,-19.46705 87.19,-3.241 9.958,6.69445 13.2048,21.84814 12.34,33.816 -0.4007,5.54461 -3.1553,11.80163 -7.91,14.682 -7.128,4.31817 -16.6662,0.265 -25,0.318 -17.6663,0.11235 -35.3432,-0.58974 -53,0 -8.0034,0.26732 -18.3854,-4.1362 -23.97,1.603 -2.6514,2.72485 -1.1283,7.65604 -0.45,11.397 1.9999,11.02924 4.6112,23.60684 13.04,30.996 18.0289,15.80525 45.6066,22.08557 69.38,18.975 9.1785,-1.20094 24,-13.971 24,-13.971 m -491,-108 0,9 m 125,-9 0,5 m -676,-4 0,12 m 179,-12 0,120 m 588,-108 0,109 m -951,98 c 0,0 24.08577,-6.21982 31.852,1.028 7.58662,7.0802 3.52289,20.60158 3.148,30.972 -0.11178,3.09213 0.48754,6.8619 -1.603,9.143 -2.88961,3.15301 -8.21756,2.39948 -12.397,3.307 -8.91906,1.93667 -17.87496,4.36577 -27,4.55 -11.75836,0.23739 -26.30001,3.45962 -35,-4.454 C 94.653829,390.94848 80.674706,352.59829 96.7886,332 115.52653,308.04743 188,330 188,330 m 607,-1 c 0,0 52.80619,-14.67022 60.815,4 9.61,22.40294 -33.86521,35.53037 -46.814,56.184 -4.56755,7.28536 -15.06,16.11979 -10.644,23.498 5.94369,9.93067 23.07597,1.93145 34.643,2.318 8.66183,0.28946 26,0 26,0 m 98,-46 c 0,0 -31.48633,10.70711 -41,0.891 -13.13285,-13.55035 -13.9802,-48.29955 3,-56.531 16.44885,-7.97386 40.41794,13.8911 44.791,31.64 C 970.06038,370.44547 928,415 928,415 M 238,351 c 0,0 39.10304,-14.13735 52.721,-2.985 5.72723,4.69029 2.60283,14.60181 3.14,21.985 0.99171,13.63072 0.139,41 0.139,41 m 48,1 c 0,0 -0.45004,-30.67327 0,-46 0.17141,-5.83755 -2.29829,-12.68978 1.028,-17.49 2.07118,-2.98895 6.50417,-3.32956 9.972,-4.424 10.04233,-3.16935 31,-6.086 31,-6.086 m 32,13 c 0,0 40.05173,-14.87824 53.231,-2.957 C 484.56239,361.91092 472,410 472,410 m 44,22 c 0,0 33.76933,6.09748 45.985,-3.224 5.93423,-4.52826 11.67938,-15.01127 7.408,-21.133 -1.79182,-2.56804 -6.26745,-0.33376 -9.393,-0.143 -7.72495,0.47146 -16.53277,7.42513 -23,3.174 -17.24969,-11.33882 -26.10117,-41.3707 -16.556,-59.674 5.32033,-10.20198 21.14828,-9.9709 32.556,-11.471 6.29807,-0.82819 19,1.471 19,1.471 m 45,34 c 0,0 0.68547,-24.9709 10.015,-29.61 17.56468,-8.73402 47.20667,0.99023 55.829,18.61 1.7045,3.48315 -0.78622,8.61692 -3.867,10.972 -3.71138,2.83714 -9.30856,0.85655 -13.977,1.028 -10.65948,0.39147 -21.34851,-0.56874 -32,0 -5.01073,0.26755 -12.30797,-2.65179 -14.968,1.603 -5.27339,8.43494 2.01541,22.32655 10.139,28.068 C 642.27964,415.64246 680,406 680,406 m -338,-66 0,6 m 230,-1 -1,62 m -278,-1 c 0,0 -34.68995,15.77853 -47,5.891 -8.37873,-6.72987 -9.34027,-23.4357 -2.985,-32.102 C 253.09499,366.04351 293,369 293,369 m 178,38 c 0,0 -34.03959,14.8929 -46,5.146 -8.442,-6.87965 -9.43675,-23.75156 -2.996,-32.533 C 431.88716,366.13812 471,369 471,369 m -281,38 0,4 m 461,34 c 0,0 31.37201,-1.10018 47,0 5.50145,0.38729 13.44437,-2.34957 16.382,2.318 4.78319,7.59995 -5.11693,17.22449 -8.135,25.682 C 697.08313,498.67985 676,549 676,549 M 122,447 c 0,0 -1.93088,50.68158 -1,76 0.32801,8.92147 -4.00452,20.37915 2.318,26.682 C 129.87574,556.21934 151,552 151,552 M 579,448 c 0,0 -1.91644,50.01458 -1,75 0.32723,8.9215 -4.00452,20.37915 2.318,26.682 C 586.87574,556.21934 608,552 608,552 M 246,451 c 0,0 -8.16793,4.88103 -11.482,8.225 -11.69418,11.7997 -20.12119,26.52334 -28.658,40.775 -3.99953,6.67696 -13.59719,13.70855 -10.507,20.852 1.46938,3.39668 6.98429,2.61787 10.647,3.148 9.23708,1.33696 18.67611,0.41965 28,0 3.81057,-0.17151 8.69412,1.66351 11.397,-1.028 4.0266,-4.00967 1.44468,-11.29169 1.603,-16.972 0.48327,-17.33942 -2,-52 -2,-52 m -153,7 28,-4 m 429,4 28,-4 m 268,19 c 0,0 27.12847,6.78771 41,8 17.82042,1.5574 40.66764,-13.28522 53.656,-0.985 C 955.39432,497.91948 942,548 942,548 m 47,-62 c 0,0 40.9377,-14.26475 54.23,-1.996 C 1058.9201,498.48592 1046,548 1046,548 m 48,1 c 0,0 -0.4473,-32.00625 0,-48 0.1717,-6.14053 -2.6576,-13.48706 1.03,-18.4 2.1154,-2.81825 6.5705,-2.58736 9.97,-3.515 10.1591,-2.77215 31,-6.085 31,-6.085 m 29,61 c 0,0 23.6225,20.73474 37,17.826 10.0927,-2.19452 21.6449,-13.66173 19.81,-23.826 -2.7165,-15.04769 -27.9046,-13.19645 -39.81,-22.792 -5.3158,-4.28442 -13.9624,-8.3849 -13.72,-15.208 0.2745,-7.72671 9.1372,-14.56635 16.72,-16.076 12.6367,-2.51583 36,14.076 36,14.076 m -127,-13 0,5 m -262,-3 0,71 m 1,-69 9,-2 m 44,7 0,65 m 159,-7 c 0,0 -28.8163,16.63887 -41,9.66 -10.69383,-6.12548 -17.00745,-24.63144 -10.892,-35.331 C 1001.9303,500.89353 1045,504 1045,504 m -675,7 68,0 m -191,38 c 0,0 -5.54708,-18.23547 0,-24 6.01378,-6.24953 26,-1 26,-1 m -152,24 -29,4 m 486,-4 -29,4 m -241,29 0,103 M 411,583 c 0,0 32.38106,-3.47113 48,0 4.6133,1.02525 11.89566,1.37508 12.843,6.005 2.7783,13.57843 -29.48109,17.24246 -27.721,30.99 0.55282,4.31786 7.37639,4.63982 10.878,7.226 6.67952,4.93329 15.02323,8.64747 19.277,15.779 2.43476,4.08193 5.01974,9.84939 2.704,14 C 465.52171,677.539 411,682 411,682 M 91,602 c 0,0 53.16998,-13.84208 60.946,5 9.3881,22.74831 -36.07516,34.59555 -47.907,56.174 -3.82089,6.9684 -11.518054,16.27634 -6.9765,22.798 3.4225,4.91471 11.95098,0.8566 17.9375,1.028 5.33115,0.15264 10.66667,0 16,0 8.66667,0 26,0 26,0 m 64,-102.471 c 0,0 43.63504,48.80683 39.413,77.471 C 258.76759,673.171 248.1623,688.18442 237,686.481 208.50354,682.1323 194.54986,637.54184 198.59,609 200.1402,598.04854 221,584.529 221,584.529 m 325,0.003 c 0,0 44.02075,49.57165 39.385,78.468 C 583.63519,673.90722 572.90962,688.21674 562,686.482 533.78957,681.99625 519.65792,638.32562 523.347,610 524.81433,598.73353 546,584.532 546,584.532 M 309,622 c 0,0 36.12975,-16.55186 50.956,-7.86 5.78892,3.39374 5.84743,12.25646 7.04,18.86 2.96201,16.40135 0.004,50 0.004,50 m -137,-52 0,10 m 325,-10 0,10 m -228,88 27,-17 m 634,4 0,103 m -390,-102 0,2 m -408,72 c 0,0 -20.41688,28.92848 -36,29.996 C 128.24683,822.76021 96.350019,804.52651 88.3009,780 82.200638,761.41186 92.667397,734.54066 110,725.468 134.25133,712.77377 190,744 190,744 m 332,-23 c 0,0 -2.2984,48.11031 0,72 0.86129,8.9523 -1.5489,20.47846 5.144,26.486 C 534.57631,826.15723 557,822 557,822 m -321,-4 c 0,0 -0.44225,-30.00652 0,-45 0.17141,-5.81125 -2.40702,-12.72052 1.028,-17.411 2.10292,-2.87151 6.54929,-2.84085 9.972,-3.817 9.79292,-2.79292 30,-5.772 30,-5.772 m 141,13 c 0,0 39.92262,-14.8275 53.08,-2.957 C 486.43105,769.89261 474,818 474,818 m 33,-72 50,0 m 114,0.428 c 43.928,-6.222 29.33204,56.20939 12,74.387 -5.78708,6.06941 -19.99591,3.90957 -25,-2.82 -14.46778,-19.45646 -20.929,-66.761 13,-71.567 M 755,818 c 0,0 -0.23808,-28.00202 0,-42 0.10051,-5.9099 -2.54691,-12.7205 0.603,-17.722 2.28333,-3.62553 7.22689,-4.95999 11.397,-5.944 14.27514,-3.36848 33.0251,-8.9759 43.995,0.76 5.51247,4.89237 2.503,14.55273 3.005,21.906 0.99895,14.63261 0,44 0,44 m 173,-2 c 0,0 -36.51033,11.91351 -47.999,0.775 -16.16791,-15.67514 -17.2525,-51.96258 -1,-67.55 C 949.80774,738.90142 987,753 987,753 m 48,6 c 0,0 40.6855,-14.14603 53.95,-1.985 C 1103.9528,770.76968 1092,818 1092,818 m 60,-65 c 0,0 34.4697,-8.50087 45.35,2.015 5.0453,4.87626 1.3748,13.97381 1.65,20.985 0.5622,14.3223 0,43 0,43 m 45,-12 c 0,0 26.4263,18.06932 40,14.112 8.5806,-2.50161 18.3175,-12.35478 16.53,-21.112 -3.0092,-14.74229 -27.5725,-12.6592 -39.53,-21.792 -5.2432,-4.00462 -16.1153,-8.03751 -13.78,-14.208 6.1275,-16.19073 51.78,-4 51.78,-4 m 45,23 c 0,0 0.7227,-24.90018 10.04,-29.471 17.9663,-8.81376 49.588,0.80015 56.79,19.471 1.4477,3.75303 -2.3759,8.50435 -5.83,10.566 -12.8807,7.68819 -30.0469,-0.76048 -45,0.434 -5.1615,0.41231 -12.6041,-2.06567 -15.36,2.318 -4.2101,6.69681 0.8391,17.69494 6.98,22.681 C 1365.7516,820.47298 1406,814 1406,814 m -266,-66 0,71 m -542,-70 0,69 m -362,-68 0,3 m 519,-3 0,5 m 386,1 7,-1 m -837,25 c 0,0 49.44624,-23.3279 58.847,-5.996 2.2406,4.13093 -4.51226,9.1618 -8.847,10.977 -15.44928,6.46948 -36.87949,-15.39189 -50,-4.981 -3.9501,3.13433 -4.21604,10.48978 -1.961,15 8.03701,16.07449 29.03916,25.14794 46.961,26.486 6.04826,0.45157 17,-6.486 17,-6.486 m 100,-1 c 0,0 -33.9053,15.79101 -46,6.146 -8.53618,-6.80724 -9.46148,-23.81913 -2.996,-32.617 C 433.89628,774.06814 473,777 473,777 m 618,37 c 0,0 -34.6589,16.01209 -47,6.146 -8.5062,-6.8003 -9.4585,-23.76448 -3,-32.533 10.1044,-13.71838 50,-10.613 50,-10.613" />
</svg>
