<?xml version="1.0" encoding="UTF-8" standalone="no"?>
<!-- Created with Inkscape (http://www.inkscape.org/) -->

<svg
   xmlns:dc="http://purl.org/dc/elements/1.1/"
   xmlns:cc="http://creativecommons.org/ns#"
   xmlns:rdf="http://www.w3.org/1999/02/22-rdf-syntax-ns#"
   xmlns:svg="http://www.w3.org/2000/svg"
   xmlns="http://www.w3.org/2000/svg"
   xmlns:sodipodi="http://sodipodi.sourceforge.net/DTD/sodipodi-0.dtd"
   xmlns:inkscape="http://www.inkscape.org/namespaces/inkscape"
   width="210mm"
   height="240mm"
   viewBox="0 0 744.09449 850.3937"
   id="svg5303"
   version="1.1"
   inkscape:version="0.91 r13725"
   sodipodi:docname="cover-2logo.svg">
  <defs
     id="defs5305">
    <inkscape:path-effect
       effect="spiro"
       id="path-effect6464"
       is_visible="true" />
    <inkscape:path-effect
       is_visible="true"
       id="path-effect6460"
       effect="spiro" />
    <inkscape:path-effect
       effect="spiro"
       id="path-effect6887"
       is_visible="true" />
    <inkscape:path-effect
       effect="spiro"
       id="path-effect6456"
       is_visible="true" />
    <inkscape:path-effect
       is_visible="true"
       id="path-effect6414"
       effect="spiro" />
    <inkscape:path-effect
       effect="spiro"
       id="path-effect6887-6"
       is_visible="true" />
    <inkscape:path-effect
       effect="spiro"
       id="path-effect6410"
       is_visible="true" />
    <inkscape:path-effect
       is_visible="true"
       id="path-effect6406"
       effect="spiro" />
    <inkscape:path-effect
       effect="spiro"
       id="path-effect9607-8-0-1"
       is_visible="true" />
    <inkscape:path-effect
       effect="spiro"
       id="path-effect9607-8-0-1-3"
       is_visible="true" />
  </defs>
  <sodipodi:namedview
     id="base"
     pagecolor="#ffffff"
     bordercolor="#666666"
     borderopacity="1.0"
     inkscape:pageopacity="0.0"
     inkscape:pageshadow="2"
     inkscape:zoom="0.55048827"
     inkscape:cx="151.74404"
     inkscape:cy="237.74904"
     inkscape:document-units="px"
     inkscape:current-layer="layer1"
     showgrid="false"
     inkscape:window-width="1855"
     inkscape:window-height="1056"
     inkscape:window-x="65"
     inkscape:window-y="24"
     inkscape:window-maximized="1" />
  <metadata
     id="metadata5308">
    <rdf:RDF>
      <cc:Work
         rdf:about="">
        <dc:format>image/svg+xml</dc:format>
        <dc:type
           rdf:resource="http://purl.org/dc/dcmitype/StillImage" />
        <dc:title></dc:title>
      </cc:Work>
    </rdf:RDF>
  </metadata>
  <g
     inkscape:label="Layer 1"
     inkscape:groupmode="layer"
     id="layer1"
     transform="translate(0,-201.9685)">
    <path
       style="fill:none;stroke:#000000;stroke-width:0.99999994"
       d="m 447.23793,232.38194 c 0.22798,-0.37504 0.55698,-0.688 0.94293,-0.89698 0.38594,-0.20898 0.82785,-0.31343 1.26651,-0.29936 0.43867,0.0141 0.87298,0.14661 1.24474,0.37989 0.37176,0.23327 0.68004,0.56668 0.88352,0.95555 0.26783,0.51184 0.35016,1.10663 0.3085,1.6828 -0.0984,1.36046 -0.90664,2.64988 -2.08824,3.33131 -1.18161,0.68143 -2.70246,0.73523 -3.92926,0.13899 m -290.0181,-4.0776 c -0.84813,5.07191 -0.84813,10.28459 0,15.3565 0.14654,0.8763 0.31988,1.7544 0.64771,2.58018 0.32782,0.82577 0.8201,1.60298 1.51609,2.15522 0.62122,0.49291 1.39439,0.79151 2.18565,0.8441 0.79127,0.0526 1.59716,-0.14105 2.27815,-0.5474 m 55.0783,-20.3886 0,0.6073 m 202.7156,-0.6073 c -0.87958,5.09761 -0.87958,10.34579 0,15.4434 0.14619,0.84723 0.318,1.69571 0.63413,2.49524 0.31612,0.79953 0.78528,1.5536 1.44787,2.10146 0.62413,0.51606 1.41014,0.83338 2.21762,0.89529 0.80748,0.0619 1.63268,-0.1319 2.32818,-0.54679 m -247.2811,-19.4342 c -0.28725,4.62125 -0.28725,9.26035 0,13.8816 0.0592,0.95252 0.13272,1.91541 0.42931,2.82251 0.29659,0.9071 0.84139,1.76581 1.65789,2.25989 0.5963,0.36084 1.30182,0.50734 1.99824,0.53523 0.69642,0.0279 1.39173,-0.0566 2.08516,-0.12683 3.64497,-0.36932 7.32934,-0.3485 10.9699,0.062 m 393.09,-19.4343 c -0.28684,4.6213 -0.28684,9.2604 0,13.8817 0.0591,0.95248 0.13253,1.91534 0.42901,2.82243 0.29648,0.9071 0.84117,1.76583 1.65759,2.25997 0.59638,0.36096 1.30203,0.5075 1.99857,0.53537 0.69655,0.0279 1.39198,-0.0567 2.08553,-0.12697 3.64495,-0.36953 7.32936,-0.34871 10.9699,0.062 m -435.37,-14.6624 25.368,0 m 94.8444,7.1143 c 0.50144,-1.71945 1.42886,-3.31296 2.6762,-4.5983 1.5877,-1.63606 3.66679,-2.75186 5.86174,-3.36804 2.19495,-0.61619 4.50543,-0.74918 6.78002,-0.59516 4.54919,0.30803 8.93772,1.73676 13.41184,2.6155 1.16979,0.22975 2.37605,0.43261 3.40278,1.03842 0.51336,0.30291 0.9741,0.70722 1.29368,1.21038 0.31958,0.50316 0.49141,1.10907 0.42744,1.7017 -0.0417,0.38633 -0.18175,0.75945 -0.38815,1.08868 -0.20639,0.32923 -0.47806,0.6153 -0.78435,0.85442 -0.58933,0.46009 -1.30366,0.74533 -2.03836,0.88394 -0.7347,0.13861 -1.49072,0.13497 -2.23428,0.0568 -1.48713,-0.15626 -2.92942,-0.60589 -4.41186,-0.80168 -2.66469,-0.35194 -5.35842,0.12445 -8.02646,0.45003 -2.66804,0.32557 -5.45247,0.48791 -7.97134,-0.45003 -1.42685,-0.53131 -2.73705,-1.40587 -4.23393,-1.68435 -0.74843,-0.13925 -1.54187,-0.11891 -2.246,0.17047 -0.35206,0.1447 -0.67827,0.35588 -0.9438,0.62861 -0.26552,0.27273 -0.46928,0.60765 -0.57517,0.97327 -0.11083,0.38269 -0.11297,0.79328 -0.0289,1.18273 0.084,0.38945 0.25247,0.75818 0.47235,1.09043 0.43975,0.66448 1.07401,1.1753 1.7277,1.63094 3.28038,2.28653 7.26044,3.42315 11.24371,3.77329 3.98328,0.35015 7.99459,-0.0494 11.95319,-0.61379 2.90937,-0.4148 5.80601,-0.91882 8.6845,-1.5111 m 23.0827,1.3013 0,-9.1098 c 0,-0.78112 -0.0718,-1.56459 0,-2.3424 0.0288,-0.31143 0.09,-0.62507 0.2353,-0.902 0.21096,-0.40195 0.59043,-0.70084 1.01319,-0.8662 0.42276,-0.16536 0.88669,-0.20507 1.33952,-0.17318 0.90565,0.0638 1.76965,0.40323 2.66839,0.53188 0.96122,0.13759 1.94288,0.0309 2.8932,-0.16855 0.95032,-0.19944 1.87869,-0.49058 2.8204,-0.72735 3.42584,-0.86133 7.03324,-0.99313 10.5128,-0.3841 m 126.383,2.7763 c 1.11733,-0.52887 2.27922,-0.96358 3.4693,-1.298 2.01089,-0.56507 4.09033,-0.84153 6.1294,-1.2945 3.27933,-0.72849 6.48273,-1.91818 9.83587,-2.12111 1.67657,-0.10147 3.38533,0.0522 4.96518,0.62253 1.57985,0.5703 3.02669,1.57624 3.97365,2.96348 0.85585,1.25376 1.27208,2.75554 1.5334,4.2509 0.47021,2.69071 0.48108,5.46109 0.032,8.1554 m 24.911,0.086 0,-9.1099 c 0,-0.78116 -0.0765,-1.56499 0,-2.3424 0.0306,-0.31103 0.0952,-0.62273 0.2353,-0.9021 0.20696,-0.41267 0.57284,-0.73487 0.99122,-0.93002 0.41838,-0.19515 0.88676,-0.26873 1.3483,-0.2581 0.92307,0.0213 1.80271,0.36598 2.68148,0.64932 5.22201,1.6837 11.10032,1.22495 15.9979,-1.2485 m 8.9131,0 25.368,0 m -529.300201,11.192 c -3.328741,4.48003 -8.732937,7.34871 -14.308808,7.59545 -5.575872,0.24675 -11.212337,-2.13336 -14.923792,-6.30185 -1.006581,-1.13053 -1.88185,-2.39279 -2.459082,-3.79212 -0.577232,-1.39932 -0.847641,-2.94265 -0.642418,-4.44238 0.321178,-2.34711 1.8129,-4.45 3.78094,-5.76867 1.96804,-1.31866 4.371078,-1.8975 6.740011,-1.91206 4.737868,-0.0291 9.188132,2.06389 13.585649,3.82743 2.775238,1.11296 5.597216,2.10936 8.456,2.9857 m 161.349701,-3.0365 c 1.29903,1.27592 2.57273,2.57763 3.8201,3.9041 2.31756,2.46453 4.54887,5.01915 7.0584,7.2879 1.05271,0.95171 2.17306,1.86394 3.48034,2.41619 0.65364,0.27612 1.35038,0.45868 2.05889,0.4975 0.7085,0.0388 1.42916,-0.0688 2.08037,-0.35059 0.59407,-0.25708 1.11901,-0.65235 1.5975,-1.0883 0.8581,-0.78182 1.57987,-1.69884 2.3083,-2.6027 2.81196,-3.48919 5.7849,-6.84865 8.9062,-10.0641 m 78.161,0.1733 0,1.0412 m 202.7156,-1.0412 0,1.0412 m -449.9967,-0.9544 c -0.28675,2.88258 -0.28675,5.79362 0,8.6762 0.072,0.72364 0.16266,1.44893 0.3611,2.14853 0.19844,0.69961 0.50931,1.37658 0.9825,1.92877 0.43721,0.51021 1.00429,0.90211 1.62105,1.16872 0.61675,0.2666 1.28255,0.41042 1.95235,0.46358 1.33961,0.10633 2.67959,-0.14455 3.9961,-0.4141 4.7557,-0.97372 9.66119,-2.21011 14.398,-1.1483 1.06279,0.23824 2.11375,0.59213 3.20279,0.60918 0.54452,0.009 1.09571,-0.0701 1.5971,-0.28262 0.50139,-0.21256 0.95116,-0.56492 1.23291,-1.03096 0.3042,-0.50318 0.39864,-1.10971 0.38079,-1.69743 -0.0179,-0.58771 -0.14083,-1.16633 -0.24299,-1.74537 -0.50506,-2.86261 -0.50506,-5.81359 0,-8.6762 m 86.3884,0 0,13.4479 m 308.987,-0.9545 c -3.53429,-0.26174 -7.11555,0.12442 -10.5128,1.1336 -2.29109,0.68058 -4.51806,1.64567 -6.88892,1.94785 -1.18543,0.15109 -2.40333,0.131 -3.55845,-0.17523 -1.15511,-0.30623 -2.24635,-0.91013 -3.03653,-1.80662 -0.72037,-0.81729 -1.16979,-1.8527 -1.37306,-2.92301 -0.20326,-1.07031 -0.1686,-2.17605 0.002,-3.25209 0.45501,-2.87402 1.90071,-5.58169 4.03579,-7.55867 2.13507,-1.97699 4.94575,-3.21053 7.84622,-3.44353 2.90047,-0.23301 5.87202,0.53603 8.29532,2.14682 2.42329,1.6108 4.2827,4.05296 5.19067,6.81748 m 133.2393,1.2145 48.0526,0 m -576.6673,5.813 0,1.0411 m 209.1147,3.3838 c -1.04322,5.10636 -1.04322,10.42354 0,15.5299 0.17383,0.85085 0.37813,1.70158 0.73052,2.49529 0.35239,0.79371 0.86217,1.53334 1.55958,2.05081 0.61607,0.45712 1.36867,0.72773 2.13477,0.76761 0.7661,0.0399 1.54273,-0.15113 2.20293,-0.54181 m 16.6835,-20.3018 c -0.98591,5.08464 -0.98591,10.35856 0,15.4432 0.16793,0.86606 0.36604,1.73262 0.71704,2.54197 0.351,0.80935 0.86476,1.56466 1.57286,2.09083 0.61585,0.45762 1.36855,0.72857 2.13478,0.76846 0.76622,0.0399 1.54298,-0.15145 2.20302,-0.54266 m -216.4281,-19.4343 c -0.26862,4.59303 -0.26862,9.20177 0,13.7948 0.0566,0.96802 0.12718,1.94637 0.42186,2.87018 0.29468,0.92381 0.83816,1.80081 1.65964,2.31602 0.6252,0.39211 1.37268,0.55215 2.11003,0.58268 0.73735,0.0305 1.47349,-0.0612 2.20757,-0.13708 3.56792,-0.3688 7.17424,-0.36511 10.7414,0.011 m 462.3378,-19.4343 c -0.47201,4.64024 -0.47201,9.32836 0,13.9686 0.0979,0.96253 0.21853,1.93351 0.55467,2.84074 0.33615,0.90723 0.90994,1.75649 1.73993,2.25366 0.66746,0.39982 1.45976,0.54945 2.23768,0.56336 0.77792,0.0139 1.55156,-0.10032 2.32402,-0.19336 3.41166,-0.41093 6.87264,-0.41093 10.2843,0 M 46.377719,276.633 c 0.577205,-2.79487 0.577205,-5.70763 0,-8.5025 -0.119802,-0.58009 -0.264686,-1.15924 -0.288715,-1.75108 -0.02403,-0.59184 0.08354,-1.20896 0.426615,-1.69182 0.274079,-0.38575 0.684247,-0.66294 1.129012,-0.8245 0.444765,-0.16156 0.923609,-0.21294 1.396733,-0.20447 0.946248,0.017 1.875562,0.26716 2.821355,0.30107 1.950401,0.0699 3.803092,-0.77398 5.7135,-1.1731 3.139485,-0.6559 6.397248,-0.10234 9.5987,-0.2954 1.327637,-0.0801 2.652349,-0.28902 3.980837,-0.22459 0.664243,0.0322 1.328392,0.1338 1.95756,0.34921 0.629168,0.21542 1.223493,0.54745 1.704303,1.00688 0.573597,0.5481 0.970024,1.26177 1.231122,2.01094 0.261098,0.74916 0.393332,1.53672 0.496378,2.32336 0.376694,2.87563 0.376694,5.80037 0,8.676 m 23.996801,-11.5392 c 6.46552,-0.90299 12.94139,-1.73193 19.4259,-2.4866 1.37551,-0.16008 2.7688,-0.31673 4.14067,-0.12797 1.37187,0.18875 2.74203,0.76274 3.61923,1.83427 0.46901,0.57292 0.77854,1.26358 0.97848,1.97649 0.19995,0.7129 0.29446,1.45084 0.36882,2.18751 0.27052,2.68014 0.28193,5.38637 0.034,8.0687 m 16.912,-14.055 24.9109,0 m 76.5611,14.1418 0,-9.1098 c 0,-0.78119 -0.0763,-1.56504 0,-2.3425 0.0305,-0.31104 0.095,-0.62279 0.235,-0.9022 0.2069,-0.4128 0.57297,-0.73502 0.99155,-0.92997 0.41858,-0.19495 0.88714,-0.26813 1.34876,-0.257 0.92323,0.0223 1.80259,0.36833 2.68119,0.65277 5.2211,1.69028 11.10356,1.22951 15.9978,-1.2531 m 15.0837,7.1142 c 0.77125,-2.00291 2.04723,-3.8092 3.6772,-5.2055 1.72267,-1.47571 3.82083,-2.48364 6.01742,-3.04962 2.19659,-0.56598 4.49117,-0.69934 6.75392,-0.54017 4.52548,0.31833 8.88028,1.7818 13.19546,3.18199 1.09855,0.35646 2.22603,0.72434 3.12295,1.45194 0.44845,0.36381 0.83172,0.81668 1.06979,1.34279 0.23806,0.52612 0.32485,1.12793 0.19526,1.69067 -0.17005,0.73845 -0.70525,1.36354 -1.3654,1.7356 -0.66014,0.37206 -1.4345,0.50795 -2.19202,0.4883 -1.51504,-0.0393 -2.94458,-0.66655 -4.42088,-1.0092 -3.10722,-0.72119 -6.3483,-0.1712 -9.50521,0.28583 -3.1569,0.45703 -6.46608,0.80443 -9.46379,-0.28583 -1.17194,-0.42623 -2.28046,-1.068 -3.51231,-1.26209 -0.61592,-0.097 -1.26019,-0.0757 -1.84471,0.14132 -0.58452,0.21707 -1.10414,0.64306 -1.36198,1.21077 -0.20708,0.45595 -0.23732,0.97799 -0.1577,1.4724 0.10749,0.66744 0.40898,1.29686 0.82754,1.82775 0.41856,0.53088 0.95158,0.96563 1.53401,1.30886 1.16485,0.68647 2.50531,1.0048 3.82955,1.27779 6.67808,1.37668 13.57462,1.82806 20.3402,0.9801 2.31073,-0.28961 4.60258,-0.72975 6.8562,-1.3167 m 67.8766,-5.7262 c 0.77128,-2.00295 2.04729,-3.80927 3.6773,-5.2056 1.72268,-1.47571 3.82083,-2.48366 6.01742,-3.04965 2.19659,-0.566 4.49117,-0.69939 6.75392,-0.54024 4.5255,0.3183 8.88031,1.78177 13.19546,3.18209 1.09853,0.35649 2.22599,0.72441 3.12289,1.45203 0.44844,0.36382 0.8317,0.8167 1.06975,1.34281 0.23806,0.52611 0.32484,1.12792 0.19526,1.69066 -0.17005,0.73846 -0.70525,1.36357 -1.3654,1.73565 -0.66015,0.37207 -1.43453,0.50798 -2.19206,0.48833 -1.51506,-0.0393 -2.94463,-0.66656 -4.42094,-1.00928 -3.10713,-0.72131 -6.34817,-0.17178 -9.50504,0.28506 -3.15687,0.45684 -6.4658,0.80434 -9.46376,-0.28506 -1.17188,-0.42584 -2.28042,-1.06704 -3.5121,-1.26097 -0.61584,-0.097 -1.25997,-0.0757 -1.84446,0.14116 -0.5845,0.21685 -1.10421,0.64243 -1.36254,1.20981 -0.20753,0.45583 -0.23834,0.97809 -0.1577,1.4724 0.10541,0.6462 0.39532,1.25601 0.79734,1.7728 0.40202,0.51678 0.91376,0.94275 1.47382,1.2819 1.1201,0.67832 2.41279,1.00703 3.69154,1.2891 6.737,1.48605 13.72438,1.91875 20.5685,1.0507 2.31025,-0.29301 4.60184,-0.73306 6.8563,-1.3166 m 23.3112,1.2145 0,-9.4568 c 0,-0.81021 -0.08,-1.62324 0,-2.4295 0.0309,-0.31096 0.0948,-0.62283 0.2354,-0.9019 0.21576,-0.42827 0.60493,-0.75592 1.04531,-0.94576 0.44038,-0.18984 0.92934,-0.24888 1.40828,-0.22461 0.95788,0.0486 1.86605,0.41662 2.79591,0.65167 2.87082,0.72567 5.88941,0.17567 8.80829,-0.32271 2.91887,-0.49838 5.9803,-0.93302 8.78941,0.004 0.7589,0.25301 1.48222,0.60168 2.23157,0.88168 0.74936,0.28001 1.5401,0.49288 2.33923,0.45652 0.70203,-0.0319 1.37907,-0.25408 2.0569,-0.4396 1.71486,-0.46935 3.48453,-0.71235 5.2564,-0.859 4.2549,-0.35215 8.539,-0.1548 12.7982,-0.4504 1.18953,-0.0826 2.38774,-0.20334 3.57032,-0.0507 1.18258,0.15264 2.37148,0.61117 3.15798,1.50739 0.51633,0.58835 0.83076,1.33219 1.00835,2.09456 0.17758,0.76237 0.22557,1.54832 0.26235,2.33024 0.12777,2.71646 0.12777,5.43894 0,8.1554 m 23.0826,-6.9408 c 1.4634,-2.42463 3.52117,-4.48759 5.9421,-5.9571 3.69443,-2.24253 8.14853,-3.05714 12.45996,-2.75819 4.31142,0.29895 8.49617,1.66164 12.40294,3.50959 0.8968,0.42419 1.80134,0.88897 2.4785,1.61398 0.33858,0.36251 0.61496,0.78826 0.77216,1.25872 0.1572,0.47046 0.19138,0.98686 0.0608,1.4654 -0.18887,0.69237 -0.71551,1.26522 -1.35151,1.59774 -0.63599,0.33252 -1.37208,0.44063 -2.08882,0.40386 -1.43346,-0.0735 -2.77405,-0.69482 -4.16547,-1.0472 -3.24922,-0.82288 -6.66351,-0.16338 -9.97194,0.37416 -1.65421,0.26876 -3.32029,0.50686 -4.99619,0.51057 -1.6759,0.004 -3.37055,-0.23379 -4.91487,-0.88473 -1.12647,-0.47482 -2.18296,-1.17052 -3.38944,-1.3675 -0.60324,-0.0985 -1.2401,-0.063 -1.79815,0.18639 -0.27902,0.12468 -0.53563,0.30205 -0.74253,0.52698 -0.2069,0.22493 -0.36326,0.49785 -0.44168,0.79323 -0.12385,0.46646 -0.0497,0.96634 0.1079,1.4225 0.32873,0.95142 1.00788,1.75321 1.80579,2.36688 0.79791,0.61367 1.71407,1.05415 2.63931,1.45062 8.47271,3.63064 18.37357,3.78996 26.9587,0.4338 m 25.5965,1.1279 c 0.52667,-2.80147 0.52667,-5.70103 0,-8.5025 -0.10894,-0.57946 -0.24058,-1.15824 -0.26103,-1.74749 -0.0204,-0.58926 0.0787,-1.19981 0.39813,-1.69541 0.26047,-0.40417 0.65661,-0.7117 1.09697,-0.90478 0.44036,-0.19308 0.92371,-0.27593 1.40444,-0.28556 0.96147,-0.0193 1.90221,0.24592 2.84649,0.42794 4.99562,0.96297 10.10345,-0.39456 15.0837,-1.4341 1.36784,-0.28551 2.76031,-0.54882 4.15378,-0.44526 0.69674,0.0518 1.38977,0.19663 2.03372,0.46764 0.64395,0.27101 1.23825,0.67069 1.7018,1.19342 0.50594,0.57054 0.84546,1.27387 1.06681,2.00358 0.22134,0.72972 0.32933,1.48869 0.41409,2.24652 0.3189,2.85122 0.3189,5.73798 0,8.5892 m 17.1406,-14.0551 24.9108,0 m -604.033001,0.4338 0,1.4748 m 201.115801,-1.4748 0,1.1278 m 330.9269,-1.1278 0,1.4748 m -356.0664,-1.3881 0,13.5346 m 219.8562,-13.5346 0,0.5206 m -249.5665,-0.4338 c -1.02006,1.48831 -1.56461,3.29735 -1.5356,5.10145 0.029,1.8041 0.63142,3.5947 1.6988,5.04945 1.2016,1.63769 2.9585,2.82228 4.8647,3.5239 2.31636,0.85258 4.83748,1.01859 7.30039,0.85577 2.46291,-0.16283 4.89182,-0.64372 7.32621,-1.05137 3.2575,-0.54548 6.53673,-0.96122 9.8273,-1.2459 m 247.7382,-10.932 0,12.1465 m -340.9828,-1.0411 c -3.69103,-0.2765 -7.43317,0.14537 -10.97,1.2367 -2.21144,0.68236 -4.36412,1.62825 -6.66006,1.91936 -1.14797,0.14555 -2.32787,0.12183 -3.44441,-0.18209 -1.11654,-0.30392 -2.16838,-0.89944 -2.92233,-1.77727 -0.72221,-0.84087 -1.14782,-1.91239 -1.30854,-3.00912 -0.16072,-1.09673 -0.0665,-2.21966 0.16584,-3.30348 0.58949,-2.74966 2.08882,-5.29629 4.20714,-7.14586 2.11831,-1.84956 4.84386,-2.99179 7.6479,-3.20511 2.80404,-0.21332 5.67102,0.50346 8.04475,2.01129 2.37373,1.50783 4.24105,3.79834 5.23971,6.42718 m -25.8251,13.4479 0,0.347 m 393.7757,-0.088 c 4.66482,1.38778 9.73318,1.38778 14.398,0 0.83023,-0.24699 1.65996,-0.53905 2.52498,-0.58417 0.43251,-0.0226 0.87144,0.0184 1.28237,0.15518 0.41092,0.1368 0.79328,0.3725 1.07425,0.70209 0.32376,0.37977 0.50286,0.87994 0.49376,1.3789 -0.009,0.49896 -0.2063,0.99227 -0.54368,1.35999 -0.33738,0.36772 -0.81192,0.60658 -1.30826,0.6585 -0.49634,0.0519 -1.01004,-0.0836 -1.41622,-0.37349 m -279.0987,-1.1279 18.4782,0.087 m 21.0594,-2.1285 c -0.43761,-0.94863 -1.26304,-1.71127 -2.24326,-2.07262 -0.98022,-0.36134 -2.10316,-0.31694 -3.05179,0.12067 -0.94863,0.43761 -1.71127,1.26304 -2.07262,2.24326 -0.36134,0.98022 -0.31694,2.10316 0.12067,3.05179 0.43761,0.94863 1.26304,1.71127 2.24326,2.07262 0.98022,0.36134 2.10316,0.31694 3.05179,-0.12067 0.94863,-0.43761 1.71127,-1.26304 2.07262,-2.24326 0.36134,-0.98022 0.31694,-2.10316 -0.12067,-3.05179 m 125.6975,1.9556 18.178,0 m 21.1309,-1.9497 3.1996,-0.046 -10.3552,3.4703 7.1556,-3.4245 m 36.1095,0.1276 -9.3702,1.5617 m -155.8648,-1.4749 -9.1417,1.4749 m -174.148,1.4134 4.7959,0.7643 m 24.6858,-0.7534 0,0 m 28.7962,0.8193 13.7193,-0.068"
       id="path6404" />
    <path
       style="fill:none;stroke:#000000;stroke-width:0.99999988"
       d="m 123.43133,306.54654 0,0.45 m 278.1176,29.8866 c 5.74086,2.79394 12.76484,2.79394 18.5057,0 1.08723,-0.52913 2.16668,-1.16333 3.36994,-1.28266 0.60162,-0.0597 1.22649,0.0183 1.76485,0.29344 0.53836,0.27511 0.98158,0.75973 1.13951,1.34332 0.12671,0.46821 0.0655,0.97683 -0.12598,1.42248 -0.1915,0.44565 -0.50753,0.83084 -0.87736,1.14469 -0.73966,0.62771 -1.6721,0.96917 -2.56256,1.35413 -5.06955,2.19165 -9.32801,6.20631 -11.8144,11.138 M 46.648429,339.17864 c 0.40184,-1.14532 1.184673,-2.1533 2.194871,-2.82615 1.010198,-0.67284 2.242021,-1.00672 3.45373,-0.93612 1.211708,0.0706 2.396415,0.5453 3.321628,1.33092 0.925214,0.78563 1.585675,1.87771 1.851771,3.06195 0.261019,1.16164 0.143791,2.39765 -0.282354,3.50938 -0.426145,1.11173 -1.154461,2.09906 -2.057011,2.87555 -1.805099,1.55299 -4.248324,2.22703 -6.629535,2.22757 -0.700894,1.6e-4 -1.401469,-0.0538 -2.10213,-0.0358 -0.700662,0.0181 -1.410057,0.11119 -2.052527,0.39134 -0.642471,0.28015 -1.215852,0.76398 -1.49796,1.4056 -0.141054,0.3208 -0.206548,0.67653 -0.173861,1.02544 0.03269,0.34892 0.165326,0.69002 0.388678,0.96007 0.223463,0.27018 0.531744,0.4636 0.863377,0.57742 0.331633,0.11382 0.686265,0.15077 1.036718,0.13991 0.700905,-0.0217 1.38058,-0.22977 2.069005,-0.36323 1.636984,-0.31735 3.322396,-0.22576 4.987623,-0.13946 1.665227,0.0863 3.332116,0.13946 4.999577,0.13946 l 9.9872,0 m 25.8493,-15.4735 c 1.229905,-2.3917 3.50021,-4.2249 6.097324,-4.9234 2.597117,-0.6985 5.480697,-0.25144 7.744397,1.20065 2.2637,1.4521 3.87235,3.88667 4.32033,6.5385 0.44798,2.65184 -0.27167,5.47973 -1.93275,7.59485 -1.21021,1.541 -2.87454,2.68832 -4.67429,3.46303 -1.79976,0.77472 -3.7359,1.19153 -5.680111,1.43517 -3.678486,0.46097 -7.604598,0.26479 -10.799708,-1.61538 -1.597556,-0.94008 -2.969698,-2.29768 -3.799798,-3.95505 -0.830099,-1.65737 -1.092271,-3.61882 -0.589894,-5.40307 0.526756,-1.87084 1.900102,-3.48547 3.66217,-4.3056 1.762068,-0.82013 3.881742,-0.83127 5.65233,-0.0297 m 89.591401,-0.052 c -0.14839,-1.1781 -0.84711,-2.27516 -1.85196,-2.90777 -1.00485,-0.63262 -2.29616,-0.78841 -3.42263,-0.41293 -1.12648,0.37549 -2.06606,1.2749 -2.49038,2.3839 -0.42432,1.109 -0.32506,2.40588 0.26307,3.4374 0.48477,0.85024 1.27181,1.50235 2.14744,1.93959 0.87564,0.43724 1.83944,0.67192 2.80698,0.81946 1.93509,0.29509 3.94718,0.26187 5.77858,0.95295 1.53454,0.57906 2.87341,1.66468 3.7555,3.04744 0.8821,1.38277 1.30223,3.05512 1.1765,4.69046 -0.16682,2.16976 -1.29798,4.22715 -2.97201,5.61759 -1.67403,1.39043 -3.85931,2.12055 -6.03546,2.12911 -2.17614,0.009 -4.33359,-0.68581 -6.16161,-1.8665 -1.82801,-1.1807 -3.33097,-2.83523 -4.43422,-4.711 -0.8649,-1.47052 -1.49308,-3.0871 -1.7783,-4.7691 -0.4206,-2.48033 -0.0762,-5.08501 0.97469,-7.37075 1.05086,-2.28575 2.8037,-4.24293 4.96021,-5.53845 m 105.3475,4.6292 c 0.24347,-1.25749 0.89036,-2.43364 1.82198,-3.31264 0.93162,-0.879 2.14336,-1.4565 3.41286,-1.62653 1.2695,-0.17002 2.5905,0.0683 3.72059,0.67113 1.13009,0.60286 2.06368,1.56734 2.62947,2.71644 0.60674,1.23228 0.78562,2.66207 0.5506,4.01537 -0.23503,1.3533 -0.87608,2.62653 -1.78567,3.65576 -0.90959,1.02922 -2.08199,1.8162 -3.36116,2.31658 -1.27917,0.50037 -2.6628,0.71752 -4.03597,0.68509 -0.79206,-0.0187 -1.58028,-0.11903 -2.37211,-0.14578 -0.79183,-0.0268 -1.59918,0.0229 -2.34388,0.29337 -0.7447,0.27044 -1.42565,0.78346 -1.76889,1.49753 -0.17161,0.35704 -0.25489,0.75872 -0.22077,1.15339 0.0341,0.39467 0.18806,0.7809 0.44885,1.07909 0.22641,0.25888 0.52761,0.44687 0.85123,0.56327 0.32362,0.1164 0.66943,0.16331 1.01334,0.16592 0.68781,0.005 1.36328,-0.16293 2.04233,-0.27249 1.69368,-0.27327 3.42218,-0.19415 5.13616,-0.11993 1.71398,0.0742 3.42915,0.11993 5.14474,0.11993 l 9.9872,0 m 25.5556,-15.4666 c 1.36929,-0.0744 2.74153,-0.0944 4.1124,-0.06 3.22597,0.081 6.59717,0.5196 9.23821,2.37387 1.32052,0.92714 2.41795,2.2057 2.99383,3.71292 0.57588,1.50722 0.5998,3.24633 -0.0711,4.71371 -0.747,1.63374 -2.28016,2.80848 -3.95,3.47088 -1.66984,0.66239 -3.48215,0.86759 -5.2735,1.00252 -3.79589,0.28592 -7.78382,0.24562 -11.17574,-1.48222 -1.69596,-0.86392 -3.19991,-2.15322 -4.16284,-3.79499 -0.96293,-1.64177 -1.35357,-3.64598 -0.90832,-5.49649 0.45533,-1.8924 1.79387,-3.5526 3.54665,-4.39893 1.75279,-0.84632 3.88532,-0.86213 5.65045,-0.0419 m 46.4112,0.1655 -12.0434,2.0251 m -222.3321,-1.9126 -11.7496,1.9126 m 11.968,-2.5188 c -0.81163,3.92778 -0.98529,7.98665 -0.5121,11.9694 0.14563,1.22573 0.35951,2.46746 0.9253,3.5645 0.49078,0.9516 1.24132,1.76761 2.14866,2.33608 0.90733,0.56847 1.96902,0.88786 3.0394,0.91436 1.07038,0.0265 2.14657,-0.23997 3.08092,-0.76284 0.93435,-0.52288 1.72435,-1.30075 2.26162,-2.2269 m 222.6259,-15.2774 c -0.47493,3.79768 -0.47493,7.65452 0,11.4522 0.15313,1.2245 0.36281,2.46611 0.9253,3.5645 0.48858,0.95407 1.23834,1.77276 2.14587,2.34317 0.90753,0.57041 1.97036,0.89098 3.04193,0.91751 1.07158,0.0265 2.14897,-0.24106 3.08362,-0.76586 0.93464,-0.5248 1.72398,-1.30539 2.25918,-2.23412 M 42.652229,320.15974 c 4.324912,0.24852 8.622874,0.96335 12.7954,2.1281 1.770309,0.49418 3.575467,1.07539 5.405224,0.90163 0.914879,-0.0869 1.822945,-0.37099 2.570008,-0.9062 0.747064,-0.53521 1.322077,-1.33412 1.498468,-2.23603 0.110465,-0.56482 0.06369,-1.15718 -0.116188,-1.70387 -0.17988,-0.54668 -0.490976,-1.04751 -0.887723,-1.46442 -0.793495,-0.83382 -1.912659,-1.31498 -3.054057,-1.46362 -1.141397,-0.14865 -2.306104,0.0165 -3.412924,0.33246 -1.10682,0.31597 -2.164761,0.78001 -3.219223,1.24152 -1.054462,0.46151 -2.113512,0.92342 -3.221626,1.23481 -1.108114,0.3114 -2.274302,0.46936 -3.414434,0.3113 -1.140132,-0.15806 -2.254968,-0.65111 -3.038081,-1.49469 -0.391556,-0.42178 -0.695973,-0.92686 -0.86794,-1.47608 -0.171967,-0.54923 -0.209575,-1.14239 -0.0898,-1.70531 0.173934,-0.81748 0.676748,-1.54685 1.333082,-2.0643 0.656334,-0.51744 1.458446,-0.83153 2.281257,-0.97819 1.645622,-0.29332 3.328949,0.0625 4.967461,0.39319 3.946771,0.79666 7.921409,1.45527 11.9142,1.9742 m 18.5058,-0.1134 c 1.379335,-0.51156 2.750375,-1.04549 4.1124,-1.6015 2.868206,-1.17087 5.769982,-2.4578 8.86232,-2.64487 1.546168,-0.0935 3.1252,0.0997 4.552077,0.70253 1.42687,0.60283 2.69412,1.63238 3.4546,2.98184 0.56188,0.99705 0.8342,2.13106 1.0084,3.2622 0.3151,2.04599 0.32896,4.13812 0.041,6.1881 m 35.5428,-1.8004 c 5.23997,1.01217 10.53954,1.71565 15.8621,2.1056 1.23222,0.0903 2.4921,0.16129 3.68425,-0.16317 0.59608,-0.16223 1.16939,-0.42466 1.65404,-0.80773 0.48465,-0.38307 0.87806,-0.89032 1.08581,-1.4721 0.18166,-0.5087 0.21806,-1.06609 0.12092,-1.59744 -0.0971,-0.53136 -0.32602,-1.03615 -0.64797,-1.46989 -0.64389,-0.86747 -1.64618,-1.43122 -2.7016,-1.66182 -1.05543,-0.23061 -2.16145,-0.1471 -3.21141,0.10726 -1.04995,0.25435 -2.05171,0.67504 -3.03543,1.12156 -1.96745,0.89303 -3.97033,1.918 -6.13086,1.93926 -1.08027,0.0106 -2.18098,-0.24694 -3.07575,-0.85232 -0.44739,-0.30269 -0.83934,-0.69 -1.13287,-1.14345 -0.29353,-0.45344 -0.48728,-0.97338 -0.54493,-1.51046 -0.0621,-0.57872 0.0348,-1.17108 0.2582,-1.70853 0.22345,-0.53744 0.57153,-1.02015 0.9963,-1.41808 0.84954,-0.79586 1.98701,-1.239 3.1404,-1.39648 2.30678,-0.31497 4.60455,0.4433 6.8972,0.84849 2.0508,0.36244 4.15425,0.44589 6.1642,0.9911 1.12941,0.30636 2.21956,0.75714 3.2355,1.3379 m 28.493,-2.3149 c 0.43802,-2.36115 1.98416,-4.49231 4.09281,-5.64143 2.10865,-1.14912 4.73764,-1.29323 6.95926,-0.38148 2.22161,0.91176 3.99143,2.86115 4.68491,5.16028 0.69348,2.29912 0.29675,4.902 -1.05018,6.89013 -1.10554,1.63182 -2.78244,2.8153 -4.58934,3.60282 -1.80689,0.78752 -3.7509,1.20604 -5.69136,1.55198 -1.66777,0.29732 -3.3529,0.54529 -5.0469,0.53061 -1.694,-0.0147 -3.40613,-0.30073 -4.9359,-1.02851 -1.59104,-0.75693 -2.96518,-2.00641 -3.75837,-3.57969 -0.79319,-1.57328 -0.97439,-3.4701 -0.37633,-5.12741 0.34024,-0.94287 0.92381,-1.79678 1.67864,-2.45631 0.75484,-0.65953 1.67932,-1.12326 2.65931,-1.33394 0.97999,-0.21067 2.01337,-0.16784 2.97256,0.12321 0.95919,0.29106 1.84212,0.8297 2.53979,1.54944 m 32.4665,11.1183 c 0.34639,-2.15675 0.34639,-4.36875 0,-6.5255 -0.0724,-0.45104 -0.16016,-0.90242 -0.16275,-1.35923 -0.003,-0.45682 0.0863,-0.92676 0.33985,-1.30677 0.20979,-0.31445 0.52363,-0.55202 0.87031,-0.70269 0.34669,-0.15067 0.72551,-0.21782 1.10322,-0.23296 0.75541,-0.0303 1.50265,0.14211 2.25547,0.21165 1.54902,0.1431 3.10751,-0.15114 4.60442,-0.57446 1.49691,-0.42333 2.95565,-0.97639 4.46071,-1.36977 1.50506,-0.39337 3.08001,-0.62538 4.6177,-0.38986 1.53768,0.23551 3.04217,0.98319 3.95047,2.24609 0.65751,0.9142 0.96656,2.03194 1.1662,3.1402 0.40771,2.26336 0.40771,4.59954 0,6.8629 m -23.2056,-10.6883 0,1.1252 m -100.4598,-1.0125 0,10.4632 m -27.343597,22.3495 0,0.9 m 234.375597,-0.9 0,0.9 m -226.1252,-23.9246 c -0.73993,1.78396 -1.99721,3.3498 -3.57923,4.45762 -1.582004,1.10781 -3.483386,1.75385 -5.412827,1.83913 -1.929441,0.0853 -3.880406,-0.39049 -5.553989,-1.3544 -1.673582,-0.96392 -3.064114,-2.41273 -3.958551,-4.12445 -0.767111,-1.46805 -1.170023,-3.12633 -1.1497,-4.7826 0.02987,-2.43434 0.995246,-4.84554 2.65362,-6.62787 1.658373,-1.78234 3.993843,-2.91873 6.419727,-3.12371 2.425884,-0.20497 4.91892,0.52343 6.85284,2.00223 1.93393,1.47881 3.2902,3.69383 3.72811,6.08865 m 105.7215,31.0125 48.4368,0 m -119.8161,5.288 -11.4559,0.5624 m 245.5377,-0.5624 -11.4559,0.5624"
       id="path6408" />
    <g
       inkscape:export-ydpi="362.89999"
       inkscape:export-xdpi="362.89999"
       inkscape:export-filename="/home/pierre/Documents/osp.work.balsamine.2016-2017/programme/pages-titres/print/01.png"
       transform="translate(-947.83207,2390.8887)"
       id="g6416">
      <path
         style="fill:none;stroke:#000000;stroke-width:0.99999994"
         d="m 1047.2495,-1821.0123 c 1.7245,-0.6245 3.497,-1.1165 5.2967,-1.4702 1.2603,-0.2477 2.534,-0.4277 3.8136,-0.5389 m -3.9678,23.0676 6.8492,-2.6495 m -43.0091,0.4018 0,11.0895 m 108.5609,-31.3468 0,0.241 m -21.1867,0.1608 c -0.5789,2.5279 -0.5789,5.1865 0,7.7144 0.2301,1.0046 0.5578,2.0042 1.1428,2.8528 0.9461,1.3724 2.5646,2.2566 4.2306,2.311 1.666,0.054 3.3388,-0.722 4.3725,-2.0297 m -118.51876,9.4892 c -0.53835,2.5338 -0.53835,5.1806 0,7.7144 0.2132,1.0035 0.51747,2.0059 1.08688,2.8592 0.91309,1.3684 2.50874,2.2556 4.15288,2.3091 1.6442,0.053 3.2942,-0.7281 4.2943,-2.0342 m 102.3321,-10.8485 c -0.5415,2.5061 -0.5415,5.1279 0,7.634 0.2234,1.034 0.546,2.0656 1.1419,2.9396 0.9409,1.38 2.5627,2.2706 4.2321,2.3239 1.6695,0.053 3.3448,-0.7318 4.3719,-2.049 m -106.6966,-22.2664 c -1.7956,0.8937 -3.7349,1.498 -5.7204,1.7824 -1.9631,0.2812 -3.9636,0.2504 -5.93233,0.012 -1.6569,-0.2007 -3.36376,-0.5785 -4.66922,-1.6184 -0.65273,-0.52 -1.18721,-1.2028 -1.46579,-1.9895 -0.27858,-0.7866 -0.2883,-1.6786 0.0407,-2.4455 0.3573,-0.8329 1.08532,-1.4673 1.90117,-1.862 0.81586,-0.3947 1.71929,-0.5713 2.61805,-0.688 4.52192,-0.5871 9.22232,0.2905 13.22782,2.4697 m 12.7121,6.0269 c 0.1955,-1.68 0.1955,-3.3826 0,-5.0626 -0.036,-0.308 -0.078,-0.6173 -0.062,-0.927 0.016,-0.3097 0.095,-0.6242 0.28,-0.8731 0.1464,-0.1969 0.3539,-0.3443 0.5813,-0.4366 0.2273,-0.092 0.4741,-0.131 0.7195,-0.1334 0.4907,-0 0.9699,0.1323 1.4476,0.2446 2.9423,0.6916 6.0971,0.448 8.8984,-0.687 m 38.7718,1.6071 c 1.5128,-0.7853 3.1766,-1.2784 4.873,-1.4441 1.3369,-0.1306 2.6862,-0.06 4.0255,-0.163 1.1615,-0.09 2.3156,-0.31 3.4804,-0.2912 0.5823,0.01 1.1668,0.08 1.723,0.2524 0.5562,0.1728 1.0844,0.4511 1.5123,0.8463 0.6797,0.6278 1.0697,1.5122 1.3058,2.4068 0.3937,1.492 0.4038,3.0835 0.029,4.5804 m 9.1103,-7.7947 14.1951,0 m 31.5683,0.04 c 1.0223,-0.3861 2.1851,-0.3866 3.2078,-0 1.0227,0.3851 1.8963,1.1526 2.4099,2.1172 0.5136,0.9646 0.6628,2.1178 0.4115,3.1813 -0.2513,1.0636 -0.9008,2.0281 -1.7918,2.6608 -0.9753,0.6926 -2.209,0.9765 -3.4027,0.8982 -1.1937,-0.078 -2.3483,-0.5025 -3.3771,-1.1128 -1.1695,-0.6938 -2.214,-1.6607 -2.7884,-2.8931 -0.2872,-0.6162 -0.4522,-1.2927 -0.4501,-1.9726 0,-0.6799 0.1742,-1.3624 0.5211,-1.9471 0.5155,-0.8689 1.4216,-1.4958 2.4165,-1.6718 0.9948,-0.176 2.061,0.102 2.8433,0.7413 m 18.1529,7.8341 c 0.2438,-1.5408 0.2438,-3.12 0,-4.6608 -0.051,-0.3221 -0.1127,-0.6444 -0.1141,-0.9704 -0,-0.3261 0.062,-0.6613 0.2419,-0.9332 0.1506,-0.2275 0.3767,-0.3996 0.6267,-0.5089 0.25,-0.1092 0.5234,-0.1579 0.796,-0.1688 0.5452,-0.022 1.0844,0.1036 1.6275,0.1561 1.1273,0.1089 2.2629,-0.098 3.3545,-0.3997 1.0917,-0.3015 2.1559,-0.6979 3.2525,-0.9808 1.0966,-0.2829 2.2423,-0.4513 3.3625,-0.2849 1.1202,0.1663 2.2184,0.6984 2.8953,1.6064 0.5166,0.6929 0.7578,1.5521 0.9066,2.4035 0.2689,1.5381 0.2689,3.1227 0,4.6608 m -189.8504,12.5429 14.1951,0 m 12.0765,1.1251 c 3.8268,-0.2162 7.6447,-0.5892 11.4409,-1.1177 0.7525,-0.1048 1.5132,-0.2159 2.2691,-0.139 0.3779,0.038 0.7527,0.1245 1.1006,0.277 0.3479,0.1526 0.6686,0.3729 0.9185,0.659 0.283,0.3241 0.4688,0.7243 0.5863,1.1382 0.1175,0.414 0.1698,0.8434 0.2103,1.2718 0.1439,1.5223 0.1439,3.0581 0,4.5804 m 69.2807,-7.7948 14.1951,0 m 11.6528,7.8752 c 0.196,-1.6799 0.196,-3.3827 0,-5.0626 -0.036,-0.308 -0.079,-0.6174 -0.062,-0.9271 0.016,-0.3097 0.095,-0.6243 0.2807,-0.8729 0.1467,-0.1966 0.3545,-0.3436 0.5821,-0.4352 0.2275,-0.092 0.4744,-0.1295 0.7197,-0.131 0.4906,-0 0.9691,0.1365 1.4461,0.2512 3.0099,0.724 6.2457,0.4762 9.1103,-0.6976 m 8.2629,3.9375 c 0.5696,-1.1609 1.3914,-2.1972 2.3919,-3.0165 2.0491,-1.6779 4.7922,-2.3855 7.4359,-2.2255 2.6436,0.16 5.1917,1.1367 7.4563,2.51 0.3756,0.2278 0.75,0.4713 1.0373,0.8036 0.1436,0.1661 0.264,0.3538 0.3425,0.5589 0.079,0.2051 0.1144,0.4281 0.091,0.6464 -0.023,0.2104 -0.101,0.4136 -0.2185,0.5896 -0.1175,0.176 -0.2737,0.3251 -0.4509,0.4408 -0.3543,0.2315 -0.7854,0.3266 -1.2086,0.3269 -0.8465,7e-4 -1.6469,-0.3541 -2.4695,-0.5537 -1.7289,-0.4195 -3.5403,-0.1496 -5.303,0.092 -1.7626,0.2413 -3.5947,0.4466 -5.2904,-0.092 -0.626,-0.1987 -1.2277,-0.4975 -1.8798,-0.5761 -0.326,-0.039 -0.6633,-0.021 -0.9718,0.092 -0.3085,0.1126 -0.5864,0.3249 -0.7438,0.6131 -0.1514,0.2773 -0.1837,0.612 -0.1152,0.9205 0.069,0.3085 0.2332,0.591 0.4474,0.8234 0.4283,0.4647 1.0319,0.7223 1.6254,0.9393 3.9495,1.4441 8.2797,1.6582 12.443,1.0655 1.1404,-0.1623 2.2724,-0.3837 3.3899,-0.6629 m -143.9853,-27.329 0,0.5626 m 140.6124,-0.5626 0,0.8036 m -34.9751,19.5341 0,0.5626 m -3.3052,-20.8199 0,7.4733 m -80.9335,-4.1786 c 3.8928,0.3521 7.8731,-0.3119 11.4409,-1.9085 0.5519,-0.247 1.0952,-0.5162 1.6663,-0.7148 0.5711,-0.1985 1.1768,-0.3255 1.7794,-0.2758 0.6026,0.05 1.2037,0.2894 1.612,0.7354 0.2041,0.223 0.357,0.4946 0.4299,0.7879 0.073,0.2934 0.065,0.6082 -0.035,0.8936 -0.1057,0.3021 -0.3113,0.5651 -0.5669,0.7577 -0.2556,0.1927 -0.5594,0.3167 -0.8733,0.3792 -0.6278,0.125 -1.2793,0.01 -1.8935,-0.1725 -2.5154,-0.7373 -4.6382,-2.4924 -7.1543,-3.2273 -1.2581,-0.3674 -2.6328,-0.4628 -3.8674,-0.023 -0.6173,0.22 -1.1907,0.573 -1.6416,1.0486 -0.4509,0.4755 -0.7759,1.0752 -0.8963,1.7194 -0.097,0.5181 -0.061,1.0585 0.087,1.5644 0.1481,0.5059 0.4069,0.9773 0.7408,1.3851 0.6679,0.8156 1.624,1.3642 2.6352,1.6622 2.0225,0.596 4.1828,0.2332 6.2826,0.042 1.4812,-0.135 2.9698,-0.182 4.4493,-0.3352 1.1387,-0.118 2.271,-0.2988 3.3898,-0.5415 m -14.4917,16.5608 c 0.1268,-1.4977 0.7448,-2.9499 1.7363,-4.0796 0.9915,-1.1297 2.3511,-1.931 3.8198,-2.251 1.4686,-0.3201 3.0384,-0.1572 4.41,0.4575 1.3717,0.6148 2.5379,1.6781 3.2763,2.9873 0.2894,0.5132 0.5163,1.069 0.5958,1.6527 0.08,0.5838 0,1.1985 -0.2786,1.7153 -0.3088,0.5642 -0.852,0.9827 -1.4583,1.1975 -0.6063,0.2147 -1.2711,0.2348 -1.9041,0.1206 -1.2659,-0.2283 -2.3736,-0.9625 -3.4472,-1.6711 -1.0736,-0.7085 -2.1978,-1.4253 -3.4708,-1.6106 -0.6365,-0.093 -1.3012,-0.044 -1.8958,0.201 -0.5946,0.2452 -1.1135,0.6966 -1.3834,1.2804 -0.3134,0.6779 -0.2685,1.4913 0.038,2.1723 0.3068,0.681 0.8559,1.2347 1.4894,1.6303 0.8558,0.5343 1.8605,0.7936 2.865,0.8871 1.0046,0.094 2.0164,0.029 3.0228,-0.043 3.1835,-0.2257 6.3624,-0.5158 9.5341,-0.8702 m 11.8645,-5.3841 c 3.9569,-0.012 7.9136,-0.1265 11.8646,-0.3431 0.6655,-0.036 1.333,-0.076 1.9979,-0.029 0.6649,0.047 1.3313,0.1822 1.928,0.4792 0.6989,0.3479 1.292,0.9257 1.6032,1.6418 0.3112,0.716 0.3235,1.5686 -0.021,2.2694 -0.2823,0.5752 -0.7749,1.0161 -1.2712,1.4214 -1.7858,1.4582 -3.854,2.6836 -6.1395,2.9869 -1.1427,0.1516 -2.325,0.064 -3.4104,-0.324 -1.0854,-0.3882 -2.0694,-1.0851 -2.7384,-2.0239 -0.6281,-0.8815 -0.9655,-1.9586 -1.0001,-3.0404 -0.035,-1.0819 0.2282,-2.1659 0.7115,-3.1344 0.6823,-1.3672 1.8098,-2.5077 3.1689,-3.2058 1.3592,-0.6981 2.943,-0.95 4.4517,-0.7082 1.5087,0.2418 2.9344,0.9762 4.0074,2.0641 1.0729,1.0879 1.7873,2.5237 2.0082,4.0356 m 102.3321,-1.5269 83.9411,0 m -189.3665,-15.6768 c -0.4694,1.3744 -1.3595,2.6018 -2.5201,3.4749 -1.1605,0.8731 -2.5866,1.3882 -4.0372,1.4583 -1.4506,0.07 -2.9197,-0.3052 -4.159,-1.0624 -1.2393,-0.7572 -2.2436,-1.8932 -2.8432,-3.2159 -0.4861,-1.0724 -0.7075,-2.2642 -0.6348,-3.4394 0.1057,-1.7088 0.8456,-3.3711 2.0445,-4.5933 1.1989,-1.2222 2.8466,-1.994 4.5531,-2.1326 1.7064,-0.1387 3.4571,0.357 4.8375,1.3697 1.3805,1.0126 2.379,2.5337 2.7592,4.203 m 115.1206,0.6428 83.4918,0 m -192.0741,31.6506 0,0.4017 m -88.3784,19.5983 0,11.0895 m -15.013,-20 c 0.22749,-1.7312 0.22749,-3.4921 0,-5.2233 -0.0423,-0.3218 -0.0925,-0.6449 -0.0786,-0.9692 0.0139,-0.3243 0.0972,-0.6549 0.29637,-0.9112 0.14956,-0.1925 0.35857,-0.3345 0.58582,-0.4227 0.22724,-0.088 0.4724,-0.1242 0.71614,-0.1269 0.48746,-0.01 0.96547,0.1196 1.44643,0.1992 1.5755,0.2606 3.18548,0.034 4.76945,-0.169 1.584,-0.2029 3.2079,-0.3799 4.7646,-0.024 0.9239,0.2114 1.8098,0.608 2.7543,0.687 1.2165,0.1017 2.4048,-0.3306 3.6017,-0.5706 2.4296,-0.4872 4.9417,-0.1824 7.4154,-0.3278 0.6832,-0.04 1.3698,-0.1147 2.0498,-0.038 0.6801,0.077 1.368,0.3236 1.8308,0.8277 0.2909,0.3168 0.4774,0.7185 0.5905,1.1335 0.1131,0.4149 0.1565,0.8454 0.19,1.2742 0.1191,1.5237 0.1191,3.0567 0,4.5804 m 43.6447,-1.2856 c 3.7968,0.6185 7.6129,1.1183 11.4409,1.4987 0.8929,0.089 1.8081,0.1694 2.6765,-0.057 0.4342,-0.1131 0.8518,-0.3041 1.199,-0.5882 0.3473,-0.2841 0.6216,-0.6645 0.7474,-1.0951 0.095,-0.3246 0.1041,-0.6725 0.036,-1.0037 -0.068,-0.3312 -0.2129,-0.6453 -0.4126,-0.9182 -0.3993,-0.5457 -1.0118,-0.9158 -1.6658,-1.088 -0.6539,-0.1722 -1.3475,-0.1562 -2.0116,-0.029 -0.6641,0.1275 -1.3025,0.3637 -1.9247,0.6287 -0.8288,0.353 -1.6357,0.7589 -2.4815,1.069 -0.8458,0.3101 -1.7423,0.524 -2.6416,0.4728 -0.8994,-0.051 -1.8057,-0.3901 -2.4187,-1.0502 -0.3065,-0.3301 -0.5343,-0.7359 -0.6377,-1.1743 -0.1034,-0.4384 -0.08,-0.9088 0.085,-1.328 0.147,-0.3742 0.4026,-0.7013 0.7133,-0.9565 0.3107,-0.2552 0.6752,-0.4403 1.0565,-0.5677 0.7627,-0.2549 1.5801,-0.2809 2.384,-0.3 2.4883,-0.059 5.0163,-0.07 7.4151,0.5939 0.8781,0.2431 1.7314,0.5754 2.5427,0.99 m 42.5854,-0.9644 c -0.076,1.6864 -0.076,3.3763 0,5.0627 0.014,0.3055 0.03,0.6118 0.01,0.9168 -0.023,0.3049 -0.087,0.6104 -0.2249,0.8832 -0.2259,0.4459 -0.6429,0.7784 -1.1087,0.9596 -0.4659,0.1812 -0.978,0.2201 -1.4759,0.1764 -0.9959,-0.087 -1.9357,-0.4911 -2.9181,-0.6763 -1.4311,-0.2698 -2.9026,-0.069 -4.3527,0.065 -1.4501,0.1339 -2.9584,0.1927 -4.315,-0.337 -1.1033,-0.4308 -2.0593,-1.2602 -2.5774,-2.3252 -0.5182,-1.0651 -0.5744,-2.3601 -0.086,-3.439 0.4204,-0.9282 1.2153,-1.6592 2.1308,-2.1064 0.9155,-0.4473 1.9457,-0.6255 2.9647,-0.6312 2.0378,-0.011 4.0135,0.6408 6.0236,0.9761 1.9583,0.3266 3.9665,0.3517 5.9323,0.074 m 43.221,3.6965 c 0.8442,-1.0173 1.6945,-2.0295 2.5508,-3.0367 1.248,-1.468 2.5189,-2.9349 4.0316,-4.1283 1.5128,-1.1933 3.2975,-2.1092 5.2131,-2.3164 0.9578,-0.1036 1.939,-0.027 2.857,0.2653 0.9181,0.292 1.7711,0.8027 2.4323,1.5033 0.6613,0.7006 1.1254,1.5931 1.2787,2.5442 0.1532,0.9511 -0.012,1.9573 -0.4969,2.7897 -0.3482,0.5977 -0.8506,1.0964 -1.4152,1.4959 -0.5646,0.3995 -1.1915,0.7036 -1.8326,0.9634 -3.2979,1.3363 -7.1471,1.4835 -10.3815,0 -0.6634,-0.3043 -1.3146,-0.6786 -2.0384,-0.7723 -0.3619,-0.047 -0.7386,-0.019 -1.0756,0.1209 -0.337,0.1401 -0.631,0.3992 -0.7752,0.7344 -0.1183,0.275 -0.1317,0.5874 -0.076,0.8815 0.071,0.3733 0.2496,0.7223 0.4926,1.0143 0.2431,0.292 0.5489,0.5284 0.8812,0.7126 0.6646,0.3685 1.4224,0.5274 2.1707,0.6597 4.755,0.8409 9.6656,0.7944 14.4038,-0.1366 m -179.9052,20.3215 c -1.7477,1.6972 -4.0753,2.786 -6.4982,3.0398 -1.0862,0.1138 -2.1941,0.063 -3.25328,-0.2028 -1.05919,-0.2662 -2.06884,-0.7518 -2.90369,-1.4559 -0.83485,-0.7041 -1.49017,-1.6302 -1.82536,-2.6696 -0.33518,-1.0394 -0.34128,-2.1908 0.0333,-3.2167 0.29763,-0.8152 0.82741,-1.5379 1.48482,-2.1045 0.65741,-0.5666 1.43968,-0.98 2.26412,-1.2512 1.64889,-0.5422 3.43283,-0.5163 5.15563,-0.3049 1.8904,0.232 3.754,0.6809 5.5427,1.3351 m 11.6527,0.9643 c 1.8592,-0.8754 3.8822,-1.4015 5.9323,-1.5428 1.3398,-0.092 2.6881,-0.022 4.0255,-0.1447 1.1531,-0.1058 2.2971,-0.3549 3.4549,-0.3335 0.5789,0.011 1.1604,0.091 1.7058,0.2848 0.5454,0.1943 1.0546,0.5068 1.4389,0.9399 0.583,0.6571 0.841,1.5388 0.9958,2.4035 0.2657,1.4838 0.2766,3.0128 0.032,4.5002 m 13.7714,0.08 c 0.2573,-1.5394 0.2573,-3.1214 0,-4.6608 -0.054,-0.3224 -0.1192,-0.645 -0.1217,-0.9719 -0,-0.3269 0.063,-0.6638 0.2488,-0.9326 0.1442,-0.2084 0.3549,-0.366 0.5872,-0.4673 0.2322,-0.1013 0.4856,-0.1484 0.7386,-0.1613 0.5061,-0.026 1.0085,0.081 1.5133,0.1255 1.1406,0.1 2.2865,-0.1242 3.3864,-0.4423 1.0999,-0.3182 2.1713,-0.7313 3.2781,-1.0246 1.1068,-0.2933 2.2666,-0.4654 3.3979,-0.2888 0.5656,0.088 1.1198,0.2643 1.6199,0.5431 0.5,0.2787 0.9451,0.6616 1.2734,1.1306 0.461,0.6585 0.6764,1.4568 0.8157,2.2485 0.2846,1.6174 0.2846,3.2845 0,4.9019 m 12.712,-1.3661 c 3.7073,1.0816 7.5798,1.5952 11.4409,1.5172 0.6957,-0.014 1.4019,-0.049 2.0613,-0.2715 0.3297,-0.1112 0.6453,-0.2694 0.9189,-0.4842 0.2737,-0.2149 0.5047,-0.4876 0.6528,-0.8024 0.1766,-0.3752 0.231,-0.8044 0.1692,-1.2145 -0.062,-0.4101 -0.2375,-0.8004 -0.4912,-1.1284 -0.5074,-0.6561 -1.3106,-1.0447 -2.1324,-1.157 -0.8218,-0.1123 -1.6619,0.032 -2.4493,0.2921 -0.7875,0.2605 -1.5314,0.6351 -2.277,0.9984 -0.718,0.3498 -1.4441,0.6918 -2.2101,0.918 -0.7661,0.2261 -1.5786,0.3337 -2.3671,0.2063 -0.7885,-0.1274 -1.552,-0.5051 -2.0557,-1.125 -0.2518,-0.3099 -0.4356,-0.6768 -0.52,-1.0671 -0.084,-0.3903 -0.068,-0.8038 0.061,-1.182 0.1345,-0.3967 0.389,-0.7479 0.7059,-1.0218 0.3169,-0.2739 0.6948,-0.4726 1.0916,-0.6066 0.7938,-0.2681 1.6487,-0.2796 2.4864,-0.2657 3.5699,0.059 7.1326,0.5342 10.5934,1.412 m 12.5002,2.4107 c 0.8978,-1.1422 1.8982,-2.2038 2.9852,-3.1678 2.0428,-1.8116 4.4677,-3.3043 7.1625,-3.744 1.3474,-0.2199 2.7466,-0.1684 4.0547,0.2224 1.308,0.3909 2.5212,1.1282 3.416,2.1592 0.5581,0.643 0.9979,1.4207 1.0872,2.2675 0.045,0.4234 -7e-4,0.8586 -0.1531,1.2561 -0.1524,0.3975 -0.414,0.7559 -0.7598,1.0042 -0.2803,0.2013 -0.6104,0.3277 -0.9494,0.392 -0.3391,0.064 -0.6876,0.068 -1.0315,0.039 -0.6877,-0.059 -1.3573,-0.2487 -2.0404,-0.3476 -1.5838,-0.2292 -3.1912,0.035 -4.7803,0.2237 -1.5892,0.1891 -3.2406,0.2973 -4.7537,-0.2237 -0.6811,-0.2345 -1.3269,-0.5945 -2.0395,-0.7 -0.3564,-0.053 -0.7281,-0.038 -1.0657,0.087 -0.3376,0.1256 -0.6383,0.3696 -0.7911,0.6958 -0.1273,0.2719 -0.1466,0.5862 -0.093,0.8816 0.065,0.3573 0.2326,0.6923 0.4618,0.974 0.2292,0.2816 0.5185,0.5112 0.8335,0.6919 0.6299,0.3615 1.3508,0.5268 2.0628,0.6701 3.6883,0.7426 7.489,1.021 11.2248,0.5747 1.2128,-0.1449 2.4165,-0.3657 3.6017,-0.6607 m -133.87071,-26.9912 0,0.3215 m 103.39141,-0.3215 0,7.6341 m -45.5812,12.3659 0,0.8035 m -12.6824,-20.7231 c -0.3317,1.5843 -0.3317,3.2373 0,4.8216 0.1748,0.8347 0.4523,1.672 0.9964,2.3287 0.6654,0.8032 1.6815,1.2633 2.7144,1.4085 1.0329,0.1452 2.0867,10e-5 3.101,-0.2429 1.0143,-0.2431 2.0031,-0.5833 3.0148,-0.8368 1.0118,-0.2536 2.0604,-0.4206 3.0973,-0.3078 0.6185,0.067 1.2283,0.2335 1.8503,0.2272 0.3111,-0 0.6246,-0.051 0.9113,-0.1715 0.2867,-0.1207 0.5458,-0.3177 0.7124,-0.5804 0.1817,-0.2866 0.2448,-0.635 0.243,-0.9744 -0,-0.3393 -0.064,-0.675 -0.1152,-1.0105 -0.235,-1.5417 -0.235,-3.1191 0,-4.6608 m 85.5945,0 c -0.2583,1.5933 -0.2583,3.2283 0,4.8216 0.1283,0.7915 0.3291,1.5938 0.7899,2.25 0.615,0.8759 1.6452,1.4007 2.7015,1.5728 1.0563,0.1722 2.1412,0.023 3.1794,-0.237 1.0382,-0.2599 2.0461,-0.6289 3.0799,-0.9059 1.0337,-0.277 2.1097,-0.4622 3.1732,-0.3429 0.6189,0.069 1.2281,0.2413 1.8509,0.2386 0.3114,-0 0.6256,-0.048 0.9127,-0.1685 0.287,-0.1206 0.5461,-0.319 0.7104,-0.5835 0.1717,-0.2764 0.2323,-0.6097 0.2322,-0.9351 -10e-5,-0.3253 -0.057,-0.6476 -0.1044,-0.9695 -0.2304,-1.5692 -0.2304,-3.172 0,-4.7412 m -148.5192,0.7232 0,6.8305 m 28.5725,19.4375 c -0.5284,1.2921 -1.4333,2.4276 -2.5747,3.2311 -1.1415,0.8036 -2.5156,1.2725 -3.9102,1.3342 -1.3946,0.062 -2.8047,-0.2839 -4.0127,-0.9835 -1.208,-0.6996 -2.2096,-1.7508 -2.8501,-2.9911 -0.543,-1.0515 -0.8271,-2.2367 -0.8114,-3.4201 0.023,-1.7531 0.7201,-3.4889 1.9154,-4.7716 1.1954,-1.2826 2.8778,-2.0999 4.6249,-2.2465 1.7472,-0.1467 3.5423,0.3786 4.9347,1.4441 1.3925,1.0654 2.3689,2.6608 2.6841,4.3855 m 181.6002,-19.3571 79.4918,0 m -140.5393,20 79.4918,0 m -182.218,-16.7053 0,0.5625 m 102.1202,-0.5625 0,0.5625 m -30.509,-0.081 0,2.4107 m -51.0601,38.2147 c -0.4846,-2.6494 -0.4846,-5.3866 0,-8.036 0.1954,-1.068 0.4808,-2.1486 1.1077,-3.0351 0.7965,-1.1263 2.1348,-1.8501 3.5134,-1.9001 1.3785,-0.05 2.7658,0.5749 3.6418,1.6405 m -90.46751,10.9288 c 0.1036,-1.5781 0.1036,-3.163 0,-4.7411 -0.0201,-0.3068 -0.0442,-0.6146 -0.0234,-0.9213 0.0208,-0.3067 0.0886,-0.6151 0.24112,-0.8821 0.18943,-0.3316 0.50281,-0.5832 0.85342,-0.7346 0.35061,-0.1515 0.73709,-0.2076 1.11901,-0.2043 0.76383,0.01 1.50478,0.2429 2.25903,0.3637 2.04937,0.3283 4.12549,-0.1996 6.19219,-0.3898 1.0334,-0.095 2.085,-0.1045 3.0986,0.1182 1.0135,0.2227 1.9923,0.6909 2.7054,1.4448 0.8226,0.8697 1.2452,2.103 1.1313,3.2947 -0.1054,1.1026 -0.6552,2.1432 -1.4545,2.9099 -0.7993,0.7668 -1.8362,1.2662 -2.9204,1.4923 -2.1685,0.4524 -4.4335,-0.1684 -6.42204,-1.1445 -1.05614,-0.5184 -2.08278,-1.1446 -3.23464,-1.3843 -0.57593,-0.1198 -1.17966,-0.1381 -1.74942,0.01 -0.56976,0.1463 -1.10374,0.4654 -1.456,0.9365 -0.14468,0.1935 -0.25756,0.4101 -0.33971,0.6373 -0.21375,0.5912 -0.21375,1.2571 0,1.8483 m 29.23771,-5.9466 c 0.946,-1.1755 1.9357,-2.3158 2.9664,-3.4178 0.9711,-1.0382 1.9849,-2.0479 3.1462,-2.8678 1.1613,-0.82 2.4824,-1.4478 3.8895,-1.6502 1.4071,-0.2024 2.9054,0.047 4.0811,0.8466 0.5878,0.3995 1.0882,0.9315 1.4311,1.5542 0.3429,0.6226 0.5256,1.3358 0.5015,2.0462 -0.022,0.6526 -0.2177,1.2952 -0.5392,1.8635 -0.3214,0.5684 -0.7666,1.0631 -1.2814,1.4648 -1.3727,1.0711 -3.1936,1.4476 -4.931,1.3334 -1.7374,-0.1142 -3.4129,-0.6801 -5.0268,-1.3334 -0.631,-0.2554 -1.2711,-0.5286 -1.9505,-0.5721 -0.3396,-0.022 -0.6861,0.016 -1.0033,0.1394 -0.3173,0.1232 -0.6042,0.335 -0.7916,0.6191 -0.1812,0.2747 -0.264,0.6101 -0.2464,0.9387 0.022,0.4043 0.1923,0.7937 0.4489,1.1069 0.2565,0.3133 0.5956,0.553 0.9627,0.7237 0.7343,0.3414 1.5615,0.4089 2.3683,0.4781 3.5966,0.3085 7.2101,0.751 10.8053,0.4258 1.5031,-0.1359 2.994,-0.406 4.4492,-0.806 m 12.5002,0.8037 c 0.1939,-1.6801 0.1939,-3.3826 0,-5.0627 -0.035,-0.308 -0.078,-0.6172 -0.061,-0.9268 0.016,-0.3096 0.095,-0.624 0.2793,-0.8732 0.146,-0.1972 0.353,-0.3453 0.5801,-0.4385 0.227,-0.093 0.4736,-0.1332 0.719,-0.1368 0.4908,-0.01 0.9709,0.127 1.4492,0.237 2.9435,0.6768 6.0906,0.4383 8.8985,-0.6743 m 4.4492,0 13.1358,0 m 17.1613,0.048 c 1.0278,-0.5002 2.24,-0.6097 3.3409,-0.3019 1.1008,0.3078 2.0803,1.0302 2.6997,1.991 0.6193,0.9607 0.8728,2.1512 0.6986,3.2809 -0.1742,1.1297 -0.7745,2.1885 -1.6544,2.9181 -1.0764,0.8925 -2.5269,1.2685 -3.9221,1.1764 -1.3952,-0.092 -2.7365,-0.6248 -3.917,-1.3741 -1.0985,-0.6972 -2.0937,-1.609 -2.6873,-2.7668 -0.2968,-0.5789 -0.4889,-1.2144 -0.533,-1.8634 -0.044,-0.6491 0.062,-1.3113 0.3344,-1.9022 0.4667,-1.0135 1.4342,-1.7813 2.5272,-2.0058 1.093,-0.2244 2.2847,0.1002 3.113,0.8478 m 24.3647,7.8279 c 0.2133,-1.6786 0.2133,-3.3841 0,-5.0627 -0.039,-0.3084 -0.086,-0.6182 -0.071,-0.9287 0.015,-0.3106 0.097,-0.6268 0.2885,-0.8714 0.1393,-0.1775 0.3316,-0.3099 0.5413,-0.3934 0.2096,-0.083 0.4363,-0.1193 0.6619,-0.1226 0.4512,-0.01 0.8932,0.1132 1.3333,0.2131 3.0157,0.6847 6.237,0.4338 9.1103,-0.7096 m 9.5341,7.7949 c 0.2664,-1.6195 0.2664,-3.2824 0,-4.9019 -0.057,-0.349 -0.1273,-0.6981 -0.1312,-1.0518 -0,-0.3537 0.063,-0.718 0.2589,-1.0127 0.152,-0.229 0.3761,-0.4059 0.6258,-0.5208 0.2497,-0.1149 0.5244,-0.1697 0.799,-0.1819 0.5492,-0.024 1.0902,0.1178 1.6255,0.2431 3.9408,0.9227 8.0354,0.9822 12.0764,0.7562 3.4068,-0.1905 6.8012,-0.5806 10.1697,-1.1243 0.8421,-0.1359 1.6943,-0.2819 2.5436,-0.2019 0.4246,0.04 0.8461,0.1374 1.234,0.3146 0.388,0.1771 0.7419,0.436 1.0066,0.7704 0.2726,0.3445 0.4445,0.7602 0.5491,1.1868 0.1046,0.4267 0.1446,0.8663 0.1752,1.3045 0.1027,1.4708 0.1027,2.9489 0,4.4197 m 13.5596,-6.3484 c 0.6407,-1.4254 1.6902,-2.6642 2.9909,-3.5304 1.3007,-0.8662 2.8484,-1.357 4.4106,-1.3987 1.5621,-0.042 3.1338,0.3659 4.4788,1.1615 1.3451,0.7956 2.4592,1.9767 3.175,3.3658 0.3658,0.7098 0.6287,1.4708 0.803,2.2501 0.3299,1.475 0.3409,3.0205 0.032,4.5001 m 13.5595,0.08 c 0.2557,-1.5125 0.2557,-3.068 0,-4.5805 -0.055,-0.3225 -0.1208,-0.6452 -0.1236,-0.9722 -0,-0.3271 0.063,-0.6645 0.2507,-0.9324 0.1422,-0.2029 0.3485,-0.3565 0.5756,-0.4555 0.2271,-0.099 0.4747,-0.1455 0.7221,-0.1588 0.4949,-0.026 0.9863,0.077 1.4799,0.121 1.1401,0.1021 2.2867,-0.1119 3.3885,-0.422 1.1018,-0.3102 2.1751,-0.7168 3.2806,-1.0136 1.1054,-0.2968 2.2595,-0.4831 3.3951,-0.3397 1.1356,0.1434 2.2574,0.6461 2.9784,1.5351 0.5349,0.6596 0.8206,1.4872 1.0021,2.3167 0.3462,1.5822 0.3462,3.2393 0,4.8215 m 31.5683,-1.6071 c -1.034,0.6459 -2.0965,1.2461 -3.1834,1.7984 -2.0329,1.033 -4.2281,1.9132 -6.5079,1.868 -1.14,-0.023 -2.2849,-0.2846 -3.2808,-0.8397 -0.9959,-0.5551 -1.8357,-1.4127 -2.2914,-2.4578 -0.4281,-0.9818 -0.5056,-2.1 -0.2929,-3.1497 0.2128,-1.0497 0.7067,-2.0318 1.3613,-2.8795 0.8648,-1.1199 2.0162,-2.0167 3.3137,-2.581 1.2976,-0.5642 2.7387,-0.7948 4.1476,-0.6636 1.4088,0.1312 2.7825,0.6239 3.9536,1.418 1.1711,0.7942 2.1371,1.8881 2.7802,3.1485 m 11.6527,2.0894 c 0.9228,-1.118 1.914,-2.1796 2.9662,-3.1767 1.2544,-1.1887 2.6231,-2.3025 4.2247,-2.9515 0.8009,-0.3244 1.655,-0.5281 2.5187,-0.5517 0.8638,-0.024 1.7374,0.1362 2.5176,0.5076 1.1183,0.5323 2.0257,1.515 2.4148,2.6907 0.3892,1.1758 0.2381,2.53 -0.4468,3.5619 -0.5172,0.7794 -1.3128,1.3555 -2.1911,1.6772 -0.8783,0.3218 -1.8356,0.3979 -2.7656,0.2976 -1.86,-0.2008 -3.571,-1.0784 -5.213,-1.9748 -0.6069,-0.3313 -1.2326,-0.6743 -1.9205,-0.7448 -0.3439,-0.035 -0.6992,0 -1.0167,0.1381 -0.3176,0.1367 -0.595,0.3782 -0.745,0.6897 -0.1188,0.2467 -0.1548,0.5287 -0.1272,0.8012 0.038,0.3724 0.1917,0.7288 0.4165,1.0281 0.2247,0.2994 0.5184,0.5434 0.841,0.7332 0.6453,0.3797 1.3924,0.5422 2.1282,0.6808 3.6956,0.6963 7.4894,0.9303 11.229,0.5336 1.426,-0.1513 2.8422,-0.3938 4.2373,-0.7256 m -306.57249,-6.9109 0,0.4822 m 61.01789,-0.4863 0,0.5625 m 70.9757,-0.5625 0,0.5625 m 95.3404,-0.5625 0,0.884 m -73.9418,-0.8036 0,0.241 m 15.2545,0.5626 0,6.6698 m 125.2674,15.2551 63.941,0 m -144.2925,-15.8177 c -0.5825,1.2324 -1.5044,2.3024 -2.6373,3.0606 -1.1328,0.7583 -2.4733,1.2028 -3.8348,1.2715 -1.3614,0.069 -2.7399,-0.2384 -3.9434,-0.8786 -1.2034,-0.6403 -2.2285,-1.6118 -2.9322,-2.7793 -0.6127,-1.0164 -0.9822,-2.18 -1.0551,-3.3646 -0.1144,-1.8594 0.5241,-3.7544 1.7405,-5.1654 1.2164,-1.411 2.9967,-2.3217 4.8527,-2.4824 1.856,-0.1607 3.7663,0.4304 5.2071,1.6113 1.4409,1.1809 2.3956,2.938 2.6025,4.7894 m -99.1247,15.782 6.6604,-2.5295 m -32.3463,11.4913 c 0.1551,-2.7025 0.1551,-5.4138 0,-8.1163 -0.062,-1.0884 -0.1443,-2.217 0.2462,-3.2348 0.2572,-0.6703 0.7165,-1.2614 1.3025,-1.6762 0.5859,-0.4148 1.2961,-0.6516 2.0138,-0.6714 0.7176,-0.02 1.4398,0.1775 2.0477,0.5593 0.6079,0.3819 1.0992,0.9468 1.3929,1.6019 m -81.5805,9.9302 c -1.8924,0.6373 -3.7999,1.2295 -5.7205,1.776 -0.9785,0.2784 -1.96861,0.5464 -2.98383,0.612 -1.01521,0.065 -2.06824,-0.084 -2.94842,-0.594 -1.04296,-0.6045 -1.76823,-1.6896 -2.03987,-2.8641 -0.27164,-1.1745 -0.11173,-2.4262 0.33877,-3.5443 0.53755,-1.3342 1.48879,-2.4983 2.68911,-3.291 1.20032,-0.7926 2.64448,-1.2102 4.08264,-1.1807 1.4381,0.03 2.8638,0.5063 4.0306,1.3476 1.1667,0.8413 2.0693,2.0435 2.5515,3.3987 m 19.4918,-1.8008 c 1.0088,-0.3148 2.1237,-0.278 3.1094,0.1027 0.9858,0.3808 1.836,1.1029 2.3713,2.0141 0.5353,0.9112 0.7521,2.0054 0.6046,3.0518 -0.1474,1.0464 -0.658,2.0382 -1.4242,2.766 -1.0959,1.0411 -2.6754,1.5042 -4.181,1.3705 -1.5057,-0.1338 -2.931,-0.8292 -4.0736,-1.8189 -0.919,-0.7961 -1.6815,-1.8053 -2.0371,-2.9681 -0.1778,-0.5813 -0.2516,-1.1964 -0.1948,-1.8017 0.057,-0.6052 0.246,-1.2002 0.5677,-1.716 0.5301,-0.8501 1.4257,-1.4636 2.4099,-1.6509 0.9842,-0.1873 2.0425,0.054 2.8478,0.6505 m 20.3648,7.8277 c 0.2487,-1.5133 0.2487,-3.0671 0,-4.5804 -0.053,-0.3224 -0.1174,-0.645 -0.1196,-0.9717 -0,-0.3268 0.063,-0.6633 0.2473,-0.9329 0.1433,-0.2092 0.3531,-0.3684 0.5846,-0.4718 0.2316,-0.1034 0.4846,-0.1531 0.7377,-0.1689 0.5063,-0.032 1.0103,0.069 1.5161,0.1072 1.1349,0.085 2.2715,-0.1458 3.3628,-0.4687 1.0914,-0.3229 2.1544,-0.7383 3.2529,-1.0362 1.0984,-0.2979 2.2494,-0.477 3.3757,-0.314 1.1264,0.1631 2.2314,0.7009 2.9044,1.6187 0.4925,0.6716 0.7263,1.4975 0.8756,2.3169 0.2944,1.6162 0.2944,3.2856 0,4.9018 m 12.8985,-7.8752 13.1358,0 m 41.1023,7.8752 c 0.1966,-1.6799 0.1966,-3.3827 0,-5.0626 -0.036,-0.3081 -0.079,-0.6174 -0.063,-0.9271 0.016,-0.3098 0.095,-0.6244 0.2806,-0.873 0.1467,-0.1966 0.3546,-0.3435 0.5822,-0.435 0.2276,-0.091 0.4745,-0.1293 0.7198,-0.1307 0.4906,-0 0.9691,0.1366 1.4463,0.2507 2.9415,0.7034 6.1026,0.4557 8.8985,-0.6975 m 8.2628,3.9376 c 1.0684,-1.0704 2.1278,-2.1496 3.1782,-3.2376 1.6211,-1.6791 3.2353,-3.3917 5.1521,-4.7233 1.9168,-1.3316 4.1895,-2.2709 6.5222,-2.197 1.1664,0.037 2.3311,0.3314 3.3454,0.9084 1.0143,0.577 1.8728,1.4418 2.388,2.4888 0.5153,1.0471 0.6753,2.2757 0.3869,3.4065 -0.2883,1.1307 -1.0359,2.1486 -2.0581,2.7114 -0.6733,0.3707 -1.4403,0.5405 -2.2049,0.6185 -0.7646,0.078 -1.5351,0.069 -2.3028,0.1047 -1.745,0.082 -3.4707,0.399 -5.2122,0.5366 -1.7416,0.1376 -3.5377,0.088 -5.1693,-0.5366 -0.634,-0.2425 -1.2468,-0.5721 -1.9198,-0.6608 -0.3365,-0.044 -0.6859,-0.025 -1.0035,0.095 -0.3175,0.1199 -0.6009,0.3462 -0.7541,0.6491 -0.1238,0.2448 -0.1584,0.5285 -0.1286,0.8012 0.04,0.3704 0.1963,0.7238 0.422,1.0202 0.2257,0.2964 0.5194,0.5374 0.8414,0.7248 0.6441,0.3748 1.3877,0.5345 2.1197,0.6738 3.6963,0.7035 7.4944,1.023 11.2281,0.5569 1.1422,-0.1426 2.2752,-0.3583 3.3899,-0.6453 m 13.5596,0.6429 c 0.262,-1.5389 0.262,-3.122 0,-4.6609 -0.055,-0.3222 -0.1213,-0.6447 -0.124,-0.9716 -0,-0.3268 0.063,-0.6641 0.2517,-0.9313 0.1456,-0.2067 0.3581,-0.3614 0.5914,-0.4589 0.2332,-0.097 0.4869,-0.14 0.7395,-0.1482 0.5054,-0.016 1.0045,0.1008 1.5075,0.1523 1.1357,0.1164 2.2811,-0.1034 3.3763,-0.4254 1.0952,-0.3221 2.1586,-0.7468 3.2575,-1.0563 1.0988,-0.3094 2.2516,-0.5027 3.3826,-0.347 0.5654,0.078 1.1211,0.2437 1.6241,0.5135 0.503,0.2698 0.9525,0.6452 1.2856,1.1087 0.4851,0.6751 0.7052,1.5037 0.8453,2.3232 0.2766,1.6183 0.2766,3.2836 0,4.9019 m 31.5683,-1.6876 c -1.3807,2.161 -3.7763,3.6419 -6.3266,3.9107 -2.5502,0.2689 -5.202,-0.6798 -7.003,-2.5053 -1.1461,-1.1617 -1.9505,-2.6595 -2.2701,-4.2597 -0.3196,-1.6003 -0.1507,-3.2971 0.493,-4.7966 0.7234,-1.6851 2.0467,-3.1054 3.6766,-3.9461 1.6298,-0.8406 3.5543,-1.0955 5.3467,-0.708 1.7925,0.3875 3.4398,1.4145 4.5769,2.8533 1.1371,1.4387 1.7556,3.2788 1.7184,5.1123 m 11.4408,2.1697 c 0.3706,-0.8814 0.8445,-1.7193 1.4089,-2.4911 1.8623,-2.5465 4.7754,-4.3389 7.9106,-4.6898 1.5676,-0.1754 3.1761,0 4.6601,0.5372 1.484,0.5347 2.8405,1.4272 3.9027,2.5933 0.4636,0.5089 0.8783,1.0824 1.0779,1.7412 0.1,0.3294 0.1439,0.6775 0.1103,1.02 -0.034,0.3426 -0.1463,0.6794 -0.3414,0.9629 -0.2423,0.3522 -0.6056,0.6126 -1.0049,0.7651 -0.3994,0.1526 -0.8335,0.2013 -1.2605,0.1801 -0.8539,-0.043 -1.6671,-0.3552 -2.4804,-0.6189 -4.5074,-1.4614 -9.4759,-1.4614 -13.9833,0 m -195.7402,-3.7769 0,0.884 m 83.8741,-0.884 0,0.5626 m 51.9076,-0.5626 0,0.8036 m -82.4166,2.5715 c 0.022,-1.6425 0.5831,-3.2733 1.5765,-4.5815 0.9933,-1.3082 2.4135,-2.2868 3.9897,-2.7491 1.5762,-0.4623 3.2999,-0.4059 4.8425,0.1585 1.5426,0.5645 2.8958,1.6338 3.8014,3.0042 0.4512,0.6828 0.7956,1.4454 0.9304,2.2526 0.1347,0.8072 0.051,1.6613 -0.3097,2.3958 -0.3988,0.8119 -1.1225,1.4435 -1.9529,1.8023 -0.8303,0.3587 -1.7606,0.4551 -2.6595,0.3545 -1.7978,-0.2014 -3.4179,-1.1513 -4.9217,-2.1568 -0.827,-0.553 -1.6657,-1.1419 -2.6366,-1.359 -0.4855,-0.1085 -0.999,-0.1183 -1.4764,0.022 -0.4774,0.1397 -0.916,0.4361 -1.1837,0.8554 -0.2324,0.364 -0.3281,0.8081 -0.2944,1.2387 0.034,0.4306 0.1926,0.847 0.4309,1.2073 0.4765,0.7204 1.2454,1.1996 2.0434,1.5302 2.2949,0.9508 4.8742,0.8195 7.3542,0.6774 1.5558,-0.089 3.1126,-0.1764 4.6611,-0.3512 1.1366,-0.1283 2.2678,-0.3037 3.3899,-0.5255 m 124.8016,-3.6954 c 3.5592,2.7335 8.002,4.2971 12.4886,4.3952 2.3657,0.052 4.7396,-0.295 6.9916,-1.0212 m -170.5883,-88.1677 c -1.9604,-1.9057 -4.7848,-2.8857 -7.5042,-2.604 -1.9656,0.2036 -3.8596,1.0478 -5.3251,2.3733"
         id="path6418" />
      <path
         sodipodi:nodetypes="cc"
         style="fill:none;fill-rule:evenodd;stroke:#000000;stroke-width:1px;stroke-linecap:butt;stroke-linejoin:miter;stroke-opacity:1"
         d="m 1315.7446,-1737.8359 64.0847,0"
         id="path6420"
         inkscape:connector-curvature="0" />
    </g>
    <g
       transform="translate(-357.61676,1339.4359)"
       id="g9811">
      <path
         id="rect9749-7"
         d="m 541.13354,-339.37605 4.65773,0 0,4.54413 -4.65773,0 z"
         style="fill:#000000;fill-opacity:0;fill-rule:evenodd;stroke:#000000;stroke-width:1;stroke-linecap:round;stroke-linejoin:round;stroke-miterlimit:4;stroke-dasharray:none;stroke-dashoffset:0;stroke-opacity:1"
         inkscape:connector-curvature="0" />
      <path
         inkscape:connector-curvature="0"
         id="path9754-9"
         d="m 537.83904,-330.41531 a 1.9880574,1.9880574 0 0 1 -1.98806,1.98806 1.9880574,1.9880574 0 0 1 -1.98806,-1.98806 1.9880574,1.9880574 0 0 1 1.98806,-1.98807 1.9880574,1.9880574 0 0 1 1.98806,1.98807 z"
         style="fill:#000000;fill-opacity:0;fill-rule:evenodd;stroke:#000000;stroke-width:1;stroke-linecap:round;stroke-linejoin:round;stroke-miterlimit:4;stroke-dasharray:none;stroke-dashoffset:0;stroke-opacity:1" />
      <path
         inkscape:original-d="m 564.40311,-345.92342 -0.0592,10.4646 m -40.67613,-9.7552 c 0,0 2.68108,-0.048 4.02031,0 0.50885,0.018 1.14356,-0.229 1.52358,0.1099 0.25657,0.2288 0.19096,1.0135 0.19096,1.0135 m -0.11823,-1.0051 c 0,0 0.90614,-0.054 1.35981,-0.064 0.53198,-0.012 1.0642,0.01 1.5963,0.01 2.46343,0.01 7.39028,0 7.39028,0 m -14.6032,0 -0.17738,1.0642 m 9.28221,-1.0051 -0.17737,0.6503 m 4.55242,-0.5912 0,0.7095 m 38.66599,1.6554 0,21.2249 m -114.40166,-20.9884 0,21.1658 m 28.67432,-21.1658 c 0,0 -0.05,10.7605 0,16.1404 0.01,1.0446 -0.0724,2.097 0.0583,3.1335 0.0676,0.5363 0.0152,1.1733 0.3733,1.5783 0.27428,0.3102 1.16477,0.4318 1.16477,0.4318 m 77.74583,-20.0424 0,18.2688 m -30.2115,-15.2536 0,0.1182 m -7.21293,14.958 c -0.83775,-0.037 -1.82126,-0.2519 -2.42401,-0.862 -2.33384,-2.362 -4.13845,-6.233 -3.22452,-9.4253 0.66136,-2.3101 3.14117,-3.7562 5.58942,-4.5524 m -56.10706,4.7298 c 0,0 0.75141,-2.0426 1.65542,-2.3973 1.82212,-0.7148 4.4469,-0.2023 5.73214,1.2739 0.94773,1.0886 0.28966,2.8739 0.34853,4.316 0.11897,2.9142 0.009,8.7501 0.009,8.7501 m 26.42768,-11.9427 4.13856,-2.897 m -52.67797,1.5963 c 0,0 4.32893,-1.9647 6.26696,-1.1027 1.05497,0.4692 1.52121,1.8254 1.83882,2.9355 0.72102,2.5199 0.61066,5.3186 -0.0178,7.8632 -0.26301,1.065 -0.5713,2.3747 -1.52542,2.9159 -1.90582,1.081 -6.56258,-0.3736 -6.56258,-0.3736 m 34.82304,-1.951 c 0.20108,2.2883 2.73206,3.0726 4.55242,3.0205 1.25125,-0.036 2.42755,-1.1414 3.00519,-2.252 0.25476,-0.4897 0.11566,-1.1069 0.0522,-1.6554 -0.0492,-0.4256 -0.0814,-0.8945 -0.33263,-1.2415 -1.70953,-2.3617 -5.72835,-2.3455 -7.31881,-4.7889 -0.21789,-0.3348 -0.20819,-0.7833 -0.19403,-1.1825 0.0287,-0.8098 -0.12809,-1.941 0.56248,-2.3649 2.08118,-1.2775 6.5883,-1.4281 7.12252,1.7146 m 18.44617,-2.0693 c 0,0 0.0379,4.9663 0.0591,7.4494 0.0131,1.5372 -0.0709,3.0784 0.042,4.6115 0.0701,0.9525 0.16839,1.9099 0.39374,2.8379 0.086,0.354 0.0956,0.7835 0.36302,1.0309 0.60624,0.5609 1.57623,0.5226 2.39386,0.6391 2.41988,0.3448 7.33116,0.1628 7.33116,0.1628 m -49.308,-4.4933 c -0.41882,0.1803 -0.86913,0.2772 -1.30069,0.4247 -1.14859,0.3928 -2.32362,1.7275 -3.42909,1.2261 -2.04353,-0.927 -3.39631,-4.2185 -2.47007,-6.2623 1.06096,-2.3412 4.80386,-2.6014 7.25898,-2.6014 m 30.68447,0.3547 c 0,0 -3.41928,1.2693 -4.06093,2.7788 -0.68183,1.604 -0.39092,3.9511 0.86833,5.1561 0.78906,0.7551 3.25172,0.4014 3.25172,0.4014 m 26.2503,-1.5963 c 0.29916,-0.5621 0.44361,-1.2031 0.81648,-1.7146 0.95985,-1.3168 1.95769,-3.0476 3.55858,-3.3517 4.52426,-0.8593 11.14751,-0.035 12.82953,5.1254 m -74.19848,8.5136 0,1.6554 m 74.7897,-32.2808 c -4.04987,0.9598 -5.09671,2.1796 -5.27739,4.48 -0.18274,2.3267 4.56485,5.3089 4.56485,5.3089"
         inkscape:path-effect="#path-effect9607-8-0-1-3"
         sodipodi:nodetypes="cccaaccaaccccccccccccccaaaccccccaaccaaaccccaaaaccaaaaaaaccaaaaaccaaaccaaccaaccac"
         inkscape:connector-curvature="0"
         id="path9059-1"
         d="m 564.40311,-345.92342 -0.0592,10.4646 m -40.67613,-9.7552 c 1.32247,0.26592 2.69784,0.26592 4.02031,0 0.25893,-0.0521 0.51812,-0.11446 0.78221,-0.11795 0.26408,-0.003 0.53901,0.0581 0.74137,0.22785 0.14264,0.11964 0.24216,0.28966 0.27663,0.47262 0.0345,0.18296 0.004,0.37753 -0.0857,0.54088 m -0.11823,-1.0051 c 0.45248,-0.0352 0.90603,-0.0565 1.35981,-0.064 0.53206,-0.009 1.06423,0.002 1.5963,0.01 2.46322,0.0392 4.92706,0.0392 7.39028,0 m -14.6032,0 -0.17738,1.0642 m 9.28221,-1.0051 -0.17737,0.6503 m 4.55242,-0.5912 0,0.7095 m 38.66599,1.6554 0,21.2249 m -114.40166,-20.9884 0,21.1658 m 28.67432,-21.1658 c -0.10813,5.37941 -0.10813,10.76099 0,16.1404 0.021,1.04447 0.0461,2.08889 0.0583,3.1335 0.003,0.27578 0.006,0.55309 0.054,0.82462 0.0483,0.27153 0.14532,0.53966 0.31927,0.75368 0.13698,0.16854 0.31976,0.29949 0.52341,0.37499 0.20364,0.0755 0.42761,0.0953 0.64136,0.0568 m 77.74583,-20.0424 0,18.2688 m -30.2115,-15.2536 0,0.1182 m -7.21293,14.958 c -0.84971,-0.14434 -1.67395,-0.43744 -2.42401,-0.862 -1.57924,-0.8939 -2.81062,-2.3836 -3.39637,-4.10114 -0.58574,-1.71754 -0.52167,-3.64723 0.17185,-5.32416 0.95695,-2.31391 3.12972,-4.08356 5.58942,-4.5524 m -56.10706,4.7298 c 0.24706,-0.96024 0.84497,-1.8261 1.65542,-2.3973 0.90681,-0.63911 2.07984,-0.89891 3.16518,-0.66914 1.08534,0.22978 2.06238,0.95503 2.56696,1.94304 0.33301,0.65206 0.46004,1.39289 0.47945,2.12481 0.0194,0.73192 -0.0642,1.46206 -0.13092,2.19119 -0.26603,2.9087 -0.26301,5.84195 0.009,8.7501 m 26.42768,-11.9427 4.13856,-2.897 m -52.67797,1.5963 c 0.61919,-1.03004 1.69852,-1.77139 2.88216,-1.97966 1.18364,-0.20826 2.4512,0.12014 3.3848,0.87696 0.90948,0.73726 1.47388,1.82306 1.83882,2.9355 0.82954,2.52869 0.73273,5.30995 -0.0178,7.8632 -0.31248,1.06304 -0.75304,2.12146 -1.52542,2.9159 -0.86567,0.89039 -2.12671,1.38139 -3.36655,1.31081 -1.23983,-0.0706 -2.437,-0.70153 -3.19603,-1.68441 m 34.82304,-1.951 c 0.30057,0.93636 0.92729,1.76455 1.74674,2.30825 0.81946,0.5437 1.82612,0.79925 2.80568,0.71225 0.66336,-0.0589 1.31819,-0.2748 1.86037,-0.66152 0.54218,-0.38673 0.96616,-0.94892 1.14482,-1.59048 0.14915,-0.53557 0.12628,-1.10441 0.0522,-1.6554 -0.0573,-0.4264 -0.14623,-0.85374 -0.33263,-1.2415 -0.32701,-0.68026 -0.93488,-1.19277 -1.60249,-1.54489 -0.66761,-0.35211 -1.39963,-0.56066 -2.12331,-0.77509 -0.72367,-0.21444 -1.45247,-0.44038 -2.10337,-0.82251 -0.65089,-0.38213 -1.22583,-0.93924 -1.48964,-1.64641 -0.1403,-0.37611 -0.18839,-0.78112 -0.19403,-1.1825 -0.0115,-0.8199 0.15601,-1.65276 0.56248,-2.3649 0.40599,-0.71129 1.04753,-1.28548 1.79932,-1.6104 0.75179,-0.32492 1.60958,-0.39876 2.40584,-0.20707 0.79625,0.19168 1.52647,0.64779 2.04803,1.27925 0.52156,0.63145 0.83152,1.43469 0.86933,2.25282 m 18.44617,-2.0693 c 0.084,2.48207 0.10371,4.96631 0.0591,7.4494 -0.0276,1.53766 -0.0798,3.07842 0.042,4.6115 0.0757,0.95247 0.21836,1.89866 0.39374,2.8379 0.0675,0.36133 0.14533,0.73472 0.36302,1.0309 0.12786,0.17396 0.29967,0.31346 0.49008,0.41523 0.19041,0.10176 0.3992,0.16661 0.61175,0.20446 0.42511,0.0757 0.86097,0.0446 1.29203,0.0194 2.4428,-0.14282 4.89711,-0.0883 7.33116,0.1628 m -49.308,-4.4933 c -0.44475,0.10362 -0.88049,0.2459 -1.30069,0.4247 -0.56363,0.23983 -1.09761,0.54443 -1.65792,0.79192 -0.56031,0.24749 -1.15866,0.4393 -1.77117,0.43418 -0.68005,-0.006 -1.35055,-0.2611 -1.88138,-0.68622 -0.53082,-0.42513 -0.9227,-1.01451 -1.13862,-1.6594 -0.21592,-0.64489 -0.25875,-1.34305 -0.15387,-2.01499 0.10489,-0.67194 0.35515,-1.31778 0.7038,-1.90169 0.71393,-1.19566 1.85228,-2.13196 3.16323,-2.60177 1.31094,-0.4698 2.78489,-0.46967 4.09575,3.7e-4 m 30.68447,0.3547 c -1.69694,0.18927 -3.26991,1.26562 -4.06093,2.7788 -0.43923,0.84022 -0.64444,1.81288 -0.51037,2.75145 0.13406,0.93857 0.62072,1.83513 1.3787,2.40465 0.45701,0.34338 1.00498,0.56454 1.5723,0.63457 0.56733,0.07 1.15263,-0.0112 1.67942,-0.23317 m 26.2503,-1.5963 c 0.21267,-0.59741 0.48673,-1.17294 0.81648,-1.7146 0.85769,-1.40886 2.09935,-2.58285 3.55858,-3.3517 2.31522,-1.21986 5.16767,-1.36954 7.59784,-0.39868 2.43017,0.97085 4.3943,3.04475 5.23169,5.52408 m -74.19848,8.5136 0,1.6554 m 74.7897,-32.2808 c -1.27661,-0.10105 -2.58692,0.3222 -3.56319,1.15096 -0.97627,0.82876 -1.60664,2.05296 -1.7142,3.32904 -0.10913,1.29471 0.32197,2.62657 1.16909,3.61175 0.84711,0.98519 2.09931,1.61102 3.39576,1.69715"
         style="fill:none;stroke:#000000;stroke-width:1;stroke-miterlimit:4;stroke-dasharray:none" />
    </g>
    <path
       inkscape:connector-curvature="0"
       style="fill:none;stroke:#000000;stroke-width:0.99999994"
       d="m 102.25699,878.26662 11.7504,-3.1975 m 17.0636,2.8762 c 1.88843,-0.99156 4.01153,-1.53255 6.1442,-1.5656 2.27389,-0.0352 4.55442,0.50838 6.5679,1.5656 m -75.424895,-1.3662 0,11.1699 m -22.564101,40.8301 0,11.1699 m 60.958196,-13.7556 c -1.75726,1.19901 -2.99222,3.1373 -3.33643,5.23661 -0.34422,2.09931 0.20708,4.33049 1.48943,6.02789 0.95714,1.26693 2.30616,2.23345 3.8136,2.7323 m -63.415696,-39.9164 c -1.24595,1.56687 -2.00011,3.51913 -2.13113,5.5167 -0.13101,1.99758 0.36171,4.03162 1.39233,5.7478 1.14759,1.91096 2.95976,3.41402 5.04994,4.18855 m 40.54696,37.13265 0,0.3214 m -43.2017,-75.7589 c -0.56935,2.50213 -0.56935,5.13207 0,7.6342 0.22912,1.00694 0.55676,2.00891 1.1428,2.8592 0.94618,1.37283 2.56569,2.2568 4.23215,2.31003 1.66646,0.0532 3.33908,-0.72558 4.370951,-2.03523 m 102.119495,-10.7673 c -0.55711,2.47668 -0.55711,5.07702 0,7.5537 0.23271,1.03453 0.56956,2.0644 1.1775,2.9332 0.94958,1.35702 2.55852,2.22873 4.21389,2.28306 1.65537,0.0543 3.318,-0.71002 4.35451,-2.00186 m -126.061296,-8.1163 13.983301,0 m 12.0765,1.125 c 2.03057,-1.3661 4.42697,-2.18287 6.86917,-2.34125 2.442209,-0.15837 4.924019,0.34205 7.114029,1.43445 0.96396,0.48084 1.89071,1.09141 2.5393,1.9515 0.60575,0.80329 0.94162,1.80651 0.94162,2.8126 0,1.00609 -0.33587,2.00931 -0.94162,2.8126 m 69.280696,-7.7949 14.1951,0 m 11.8646,7.8752 c 0.21232,-1.67862 0.21232,-3.38398 0,-5.0626 -0.039,-0.30841 -0.0852,-0.61814 -0.0702,-0.92863 0.0151,-0.3105 0.0965,-0.62662 0.28799,-0.87147 0.13905,-0.17775 0.33109,-0.3106 0.54056,-0.3946 0.20946,-0.084 0.43602,-0.12058 0.66166,-0.12474 0.45128,-0.008 0.8938,0.11004 1.33428,0.20854 3.01646,0.67453 6.23271,0.42681 9.1103,-0.7017 m 8.2628,3.9376 c 0.99352,-1.05689 1.98233,-2.1182 2.9664,-3.1839 1.00678,-1.0903 2.01262,-2.18904 3.15563,-3.13555 1.14302,-0.94651 2.43637,-1.74236 3.86557,-2.14204 1.42921,-0.39969 3.00578,-0.37902 4.35371,0.24183 0.67397,0.31042 1.283,0.76759 1.74957,1.34457 0.46658,0.57697 0.78801,1.27444 0.89852,2.00819 0.14634,0.97166 -0.0824,1.98197 -0.56196,2.83961 -0.47958,0.85764 -1.19983,1.56729 -2.02044,2.10779 -1.5114,0.99549 -3.35797,1.42349 -5.16681,1.36528 -1.80885,-0.0582 -3.58232,-0.58382 -5.21469,-1.36528 -0.62029,-0.29695 -1.24069,-0.63652 -1.92389,-0.71513 -0.3416,-0.0393 -0.69538,-0.01 -1.01343,0.12094 -0.31805,0.13069 -0.59787,0.36769 -0.74768,0.67719 -0.13107,0.27077 -0.15797,0.5843 -0.1127,0.8817 0.0583,0.38282 0.2325,0.74375 0.47591,1.04492 0.2434,0.30116 0.55428,0.54409 0.89307,0.73161 0.67759,0.37505 1.45302,0.52774 2.21712,0.65397 3.63465,0.60045 7.34236,0.71773 11.0169,0.4551 3.50215,-0.25031 6.9796,-0.84499 10.3659,-1.7727 m -168.271995,21.3512 c 3.32217,-0.43853 6.64152,-0.89834 9.9578,-1.3794 0.8677,-0.12587 1.7457,-0.25349 2.61812,-0.16619 0.87242,0.0873 1.75294,0.41348 2.33958,1.06509 0.56814,0.63107 0.80231,1.49137 0.9428,2.3288 0.24923,1.48566 0.26008,3.01105 0.032,4.5001 m -27.372301,19.0088 c 4.15004,-2.1568 9.2834,-2.31653 13.559501,-0.4219 1.09528,0.48529 2.16664,1.12548 2.86207,2.10095 0.34771,0.48773 0.59282,1.0545 0.66665,1.64893 0.0738,0.59442 -0.0295,1.21618 -0.32952,1.73462 -0.31617,0.54636 -0.83362,0.9554 -1.39986,1.23442 -0.56623,0.27902 -1.18325,0.43791 -1.79934,0.57538 -4.450171,0.99299 -9.127961,0.9508 -13.559501,-0.1223 m 29.661501,-6.1073 c 3.329969,-0.37727 6.650569,-0.83725 9.957699,-1.3794 0.90819,-0.14888 1.82845,-0.30448 2.74421,-0.21308 0.45788,0.0457 0.91196,0.15416 1.32884,0.34899 0.41688,0.19482 0.796,0.47804 1.07745,0.84209 0.50574,0.65417 0.66081,1.5083 0.7522,2.3301 0.16313,1.46688 0.1732,2.95074 0.03,4.4197 m 24.788496,-1.366 c 0.61756,0.354 1.27783,0.6334 1.9619,0.8302 1.63452,0.47023 3.36923,0.46287 5.0297,0.8311 1.33,0.29495 2.60985,0.8302 3.96477,0.97195 0.67746,0.0709 1.37307,0.0399 2.02199,-0.16717 0.64891,-0.20708 1.2496,-0.59928 1.64054,-1.15708 0.30086,-0.42928 0.47015,-0.94722 0.49486,-1.47086 0.0247,-0.52363 -0.0936,-1.05158 -0.32686,-1.52104 -0.37017,-0.74498 -1.02261,-1.33085 -1.77091,-1.69426 -0.7483,-0.36342 -1.5882,-0.5139 -2.42007,-0.51736 -1.66375,-0.007 -3.26895,0.55254 -4.87552,0.98502 -0.8549,0.23014 -1.75695,0.42604 -2.61824,0.2211 -0.43065,-0.10246 -0.84219,-0.30841 -1.15262,-0.62398 -0.31043,-0.31558 -0.5132,-0.74517 -0.51734,-1.18782 -0.004,-0.44502 0.19243,-0.88013 0.49794,-1.20373 0.30552,-0.3236 0.71326,-0.54041 1.1423,-0.65864 0.85809,-0.23647 1.76915,-0.0909 2.64796,0.0503 3.51765,0.56488 7.05048,1.03521 10.5934,1.4103 m 13.3477,-0.081 c 2.85098,-2.41721 6.77987,-3.51147 10.46992,-2.91605 0.88004,0.142 1.75173,0.37734 2.54599,0.78205 0.79425,0.40471 1.51038,0.98582 1.99699,1.7327 0.45411,0.69699 0.69471,1.51228 0.8475,2.33 0.27203,1.45587 0.28224,2.96027 0.03,4.4197 m -116.440496,24.081 c 0.27743,-1.64526 0.27743,-3.33694 0,-4.9822 -0.0588,-0.34897 -0.13028,-0.69804 -0.1346,-1.05191 -0.004,-0.35388 0.0636,-0.71881 0.2617,-1.01209 0.15366,-0.22752 0.37978,-0.40159 0.63087,-0.51264 0.25109,-0.11105 0.52649,-0.16107 0.80094,-0.16819 0.54892,-0.0143 1.0864,0.1385 1.61909,0.27173 3.99619,0.99947 8.176371,0.95098 12.288301,0.7051 3.6137,-0.21609 7.21813,-0.57986 10.8053,-1.0675 0.7139,-0.097 1.43552,-0.19921 2.15227,-0.12624 0.71676,0.073 1.44031,0.34082 1.92193,0.87664 0.296519,0.32989 0.486899,0.7445 0.602929,1.17262 0.11604,0.42812 0.16127,0.87196 0.19587,1.31418 0.11712,1.49698 0.11712,3.00312 0,4.5001 m 26.907096,0.081 c 0.24557,-1.54067 0.24557,-3.12023 0,-4.6609 -0.0514,-0.32218 -0.11354,-0.6446 -0.11516,-0.97085 -0.002,-0.32624 0.0618,-0.66173 0.24236,-0.93345 0.15094,-0.22714 0.37747,-0.39859 0.62773,-0.50698 0.25026,-0.10838 0.52373,-0.15617 0.79626,-0.16634 0.54506,-0.0204 1.08382,0.10585 1.62691,0.15642 1.13947,0.1061 2.28534,-0.12229 3.38278,-0.44674 1.09744,-0.32446 2.16542,-0.74569 3.27112,-1.04077 1.10571,-0.29508 2.26827,-0.46221 3.39562,-0.2654 0.56367,0.0984 1.1138,0.28846 1.60391,0.58376 0.49012,0.2953 0.91911,0.69755 1.22177,1.18315 0.41738,0.66965 0.58003,1.46485 0.6843,2.247 0.213,1.59775 0.213,3.22375 0,4.8215 m 12.7121,-3.9377 c 0.87154,-1.07595 1.79081,-2.11324 2.7542,-3.1078 1.05165,-1.08567 2.16539,-2.12782 3.44903,-2.92589 1.28364,-0.79807 2.75383,-1.34539 4.26518,-1.36743 1.51134,-0.022 3.06223,0.52221 4.08936,1.63111 0.51357,0.55445 0.88839,1.24096 1.05096,1.97903 0.16256,0.73806 0.10898,1.52622 -0.17673,2.22588 -0.26189,0.64133 -0.71006,1.1957 -1.2369,1.6455 -1.36688,1.16701 -3.24131,1.62747 -5.0356,1.52366 -1.7943,-0.10382 -3.52234,-0.72837 -5.1341,-1.52366 -0.61602,-0.30396 -1.23792,-0.63949 -1.92078,-0.71424 -0.34142,-0.0374 -0.69441,-0.006 -1.01204,0.12465 -0.31764,0.13069 -0.59757,0.36554 -0.75148,0.67259 -0.12301,0.24541 -0.16214,0.52839 -0.1335,0.8014 0.035,0.33398 0.16909,0.65412 0.3647,0.92708 0.19561,0.27295 0.45135,0.4999 0.73394,0.68131 0.5652,0.36282 1.22638,0.542 1.88016,0.69581 3.80297,0.89468 7.76116,1.10037 11.6443,0.6711 1.42513,-0.15754 2.84089,-0.39984 4.2373,-0.7252 m 28.4096,-82.9109 0,0.5625 m -134.978996,75.4375 0,0.3214 m 58.051696,-0.3214 0,0.8035 m -13.347596,-0.7233 0,7.4735 m -29.237799,-6.6698 0,6.7502 m 38.155699,-80.2591 c 0.53123,-1.9007 1.688896,-3.62071 3.249806,-4.82838 1.5609,-1.20766 3.51649,-1.89637 5.48969,-1.93332 0.95014,-0.0178 1.90942,0.11363 2.79666,0.45403 0.88725,0.3404 1.70069,0.89572 2.28736,1.64331 0.58666,0.7476 0.93641,1.69185 0.91005,2.64178 -0.0264,0.94994 -0.44476,1.89564 -1.17407,2.50488 -0.46448,0.38801 -1.03954,0.63326 -1.63459,0.74382 -0.59504,0.11057 -1.20992,0.09 -1.80581,-0.0159 -1.1918,-0.21174 -2.29472,-0.75401 -3.39147,-1.2662 -1.09675,-0.5122 -2.23051,-1.007 -3.43636,-1.11254 -0.60292,-0.0528 -1.21883,-0.005 -1.794,0.18335 -0.575156,0.18837 -1.108386,0.52141 -1.497266,0.98517 -0.32642,0.38927 -0.54648,0.86608 -0.6357,1.3662 -0.0979,0.54893 -0.0385,1.12237 0.15054,1.64695 0.18901,0.52458 0.50547,1.00029 0.90173,1.39258 0.792516,0.78457 1.885086,1.22019 2.991656,1.35858 1.10656,0.13838 2.23147,-0.002 3.31966,-0.24619 1.08818,-0.24393 2.15052,-0.59025 3.22981,-0.87092 2.55325,-0.66398 5.20238,-0.95808 7.8391,-0.8703 m 10.8053,-5.4644 c 2.2093,-1.84703 5.08636,-2.87727 7.96592,-2.8525 2.87956,0.0248 5.73848,1.10435 7.91568,2.9891 0.54925,0.47548 1.06122,1.00661 1.42544,1.63518 0.36421,0.62857 0.57359,1.36379 0.48986,2.08542 -0.056,0.48299 -0.24064,0.94504 -0.4911,1.3618 -0.50159,0.83464 -1.26742,1.49544 -2.13393,1.93971 -0.86652,0.44426 -1.83106,0.67866 -2.80136,0.76082 -1.94058,0.16433 -3.87549,-0.26602 -5.78643,-0.64179 -0.84288,-0.16575 -1.6996,-0.32519 -2.47119,-0.70276 -0.3858,-0.18879 -0.74756,-0.43216 -1.04702,-0.74006 -0.29945,-0.30791 -0.53534,-0.68205 -0.656,-1.09426 -0.19011,-0.64946 -0.0833,-1.36187 0.19823,-1.97727 0.28148,-0.61539 0.72696,-1.14285 1.21804,-1.60845 1.87811,-1.78067 4.52268,-2.72381 7.10373,-2.53343 2.58104,0.19038 5.05861,1.51133 6.65513,3.54829 m -72.099595,29.2143 c -2.16324,1.68161 -4.72435,2.84791 -7.41299,3.3758 -1.06545,0.20919 -2.17544,0.3181 -3.23121,0.0646 -0.52789,-0.12677 -1.03686,-0.34491 -1.4743,-0.66645 -0.43744,-0.32153 -0.80163,-0.74861 -1.02127,-1.24509 -0.37672,-0.85156 -0.30197,-1.85874 0.0648,-2.71464 0.36675,-0.85591 1.00209,-1.57377 1.71609,-2.1715 1.55792,-1.30423 3.54183,-2.09098 5.57018,-2.20896 2.02835,-0.11798 4.0901,0.43347 5.78872,1.54828 m 18.179199,30.018 c -2.75237,0.57402 -5.49476,1.19585 -8.22552,1.86514 -0.80608,0.19756 -1.61471,0.39988 -2.44078,0.47982 -0.82608,0.0799 -1.67722,0.0331 -2.45519,-0.25591 -0.77798,-0.28905 -1.47842,-0.83842 -1.84283,-1.58408 -0.1822,-0.37283 -0.27771,-0.7897 -0.26059,-1.20431 0.0171,-0.41462 0.14863,-0.82599 0.38778,-1.16511 0.2944,-0.41746 0.73304,-0.7081 1.17325,-0.96725 4.07314,-2.39786 9.23844,-2.84631 13.66388,-1.1863 m 70.339996,4.018 c -3.01644,2.48794 -7.15302,3.56074 -10.99841,2.85238 -0.94794,-0.17462 -1.89156,-0.45815 -2.6973,-0.98718 -0.80573,-0.52903 -1.46564,-1.3271 -1.67899,-2.26708 -0.176,-0.77543 -0.0385,-1.60175 0.29123,-2.32529 0.32978,-0.72354 0.8427,-1.35146 1.41969,-1.89859 1.84637,-1.75084 4.41896,-2.71095 6.96096,-2.59789 2.542,0.11307 5.01919,1.29779 6.70282,3.20565 m -16.4196,-48.2231 0.8475,0.9643"
       id="path6462" />
  </g>
</svg>
