<?xml version="1.0" encoding="UTF-8" standalone="no"?>
<!-- Created with Inkscape (http://www.inkscape.org/) -->

<svg
   xmlns:dc="http://purl.org/dc/elements/1.1/"
   xmlns:cc="http://creativecommons.org/ns#"
   xmlns:rdf="http://www.w3.org/1999/02/22-rdf-syntax-ns#"
   xmlns:svg="http://www.w3.org/2000/svg"
   xmlns="http://www.w3.org/2000/svg"
   xmlns:sodipodi="http://sodipodi.sourceforge.net/DTD/sodipodi-0.dtd"
   xmlns:inkscape="http://www.inkscape.org/namespaces/inkscape"
   id="svg2"
   version="1.1"
   inkscape:version="0.91 r13725"
   width="133.20815"
   height="36.540493"
   viewBox="0 0 133.20815 36.540492"
   sodipodi:docname="Arts2-logo.svg">
  <metadata
     id="metadata8">
    <rdf:RDF>
      <cc:Work
         rdf:about="">
        <dc:format>image/svg+xml</dc:format>
        <dc:type
           rdf:resource="http://purl.org/dc/dcmitype/StillImage" />
        <dc:title></dc:title>
      </cc:Work>
    </rdf:RDF>
  </metadata>
  <defs
     id="defs6" />
  <sodipodi:namedview
     pagecolor="#ffffff"
     bordercolor="#666666"
     borderopacity="1"
     objecttolerance="10"
     gridtolerance="10"
     guidetolerance="10"
     inkscape:pageopacity="0"
     inkscape:pageshadow="2"
     inkscape:window-width="1277"
     inkscape:window-height="647"
     id="namedview4"
     showgrid="false"
     fit-margin-top="0"
     fit-margin-left="0"
     fit-margin-right="0"
     fit-margin-bottom="0"
     inkscape:zoom="2.1271792"
     inkscape:cx="106.61579"
     inkscape:cy="-15.754672"
     inkscape:window-x="0"
     inkscape:window-y="27"
     inkscape:window-maximized="0"
     inkscape:current-layer="svg2" />
  <path
     style="fill:#181818"
     d="m 95.789938,36.110767 c -4.93824,-1.197075 -8.41805,-4.940252 -8.46596,-9.106712 l -0.0158,-1.376793 3,-0.207825 c 1.65,-0.114306 3.20831,-0.147825 3.46291,-0.07449 0.25461,0.07334 0.62029,0.721737 0.81264,1.440891 0.85965,3.21414 5.31496,4.662441 9.299682,3.023073 3.24961,-1.336935 3.31499,-4.785426 0.12141,-6.404292 -0.60315,-0.305745 -3.25664,-1.331166 -5.896642,-2.278711 -2.64,-0.947545 -5.05573,-1.856297 -5.36829,-2.019448 -1.19761,-0.625145 -3.26863,-2.818388 -4.02935,-4.267154 -0.6767,-1.288766 -0.79435,-1.888591 -0.79675,-4.062043 -0.002,-2.1785402 0.12282,-2.8224462 0.85965,-4.4202929 1.04489,-2.265904 3.12154,-4.304661 5.51932,-5.41861896 1.48134,-0.688199 2.19837,-0.812514 5.2547,-0.911037 3.858352,-0.124376 5.470592,0.151145 7.860722,1.34334596 2.68135,1.33746 4.38354,3.390633 5.11741,6.1725977 0.59371,2.250658 0.41194,2.371319 -3.41775,2.2687 l -3.16078,-0.08469 -0.61944,-1.2 c -1.9859,-3.8471497 -9.754942,-3.1652387 -10.253722,0.9 -0.18804,1.5326202 0.628,2.9050262 2.20603,3.7100792 0.62991,0.321355 3.098952,1.22091 5.486772,1.999011 5.24199,1.708173 6.25202,2.19934 8.12456,3.950883 2.03087,1.899644 2.76915,3.931535 2.59428,7.140026 -0.27277,5.004819 -3.30738,8.540786 -8.48785,9.890126 -2.1765,0.566907 -6.855642,0.563541 -9.207712,-0.0066 z M 0.03347955,35.71825 c -0.0942,-0.152406 0.0173,-0.797727 0.24772,-1.434045 C 3.2363596,26.124047 11.89874,2.5549301 12.25607,1.7022631 l 0.47146,-1.12499996 3.73321,0 c 3.27662,0 3.75852,0.06421 3.94011,0.52499996 1.2177,3.089838 12.09712,33.5128659 12.20326,34.1249979 0.0989,0.570252 -0.0836,0.604149 -3.68098,0.683664 l -3.78501,0.08366 -0.31712,-0.833664 c -0.17441,-0.458514 -0.68031,-1.981164 -1.12422,-3.383664 -0.44391,-1.402499 -1.02,-2.718749 -1.28021,-2.924999 C 21.86221,28.412851 10.77664,28.316326 10.10004,28.745014 9.8755896,28.887229 9.1936796,30.538912 8.5846996,32.41542 l -1.10724,3.411837 -3.63636,0.08405 c -2.00165,0.04626 -3.71335005,-0.04052 -3.80762005,-0.193057 z M 20.37662,22.528262 c 0.23464,-0.379641 -3.82538,-12.507986 -4.16848,-12.452363 -0.33646,0.05455 -3.99319,10.972894 -4.02781,12.026363 -0.0219,0.66762 0.0219,0.675 4.01011,0.675 2.21776,0 4.10155,-0.11205 4.18618,-0.249 z M 34.55815,35.777257 C 34.44814,35.667259 34.35814,27.692864 34.35814,18.056381 l 0,-17.52087586 8.475,0.09588 8.475,0.09588 1.97658,0.93657896 c 3.83821,1.818689 5.69569,4.589766 5.90774,8.8134199 0.1015,2.021612 0.004,2.902332 -0.47178,4.250356 -0.85671,2.428663 -2.19157,4.211446 -4.10358,5.480562 -1.52612,1.012986 -1.63321,1.156831 -1.31104,1.761084 0.19295,0.361898 1.94593,3.54397 3.89551,7.071268 1.94957,3.527297 3.47189,6.531047 3.38292,6.674999 -0.24805,0.401358 -7.8425,0.329352 -8.13364,-0.07711 -0.13349,-0.186371 -1.72771,-3.257621 -3.54271,-6.825004 l -3.3,-6.486156 -2.025,-0.08871 -2.025,-0.08871 0,6.43917 c 0,3.541544 -0.0819,6.652712 -0.18209,6.913706 -0.15039,0.391905 -0.74244,0.474537 -3.4,0.474537 -1.76985,0 -3.30791,-0.09 -3.4179,-0.199999 z m 15.09897,-20.36761 c 3.23772,-1.897686 3.265,-6.4224412 0.0481,-7.9841112 C 48.51896,6.8496471 47.8101,6.7457781 45.00811,6.7372751 l -3.3,-0.01001 -0.0836,4.3362039 c -0.046,2.384913 -0.0109,4.52569 0.078,4.757283 0.27236,0.709742 6.60027,0.38271 7.95462,-0.4111 z m 20.70102,6.59789 c 0,-9.055979 -0.10923,-14.1738302 -0.31055,-14.5499992 -0.28504,-0.5325917 -0.66669,-0.5802777 -4.64428,-0.5802777 -5.05234,0 -4.73289,0.261393 -4.58412,-3.751006 l 0.089,-2.39899396 12.73026,-0.0783 c 9.98514,-0.06142 12.782038,0.0033 12.970408,0.3 0.28076,0.44228096 0.33398,4.75864096 0.0672,5.45376296 -0.15422,0.401872 -0.834098,0.474536 -4.439998,0.474536 -2.91171,0 -4.37173,0.113819 -4.61791,0.36 -0.26985,0.2698517 -0.36,3.9133329 -0.36,14.5499989 l 0,14.189999 -3.45,0 -3.45,0 0,-13.969721 z m 45.96463,4.614354 c -0.20055,-0.200547 -0.36463,-1.061133 -0.36463,-1.912413 0,-1.863846 0.0971,-1.995933 6.3092,-8.579247 4.59104,-4.865414 5.3908,-6.049718 5.3908,-7.9828522 0,-3.3554977 -4.33399,-4.2197947 -5.73142,-1.1429777 -0.30547,0.6725727 -0.55837,1.5121647 -0.56199,1.8657617 -0.008,0.813755 -0.52561,1.007097 -2.69439,1.007097 -2.15874,0 -2.42732,-0.286699 -2.10782,-2.25 0.49758,-3.0575737 1.58879,-4.7155127 3.94917,-6.0001897 3.21649,-1.75063096 7.55929,-1.29647996 10.2499,1.071887 1.78106,1.567755 2.40407,3.200983 2.24586,5.8875567 -0.18071,3.0685372 -1.00172,4.4108042 -5.64931,9.2359862 l -4.05,4.204759 4.95,0.15 4.95,0.15 0,2.25 0,2.25 -8.26037,0.07963 c -6.17337,0.05951 -8.35249,-0.01248 -8.625,-0.284998 z"
     id="path4144"
     inkscape:connector-curvature="0"
     sodipodi:nodetypes="cccsssssssscsssssscsssssssccccscsccscssscscsccscsccscccsscsssccscccscsccsscsccccssccsccsssccccccsssscsssssscccccsc" />
</svg>
