<?xml version="1.0" encoding="UTF-8" standalone="no"?>
<!-- Created with Inkscape (http://www.inkscape.org/) -->

<svg
   xmlns:dc="http://purl.org/dc/elements/1.1/"
   xmlns:cc="http://creativecommons.org/ns#"
   xmlns:rdf="http://www.w3.org/1999/02/22-rdf-syntax-ns#"
   xmlns:svg="http://www.w3.org/2000/svg"
   xmlns="http://www.w3.org/2000/svg"
   xmlns:sodipodi="http://sodipodi.sourceforge.net/DTD/sodipodi-0.dtd"
   xmlns:inkscape="http://www.inkscape.org/namespaces/inkscape"
   id="svg2"
   version="1.1"
   inkscape:version="0.91 r"
   width="531.59998"
   height="531.59998"
   viewBox="0 0 531.59998 531.59998"
   sodipodi:docname="logo ars musica2016-01.jpg.svg">
  <metadata
     id="metadata8">
    <rdf:RDF>
      <cc:Work
         rdf:about="">
        <dc:format>image/svg+xml</dc:format>
        <dc:type
           rdf:resource="http://purl.org/dc/dcmitype/StillImage" />
        <dc:title />
      </cc:Work>
    </rdf:RDF>
  </metadata>
  <defs
     id="defs6" />
  <sodipodi:namedview
     pagecolor="#ffffff"
     bordercolor="#666666"
     borderopacity="1"
     objecttolerance="10"
     gridtolerance="10"
     guidetolerance="10"
     inkscape:pageopacity="0"
     inkscape:pageshadow="2"
     inkscape:window-width="1327"
     inkscape:window-height="687"
     id="namedview4"
     showgrid="false"
     inkscape:zoom="0.89308812"
     inkscape:cx="265.79999"
     inkscape:cy="265.79999"
     inkscape:window-x="0"
     inkscape:window-y="27"
     inkscape:window-maximized="0"
     inkscape:current-layer="svg2" />
  <g
     id="g4138"
     transform="translate(5.5985534,20.154789)">
    <path
       style="fill:#000000"
       d="M 250.34999,477.56365 C 203.65325,474.30781 159.08019,455.33344 123.9,423.73489 c -5.04338,-4.52991 -14.37312,-14.06103 -18.63275,-19.03491 -18.378301,-21.45995 -31.673224,-44.82611 -40.538535,-71.2475 -1.020159,-3.04038 -1.745616,-5.67573 -1.638942,-5.95374 0.177867,-0.4635 6.669551,-0.49875 91.848047,-0.49875 l 91.65665,0 0.67315,1.0269 c 0.88609,1.35174 1.99415,1.9731 3.51856,1.9731 1.63222,0 2.79708,-0.63312 3.56759,-1.93902 l 0.62599,-1.06098 19.73511,0.004 c 10.85432,0.003 19.89153,0.10413 20.08269,0.22575 0.48921,0.31128 5.54029,10.90803 5.43718,11.40672 -0.0466,0.22542 -1.02975,0.77892 -2.18475,1.23 -5.05696,1.97502 -9.07145,5.64684 -8.79614,8.04537 0.12245,1.06674 1.15037,1.23366 3.26725,0.53055 1.69048,-0.56148 2.22841,-1.2165 2.52819,-3.07839 0.23683,-1.47099 1.2483,-2.82513 2.49637,-3.34209 0.47181,-0.19542 1.65579,-0.31419 2.63109,-0.26391 l 1.77324,0.0914 1.725,3.40269 c 1.59105,3.13845 1.725,3.55917 1.725,5.41767 0,1.14534 -0.1629,2.23773 -0.37743,2.5311 -0.20757,0.28389 -2.74401,1.37295 -5.63649,2.42013 -6.32702,2.29059 -7.99667,3.10569 -9.22329,4.50273 -1.49189,1.69917 -1.63925,4.28079 -0.38404,6.72822 1.25184,2.44086 3.19082,3.48753 6.47125,3.49326 2.32624,0.004 2.49012,-0.0442 5.33238,-1.5708 1.61283,-0.86625 3.12753,-1.575 3.36603,-1.575 0.2385,0 0.73374,0.4059 1.10052,0.90204 0.88734,1.20018 3.34794,2.40144 4.88496,2.38479 0.66888,-0.007 1.75611,-0.20772 2.41611,-0.44547 0.66,-0.23778 1.41198,-0.43437 1.67106,-0.43683 0.33063,-0.003 6.663,12.80742 21.24063,42.97046 11.42325,23.63625 20.84175,43.32048 20.92998,43.74273 0.15162,0.72555 -0.0429,0.86403 -3.54063,2.52141 -5.52963,2.62017 -13.98786,5.94831 -21.40104,8.42085 -16.94964,5.65332 -34.00521,9.01386 -52.40622,10.32585 -5.08261,0.3624 -24.1841,0.34803 -29.49378,-0.0222 z m -38.6361,-107.0252 c 1.19667,-0.46791 3.38176,-1.02762 7.77525,-1.99164 0.6645,-0.14583 1.0819,-1.04646 0.74079,-1.59837 -0.10809,-0.1749 -1.13651,-0.35859 -2.28538,-0.40821 -3.14094,-0.13569 -2.97733,0.6456 -3.0817,-14.71524 -0.0806,-11.86467 -0.12554,-12.825 -0.6,-12.82494 -0.28207,3e-5 -1.57099,0.20253 -2.86425,0.45 -1.29326,0.24747 -2.95589,0.44994 -3.69472,0.44994 -1.50946,0 -2.50389,0.41364 -2.50389,1.04151 0,0.23124 0.70756,0.80022 1.57234,1.26444 2.48918,1.3362 2.47766,1.2828 2.47766,11.49405 0,7.93011 -0.0557,8.95197 -0.53576,9.83091 -1.22151,2.23644 -5.23266,3.93582 -8.36588,3.54435 -2.51304,-0.31398 -3.84472,-1.218 -4.89836,-3.32526 l -0.9,-1.8 -0.0521,-11.31654 c -0.0286,-6.2241 -0.13024,-11.44305 -0.22579,-11.59764 -0.10473,-0.16947 -0.78506,-0.11982 -1.71302,0.12498 -0.84662,0.22332 -2.29751,0.48669 -3.22421,0.58524 -3.4872,0.37086 -3.68006,0.43263 -3.57853,1.14606 0.0563,0.3954 0.52818,0.89058 1.18279,1.24107 1.93633,1.03677 1.89608,0.7992 2.06083,12.16683 l 0.15,10.35 0.86168,1.75488 c 2.47329,5.037 10.12133,5.50164 17.07808,1.03752 1.79816,-1.15386 2.08773,-0.93459 2.25603,1.70844 0.14045,2.20584 0.19452,2.23752 2.36811,1.38762 z m 22.34634,-0.37107 c 2.14385,-0.44853 4.8918,-1.94088 5.9599,-3.23667 2.78663,-3.38067 2.11213,-8.86266 -1.48771,-12.0915 -0.79055,-0.70908 -2.7075,-2.03133 -4.25989,-2.93832 -4.52426,-2.64336 -5.97254,-4.22334 -5.97254,-6.51567 0,-1.69689 0.88096,-3.12579 2.41077,-3.91023 3.18585,-1.63362 6.69738,-0.0793 8.70308,3.85215 0.47804,0.93702 0.76647,1.18929 1.27684,1.11666 0.59309,-0.0844 0.65566,-0.25953 0.62297,-1.74381 -0.0437,-1.98312 -0.56129,-4.00479 -1.18509,-4.62858 -0.8015,-0.80151 -2.8899,-1.20111 -6.27857,-1.20138 -2.99103,-2.7e-4 -3.47548,0.0798 -5.17424,0.85548 -2.46005,1.1232 -4.08961,2.89182 -4.74652,5.15151 -1.27654,4.39113 0.55614,7.61088 6.37765,11.20461 5.218,3.22116 6.39409,4.61607 6.39199,7.58142 -0.001,2.05161 -0.79834,3.38439 -2.48008,4.1478 -1.80309,0.81849 -3.67619,0.75099 -5.58737,-0.20139 -1.79032,-0.89214 -2.97123,-2.3082 -4.26351,-5.11245 -0.97046,-2.10588 -1.29671,-2.41257 -1.97102,-1.85295 -0.39665,0.32919 -0.44535,0.8253 -0.28963,2.95083 0.27976,3.81849 0.565,4.56663 2.06192,5.40795 2.46518,1.38549 6.54119,1.8654 9.89105,1.16454 z m 42.77051,-0.11967 c 2.72048,-0.64143 4.78124,-1.79397 6.68336,-3.73788 2.05079,-2.09586 2.69725,-3.42705 2.00191,-4.12239 -0.43082,-0.43083 -0.5828,-0.35259 -1.70001,0.87501 -0.6748,0.74145 -1.9332,1.73949 -2.79646,2.21781 -1.4523,0.80475 -1.80486,0.86973 -4.71955,0.86973 -2.78972,0 -3.3462,-0.0919 -4.86542,-0.80403 -5.93942,-2.78379 -8.81972,-10.25409 -6.52512,-16.92348 1.52112,-4.42122 5.06459,-7.09803 9.44941,-7.13826 2.55047,-0.0234 4.61691,0.86268 6.89979,2.95857 0.81304,0.74646 1.7098,1.3572 1.99279,1.3572 1.77067,0 1.97683,-4.55106 0.25487,-5.62644 -0.30304,-0.18924 -1.67207,-0.57126 -3.0423,-0.84888 -2.85148,-0.5778 -6.24396,-0.45726 -9.28114,0.32976 -5.71254,1.48026 -10.11513,5.77881 -11.80397,11.52501 -0.61788,2.10231 -0.62769,6.82326 -0.019,9.16005 1.94673,7.47402 9.53713,11.77875 17.47087,9.90822 z m -130.58075,-1.32813 c 0,-0.62556 -0.21525,-0.78516 -1.5,-1.1121 -0.825,-0.20994 -1.7236,-0.65685 -1.99689,-0.99312 -0.69832,-0.85926 -0.94436,-4.8486 -0.799,-12.95502 0.13057,-7.28118 0.21754,-7.69725 1.94411,-9.30009 1.34856,-1.25193 2.79553,-1.83903 4.89939,-1.98792 3.63508,-0.25722 6.04847,1.02204 7.10792,3.76764 0.48353,1.2531 0.54447,2.44263 0.54447,10.6278 0,10.53741 0.10382,10.12452 -2.72723,10.84671 -1.25753,0.32082 -1.47277,0.48246 -1.47277,1.1061 l 0,0.73041 7.2,0 7.2,0 0,-0.72732 c 0,-0.63396 -0.20573,-0.77367 -1.60252,-1.08825 -1.90658,-0.42939 -2.40178,-0.86271 -2.76239,-2.41722 -0.39501,-1.70277 -0.35371,-17.10669 0.0498,-18.56721 1.19066,-4.30989 8.89898,-5.91618 12.26032,-2.55483 1.67866,1.67868 1.86502,2.64141 2.0254,10.46307 0.16374,7.98609 -0.0388,11.15181 -0.771,12.0528 -0.27477,0.3381 -1.17458,0.78651 -1.99958,0.99645 -1.28474,0.32694 -1.5,0.48654 -1.5,1.1121 l 0,0.73041 7.11538,0.0423 c 5.74998,0.0342 7.18185,-0.0377 7.46174,-0.375 0.55037,-0.66315 -0.16088,-1.23816 -1.81253,-1.46532 -0.98734,-0.13581 -1.68179,-0.44115 -2.1599,-0.94968 l -0.70469,-0.74955 -0.15,-10.40139 c -0.14086,-9.76782 -0.18847,-10.48455 -0.78169,-11.76663 -1.40718,-3.04122 -3.91895,-4.72548 -7.47268,-5.01072 -3.03868,-0.24393 -5.46879,0.59493 -11.14763,3.84801 l -1.25201,0.71721 -1.92323,-1.84677 c -1.53858,-1.47744 -2.27507,-1.94907 -3.68233,-2.35818 -3.19373,-0.92844 -6.93471,-0.19344 -10.76985,2.11596 -0.9588,0.57735 -1.98117,1.04973 -2.27193,1.04973 -0.67892,0 -0.90596,-0.89955 -0.68913,-2.73039 0.12947,-1.09311 0.0676,-1.49721 -0.24762,-1.61817 -0.2311,-0.0887 -1.56582,0.42411 -2.96604,1.13952 -1.40022,0.71544 -3.11961,1.52655 -3.82086,1.80249 -0.77661,0.30558 -1.275,0.69369 -1.275,0.99291 0,0.27018 0.6075,1.05693 1.35,1.7484 l 1.35,1.25718 0,10.05927 c 0,10.25055 -0.13512,11.67891 -1.15655,12.22551 -0.27139,0.14523 -1.14543,0.36183 -1.9423,0.48132 -1.43459,0.2151 -1.91502,0.6519 -1.60517,1.45938 0.13126,0.34203 1.45039,0.40974 7.3071,0.375 l 7.14692,-0.0424 0,-0.73041 z m 112.48794,0.35364 c 0.21399,-0.55764 -0.34668,-1.27266 -0.99967,-1.27491 -0.26855,0 -1.0053,-0.14523 -1.63723,-0.3207 -2.0366,-0.56553 -2.0402,-0.59451 -1.98255,-15.92196 0.0279,-7.41753 -0.0299,-13.56708 -0.12844,-13.6656 -0.29307,-0.29307 -8.28996,3.62454 -8.29,4.06122 -3e-5,0.22071 0.6412,0.98178 1.42495,1.69131 l 1.425,1.29003 0.10662,7.44549 c 0.0586,4.09503 0.0105,8.85573 -0.10698,10.57932 -0.25228,3.70128 -0.66946,4.35882 -2.98583,4.70619 -1.39424,0.20907 -1.87586,0.65106 -1.57207,1.44273 0.24394,0.6357 14.50184,0.60369 14.7462,-0.0331 z m 98.29671,84.15176 c -0.79956,-1.69125 -9.45174,-19.6125 -19.22709,-39.825 -35.71599,-73.85 -41.44278,-85.80032 -41.25925,-86.09726 0.11989,-0.19398 3.82837,-0.30273 10.32289,-0.30273 9.2769,0 10.17501,0.0445 10.59846,0.525 0.25443,0.28875 1.44027,2.28 2.63514,4.425 3.87438,6.9552 6.90114,10.74492 11.60523,14.53065 8.10342,6.52134 17.47737,9.70893 28.58997,9.72186 7.6179,0.009 13.00668,-1.18371 19.36212,-4.28511 9.35793,-4.56657 16.1946,-12.19563 19.5065,-21.7674 0.45672,-1.32 0.95964,-2.56875 1.11762,-2.775 0.44304,-0.57843 67.36665,-0.54684 67.58874,0.0319 0.1878,0.48939 -2.79081,9.50319 -5.07012,15.34308 -4.79538,12.28641 -11.68416,25.8351 -18.7617,36.9 -18.74121,29.2997 -45.01008,54.21731 -75.19316,71.32523 -4.22169,2.39289 -9.83784,5.32476 -10.19982,5.32476 -0.089,0 -0.81597,-1.38375 -1.61553,-3.075 z m -59.94442,-86.64905 c -0.89955,-0.44526 -1.43568,-0.98697 -1.875,-1.89447 -1.15842,-2.39298 -0.53579,-4.47531 1.73629,-5.80683 1.84904,-1.0836 5.85144,-2.47464 7.12023,-2.47464 l 1.02825,0 -0.0168,3.375 c -0.0234,4.65027 -0.26505,5.23752 -2.65464,6.45 -2.24463,1.13895 -3.57024,1.2261 -5.33821,0.35094 z m 14.99653,0.0924 c -0.3648,-0.28509 -0.87105,-1.02024 -1.125,-1.63371 -0.47268,-1.14174 -0.64734,-4.73463 -0.23016,-4.73463 0.24999,0 3.3684,6.11349 3.3684,6.6036 0,0.4785 -1.29333,0.32736 -2.01324,-0.23526 z m 42.24714,-25.71444 c -7.47006,-1.68804 -13.46838,-5.80974 -17.30904,-11.89371 -1.41198,-2.23674 -3.34302,-2.06019 22.53456,-2.06019 19.99143,0 23.28276,0.0608 23.42556,0.43296 0.2034,0.53007 -2.10822,4.16316 -3.85422,6.05757 -2.80077,3.03882 -6.75039,5.50101 -11.03076,6.87657 -2.23524,0.71835 -3.12396,0.83187 -7.2,0.91965 -3.29064,0.0709 -5.21013,-0.0264 -6.5661,-0.33285 z M 62.443522,325.70243 c -1.188303,-1.43181 -6.84534,-28.02063 -6.116694,-28.74927 0.139752,-0.13975 43.649635,-0.22014 96.688632,-0.17863 l 96.43453,0.0755 0.15,7.2 0.15,7.2 7.425,0.0802 7.425,0.0802 0,-6.77496 c 0,-4.09644 0.12278,-7.00437 0.31055,-7.35523 0.29403,-0.54938 0.69736,-0.58004 7.575,-0.57569 3.99545,0.002 7.43133,0.11059 7.6353,0.24015 0.47765,0.30337 13.86759,27.93438 13.87418,28.63026 0.005,0.49467 -1.12244,0.525 -19.51034,0.525 l -19.5153,0 -0.42372,-1.01409 c -0.23305,-0.55776 -0.84402,-1.36776 -1.35771,-1.8 -1.82756,-1.5378 -4.83049,-0.75981 -5.9091,1.5309 l -0.53358,1.13319 -91.9855,0.0755 c -76.187583,0.0625 -92.042306,0.007 -92.316248,-0.32304 z m 233.122358,0.0225 c -0.66711,-0.8133 -13.85688,-28.49682 -13.699,-28.75227 0.0951,-0.15386 4.13169,-0.27267 9.26408,-0.27267 7.05299,0 9.16756,0.0868 9.4162,0.38635 0.82941,0.99936 15.93519,28.49951 15.78669,28.73975 -0.27876,0.45105 -20.39542,0.35313 -20.76797,-0.1011 z m 39.47906,-0.14823 c -0.96591,-1.12758 -16.17153,-28.29106 -15.99591,-28.57524 0.12255,-0.1982 9.01866,-0.30147 25.97526,-0.30147 l 25.78887,0 1.98516,0.90011 c 6.89499,3.12634 11.19408,7.80274 12.57627,13.68001 0.86079,3.66018 0.24999,10.9503 -1.16475,13.90227 l -0.36789,0.76761 -24.17289,0.0768 c -22.73628,0.0722 -24.19971,0.0454 -24.62412,-0.45 z m 65.63711,0.2751 c -0.0844,-0.13647 0.0422,-1.45272 0.28113,-2.925 0.49953,-3.07746 0.56262,-9.20826 0.12636,-12.27687 -0.52335,-3.68088 -1.47687,-6.80721 -3.12722,-10.25322 -0.88323,-1.84426 -1.52859,-3.43051 -1.43412,-3.525 0.0945,-0.0945 17.63603,-0.17178 38.98121,-0.17178 36.07824,0 38.82303,0.0355 39.00294,0.50432 0.54297,1.41503 -4.53582,25.56829 -5.96562,28.37068 -0.25272,0.4953 -2.17569,0.525 -33.98961,0.525 -18.54696,0 -33.79074,-0.11166 -33.87507,-0.24813 z M 56.189986,295.56222 c -0.743475,-0.47316 -2.189988,-16.78779 -2.189988,-24.70001 0,-3.46012 0.07387,-4.12637 0.474537,-4.28012 0.718416,-0.27569 194.318515,-0.20906 194.753395,0.067 0.29713,0.18862 0.36128,3.31494 0.3,14.6204 l -0.0779,14.38048 -96.45,0.0707 c -53.047494,0.0389 -96.611998,-0.0324 -96.810004,-0.15844 z m 208.761634,-0.28183 c -0.16206,-0.31228 -0.2119,-6.30377 -0.12121,-14.56926 0.13224,-12.05125 0.21566,-14.02629 0.58922,-13.95 0.40395,0.0825 13.76636,27.28172 13.94892,28.39309 0.0735,0.44751 -0.61085,0.5036 -7.03012,0.57617 -6.54424,0.074 -7.13351,0.0381 -7.38681,-0.45 z m 15.79975,-0.1554 c -1.19064,-2.17373 -13.45138,-27.68906 -13.45138,-27.99314 0,-0.20222 0.21354,-0.44961 0.47454,-0.54976 0.26099,-0.10016 3.82354,-0.1821 7.91676,-0.1821 6.66176,0 7.50447,0.0551 8.03569,0.525 0.74746,0.66123 15.67301,27.67353 15.67301,28.36504 0,0.46878 -0.73794,0.50996 -9.13945,0.50996 l -9.13944,0 -0.36973,-0.675 z m 37.33451,0.43444 c -0.32037,-0.2036 -15.80574,-27.1409 -16.21401,-28.20481 -0.0876,-0.22835 0.0291,-0.53449 0.25941,-0.68031 0.51711,-0.32744 24.87561,-0.35603 25.38921,-0.0298 0.20376,0.12942 0.62586,0.9776 0.93798,1.88483 1.90743,5.54405 6.4716,11.03767 12.49794,15.04302 3.95634,2.62956 11.58933,6.28827 18.29358,8.76866 2.97,1.09881 5.86674,2.17428 6.43716,2.38992 2.70855,1.02388 1.73103,1.06915 -22.98717,1.06446 -13.33749,-0.002 -24.41382,-0.10871 -24.6141,-0.23596 z m 74.46411,-2.86359 c -5.43456,-5.57455 -11.64657,-9.0003 -25.95,-14.3107 -12.21264,-4.53416 -16.6173,-6.76459 -19.79889,-10.02578 -1.1085,-1.13625 -1.26888,-1.43321 -0.9,-1.66641 0.5838,-0.36907 130.18682,-0.38637 130.76951,-0.0175 0.34959,0.22134 0.38502,1.27193 0.20979,6.2204 -0.34185,9.65398 -1.44753,21.7505 -2.05926,22.52909 -0.23313,0.29673 -8.53653,0.3722 -39.78288,0.36157 l -39.48827,-0.0134 -3,-3.07728 z M 54.094426,265.01335 c -0.273663,-0.71316 0.153126,-12.16578 0.641535,-17.21522 0.829557,-8.57641 1.146378,-10.83762 1.579098,-11.27034 0.367155,-0.36716 7.834755,-0.42715 52.681361,-0.42321 28.73947,0.002 52.43216,0.11783 52.65044,0.25622 0.30344,0.19239 -1.23469,3.59592 -6.53402,14.45827 -3.81198,7.81366 -7.09557,14.31129 -7.29686,14.43919 -0.20129,0.1279 -21.32897,0.23461 -46.9504,0.23714 -42.6932,0.004 -46.600013,-0.0361 -46.771154,-0.48205 z m 111.034734,0.0905 c -0.15705,-0.40927 12.23134,-26.10869 12.96567,-26.89697 0.35802,-0.38432 1.13835,0.27208 5.88396,4.9494 16.31633,16.08159 22.0722,21.88027 21.93656,22.09974 -0.0829,0.13417 -9.25954,0.24394 -20.39248,0.24394 -16.49197,0 -20.26987,-0.0734 -20.39371,-0.39611 z m 43.67083,5.2e-4 c 0,-0.21757 4.2076,-4.77382 9.35022,-10.125 17.71975,-18.43838 17.3688,-18.09066 17.80264,-17.63872 0.59014,0.61476 13.34714,27.02704 13.34714,27.6341 0,0.49509 -1.16126,0.52521 -20.25,0.52521 -16.562,0 -20.25,-0.072 -20.25,-0.39559 z m 92.1,0.008 c 0,-0.21324 1.15956,-0.90995 2.57679,-1.54824 5.70717,-2.57039 11.78643,-7.38583 15.43194,-12.22379 2.24349,-2.97733 4.53468,-7.5579 5.72268,-11.44086 0.51315,-1.67716 1.14678,-3.21814 1.40811,-3.42439 0.54522,-0.43029 8.34774,-0.53246 9.00141,-0.11786 0.29541,0.18738 0.12087,0.57107 -0.71439,1.57041 -5.63262,6.73917 -8.33646,15.49433 -7.3653,23.84912 0.20064,1.72615 0.2835,3.27005 0.18408,3.43089 -0.11289,0.18267 -5.07318,0.29245 -13.21302,0.29245 -10.45377,0 -13.0323,-0.0767 -13.0323,-0.38771 z m 43.58667,0.14763 c -0.645,-0.40991 -1.57449,-2.93037 -1.93443,-5.24549 -0.48114,-3.09477 -0.0332,-5.63573 1.56162,-8.85863 3.51315,-7.09956 11.73282,-11.34901 19.83333,-10.25355 5.16906,0.69903 8.66538,2.43116 12.40929,6.14776 3.71049,3.68339 5.58771,8.0424 6.44031,14.95465 0.24597,1.99406 0.24063,2.75926 -0.0213,3.075 -0.29244,0.35237 -3.38745,0.4196 -19.13712,0.41576 -10.33356,-0.002 -18.95178,-0.10851 -19.15161,-0.2355 z m 54.27332,-0.1199 c -0.19799,-0.198 -0.3608,-1.10925 -0.36176,-2.025 -0.005,-4.66482 -1.72071,-11.89309 -3.91188,-16.48039 -1.62141,-3.39447 -2.79585,-5.17195 -5.34015,-8.08207 -1.32507,-1.51561 -1.57212,-1.95239 -1.22757,-2.17041 0.51603,-0.32651 86.06681,-0.37843 86.57519,-0.0525 0.69336,0.4445 1.74078,10.16536 2.24304,20.81744 0.19182,4.06837 0.26625,7.61212 0.16536,7.875 -0.16647,0.43388 -3.76218,0.47797 -38.98281,0.47797 -29.77734,0 -38.88312,-0.0837 -39.15942,-0.36 z M 260.09025,251.11248 c -0.25286,-0.1481 -2.00049,-3.46097 -3.88364,-7.36193 -2.79869,-5.79755 -3.34471,-7.14277 -2.99025,-7.36702 0.4783,-0.30261 12.62613,-0.38452 13.71615,-0.0925 0.53424,0.14314 1.44167,1.69528 4.17684,7.14445 2.22582,4.43441 3.42446,7.14363 3.30189,7.46305 -0.17217,0.44867 -0.91171,0.50049 -7.02684,0.49233 -3.75892,-0.005 -7.04129,-0.13029 -7.29415,-0.27839 z m 28.52642,-7.21622 c -2.88383,-5.69028 -3.59527,-7.32547 -3.27536,-7.52816 0.53802,-0.34086 23.38574,-0.33678 23.92427,0.004 1.72731,1.09392 -4.31784,9.16052 -8.83056,11.78348 -2.23641,1.29988 -5.61508,2.67172 -7.05616,2.86501 l -1.07814,0.14461 -3.68405,-7.26923 z m -85.37101,-3.30452 c -3.12519,-3.13527 -3.80667,-3.96504 -3.44567,-4.1954 0.6593,-0.42072 14.90888,-0.3865 15.17026,0.0364 0.17775,0.28761 -7.21905,8.06722 -7.67026,8.06722 -0.0873,0 -1.91171,-1.75871 -4.05433,-3.90825 z M 56.487316,234.69482 c -0.603324,-1.57223 5.28522,-27.59513 6.453555,-28.51983 0.375279,-0.29702 12.17444,-0.37404 56.741459,-0.3704 33.88456,0.003 56.44192,0.11481 56.70572,0.28167 0.35889,0.22701 -0.53573,2.27121 -4.95,11.31065 -2.96343,6.06847 -6.13056,12.52296 -7.03806,14.34333 l -1.65,3.30975 -53.03409,0.0758 c -49.549321,0.0709 -53.046874,0.0425 -53.228584,-0.431 z m 135.408804,-5.41036 c -3.32537,-3.25354 -6.08507,-6.12402 -6.13267,-6.37886 -0.13588,-0.72748 7.63423,-16.42974 8.30874,-16.79072 0.38407,-0.20556 4.97696,-0.31489 13.2278,-0.31489 8.25084,0 12.84373,0.10933 13.22781,0.31489 0.54463,0.29147 8.37219,15.82126 8.37219,16.61032 0,0.18166 -2.73495,3.0628 -6.07768,6.40254 l -6.07768,6.07225 -9.40119,0 -9.40119,0 -6.04613,-5.91553 z m 60.04833,5.39053 c -0.50634,-0.59266 -13.74446,-27.77554 -13.74446,-28.22258 0,-0.15852 0.21354,-0.37017 0.47454,-0.47032 0.62033,-0.23804 12.06974,-0.22901 12.96285,0.0102 0.55555,0.14882 2.03716,2.87973 7.725,14.23874 3.87068,7.73004 7.03761,14.26033 7.03761,14.51177 0,0.39649 -0.92942,0.45716 -7.0035,0.45716 -6.29914,0 -7.04862,-0.0528 -7.45204,-0.525 z m 32.21978,0.15 c -0.51616,-0.62594 -14.46424,-28.30019 -14.46424,-28.69835 0,-0.28986 2.50315,-0.34547 11.475,-0.25494 10.64424,0.1074 11.64875,0.16307 13.875,0.76907 8.28345,2.25478 13.69272,7.4775 15.48087,14.94695 0.98664,4.1213 0.77148,11.83402 -0.36843,13.20751 -0.47469,0.57198 -25.52744,0.60066 -25.9982,0.0298 z m 42.20828,0.15 c -0.015,-0.12375 -0.0538,-2.9925 -0.0858,-6.375 -0.054,-5.69526 -0.11967,-6.37182 -0.8883,-9.15 -0.91614,-3.31133 -3.15693,-8.26569 -5.06577,-11.20032 -1.00464,-1.54449 -1.15617,-1.95089 -0.80934,-2.1704 0.54906,-0.34752 147.88268,-0.36136 148.43087,-0.0139 0.90909,0.57612 6.13017,22.98232 6.40446,27.48467 l 0.0914,1.5 -44.21862,0.076 -44.21861,0.076 -3.33138,-2.23095 c -10.34688,-6.92908 -20.37366,-8.69212 -31.68138,-5.57063 -3.14733,0.86883 -8.99973,3.82273 -11.85,5.98111 l -2.4,1.81741 -5.175,6e-4 c -2.84625,2.9e-4 -5.18736,-0.10072 -5.20248,-0.22447 z M 63.405604,204.44248 c -0.351438,-0.91583 4.818722,-15.09115 8.779391,-24.07094 7.32009,-16.59641 18.446199,-34.47306 30.416445,-48.871 13.11291,-15.77235 28.56553,-29.69412 45.69524,-41.168293 8.61129,-5.768202 24.71223,-14.641314 25.37185,-13.98225 0.42469,0.424338 33.03146,67.966963 33.03146,68.422343 0,0.40563 -28.17609,58.23862 -28.94671,59.41474 l -0.46712,0.71291 -56.8525,0 c -50.67364,0 -56.871573,-0.0497 -57.028056,-0.45751 z m 131.420196,0.0526 c -0.13953,-0.3636 11.5662,-24.83858 12.21141,-25.53228 0.16766,-0.18027 0.4169,-0.12443 0.66961,0.15 0.76782,0.83382 12.24354,24.92318 12.07819,25.35406 -0.23994,0.62527 -24.71948,0.65295 -24.95921,0.0282 z m 42.58462,0.17527 c -0.6929,-0.44974 -62.59099,-128.297768 -62.44938,-128.986673 0.16338,-0.794754 12.57358,-5.983806 21.83895,-9.131475 34.16002,-11.604968 68.67744,-14.465738 103.95,-8.615273 32.8998,5.45691 64.62825,19.069676 91.5,39.257134 34.31603,25.779997 59.74961,60.853137 73.6322,101.539557 1.01031,2.96102 1.76937,5.55977 1.68678,5.775 -0.12291,0.32031 -13.69791,0.39132 -74.80898,0.39132 l -74.65881,0 -2.01027,-2.23724 c -3.79011,-4.21803 -9.36279,-7.75517 -15.34224,-9.73815 -5.45727,-1.8098 -5.71547,-1.82461 -31.82027,-1.82461 -13.08615,0 -23.85509,0.10125 -23.93097,0.225 -0.0759,0.12375 1.32196,3.12555 3.10633,6.67066 1.78437,3.54511 3.18052,6.54886 3.10256,6.675 -0.18151,0.29369 -13.34341,0.29345 -13.7959,-2.5e-4 z m 22.01457,-32.05615 c 1.29807,-0.82324 0.49917,-2.17473 -0.95804,-1.62071 -1.25204,0.47603 -2.39187,0.36417 -3.11039,-0.30523 -1.27353,-1.18647 -0.89451,-1.48832 1.86889,-1.48832 3.21622,0 3.47454,-0.10489 3.47454,-1.41081 0,-2.14569 -1.65247,-3.69004 -3.94629,-3.68806 -3.8177,0.003 -5.78822,4.71639 -3.20295,7.66085 0.50061,0.57017 1.33524,1.16276 1.85472,1.31687 1.15074,0.34138 3.1048,0.11552 4.01952,-0.46459 z m -4.54478,-5.16537 c -0.34839,-0.56369 0.75856,-1.54889 1.7403,-1.54889 1.04619,0 2.18857,0.91898 1.84116,1.4811 -0.23197,0.37534 -3.35486,0.43445 -3.58146,0.0678 z m 12.41274,5.10414 c 0.52763,-0.39213 0.78579,-0.90344 0.8519,-1.68726 0.11178,-1.32508 -0.42498,-2.04259 -2.19486,-2.93399 -1.64673,-0.82938 -1.94187,-1.10389 -1.74328,-1.62141 0.12732,-0.33179 0.56133,-0.42206 1.69762,-0.35306 1.30964,0.0795 1.54322,0.0103 1.64374,-0.48748 0.17354,-0.8593 -0.76252,-1.36983 -2.51161,-1.36983 -1.8679,0 -3.14249,0.94187 -3.12693,2.31068 0.0129,1.13873 0.62436,1.86965 2.47645,2.96049 2.13849,1.25952 2.0696,1.77883 -0.23599,1.77883 -1.72,0 -1.8,0.0333 -1.8,0.75 0,1.45803 3.27727,1.891 4.94296,0.65303 z m 7.74652,0.15911 c 0.21421,-0.1703 0.34921,-0.59145 0.3,-0.93588 -0.0666,-0.46625 -0.31944,-0.63509 -0.98948,-0.66084 -0.495,-0.019 -1.07443,-0.0528 -1.28762,-0.075 -0.28844,-0.0301 -0.3652,-0.63531 -0.3,-2.36542 l 0.0876,-2.325 1.01893,-0.15 c 1.99091,-0.29308 1.93961,-1.96323 -0.0663,-2.15766 -0.86615,-0.0839 -0.96628,-0.20131 -1.10266,-1.29234 -0.1375,-1.1 -0.225,-1.2 -1.05,-1.2 -0.81993,0 -0.90816,0.098 -0.9917,1.10145 -0.0645,0.77424 -0.30954,1.24417 -0.825,1.58191 -0.93652,0.61363 -0.931,1.22327 0.0167,1.84423 0.70206,0.46001 0.75,0.65345 0.75,3.02664 0,2.73801 0.27387,3.58275 1.29461,3.99308 0.74592,0.29986 2.56314,0.0773 3.14486,-0.38517 z m 19.09693,0.23893 c 0.84809,-0.30208 1.29615,-0.33153 1.57119,-0.10327 0.21162,0.17563 0.58898,0.24096 0.83858,0.14518 0.36509,-0.1401 0.45382,-0.78802 0.45382,-3.31403 0,-4.78434 -0.47904,-5.55372 -3.46766,-5.56941 -2.00625,-0.0105 -2.96175,0.45659 -2.78252,1.36029 0.0996,0.50207 0.32744,0.56625 1.69261,0.47673 1.60842,-0.10547 2.45757,0.25394 2.45757,1.04018 0,0.27947 -0.374,0.41326 -1.15524,0.41326 -2.48052,0 -3.94476,1.11697 -3.94476,3.00917 0,1.29394 0.48538,2.06925 1.59862,2.55351 1.17458,0.51093 1.27196,0.51052 2.73779,-0.0116 z m -1.87641,-1.71107 c -0.61965,-0.61964 -0.42487,-1.7233 0.36788,-2.0845 1.08417,-0.49398 2.27212,-0.0999 2.27212,0.75372 0,1.31153 -1.76802,2.20276 -2.64,1.33078 z m -43.62,1.5 c 0.2334,-0.23339 0.36,-1.44666 0.36,-3.45 l 0,-3.09 1.01327,0 c 2.11766,0 2.19186,-1.86358 0.0813,-2.04311 l -1.09462,-0.0931 0,-1.65161 c 0,-2.52772 0.71145,-3.39712 2.2891,-2.7973 0.90932,0.34572 1.6109,-0.0641 1.6109,-0.94104 0,-0.75384 -0.89707,-1.17383 -2.50726,-1.17383 -2.44157,0 -3.78711,1.82955 -3.79107,5.15479 -0.002,1.14047 -0.11456,1.44061 -0.60167,1.59521 -0.37721,0.11972 -0.6,0.45391 -0.6,0.9 0,0.44609 0.22279,0.78028 0.6,0.9 0.5485,0.17409 0.6,0.45391 0.6,3.26022 0,3.12158 0.21158,3.78978 1.2,3.78978 0.264,0 0.642,-0.162 0.84,-0.36 z m 30.51,-3.9573 c 0,-3.56284 -0.0725,-4.21304 -0.49985,-4.4826 -0.36274,-0.22881 -0.6302,-0.20713 -0.975,0.079 -0.38966,0.32338 -0.47515,1.10746 -0.47515,4.35761 0,2.17979 0.0962,4.05946 0.21377,4.17704 0.11758,0.11757 0.55633,0.17382 0.975,0.125 l 0.76123,-0.0888 0,-4.1673 z m 7.97436,0.4923 c 2.00296,-4.23655 2.19383,-4.94474 1.37832,-5.114 -0.81964,-0.17011 -1.52859,0.64118 -2.44541,2.79838 -0.45363,1.06734 -0.98205,1.94062 -1.17427,1.94062 -0.19222,0 -0.73712,-0.91125 -1.21088,-2.025 -1.08689,-2.55508 -1.77734,-3.17491 -2.80811,-2.52091 -0.42677,0.27078 -0.32436,0.54859 2.14589,5.82091 0.87315,1.86361 1.5402,2.925 1.83826,2.925 0.30473,0 1.09821,-1.33339 2.2762,-3.825 z m 14.01564,3.465 c 0.25974,-0.25972 0.36,-2.3385 0.36,-7.46326 0,-7.59468 -0.0932,-8.07325 -1.4856,-7.6313 -0.59741,0.1896 -0.6144,0.40044 -0.6144,7.62478 0,4.08638 0.09,7.51978 0.2,7.62978 0.3184,0.3184 1.14778,0.23223 1.54,-0.16 z m -21.85055,-12.82027 c 0.40163,-0.75047 0.39685,-0.79057 -0.16088,-1.3483 -0.69892,-0.69892 -1.59331,-0.57704 -1.97911,0.26969 -0.2582,0.56669 -0.24804,0.84912 0.0432,1.2 0.53265,0.6418 1.72532,0.57275 2.09682,-0.12139 z m -10.18945,-11.20679 1.35,-0.0629 0,-4.2 0,-4.2 -0.9,0 -0.9,0 -0.0854,2.88794 c -0.0674,2.27862 -0.19398,2.9832 -0.6,3.33951 -0.90406,0.79338 -1.72917,0.8783 -2.49777,0.25708 -0.64503,-0.52135 -0.73183,-0.87503 -0.86681,-3.53194 l -0.15,-2.95259 -0.9,0 -0.9,0 -0.0866,2.9849 c -0.0955,3.29215 0.18162,4.34233 1.39836,5.29943 0.64456,0.507 1.04258,0.58154 2.2844,0.42777 0.8271,-0.10242 2.11133,-0.21454 2.85383,-0.24916 z m 8.67698,-0.3896 c 1.61422,-1.35828 1.19106,-3.2749 -0.96201,-4.35731 -1.82908,-0.91953 -2.38685,-1.46793 -1.98521,-1.95189 0.22641,-0.2728 0.7341,-0.33908 1.64302,-0.2145 1.07069,0.14676 1.35201,0.0848 1.51232,-0.33293 0.34968,-0.91126 -0.63702,-1.51671 -2.47179,-1.51671 -1.45264,0 -1.7577,0.10748 -2.38928,0.84173 -0.39822,0.46295 -0.72403,1.1535 -0.72403,1.53455 0,0.96996 1.0348,2.17797 2.50336,2.92239 1.47183,0.74609 1.78149,1.13762 1.32996,1.68167 -0.24267,0.29241 -0.76419,0.34651 -1.93284,0.2005 -1.5548,-0.19426 -1.60048,-0.17889 -1.60048,0.53875 0,0.92948 0.88524,1.38307 2.75198,1.41011 1.08926,0.0158 1.60787,-0.15294 2.325,-0.75636 z m 13.23127,0.26905 c 0.91015,-0.62285 1.1812,-0.99622 1.18716,-1.63529 0.007,-0.77968 -0.73242,-0.86246 -2.01897,-0.22593 -1.36919,0.67742 -2.39939,0.45857 -3.19617,-0.67898 -1.30377,-1.8614 0.30984,-4.54052 2.42308,-4.02312 2.17205,0.5318 2.40891,0.53228 2.61113,0.005 0.44437,-1.15801 -1.96831,-2.4599 -3.89045,-2.09931 -1.24992,0.23449 -2.91044,1.625 -3.42552,2.86852 -0.48605,1.17344 -0.22761,3.44646 0.50316,4.42524 1.2847,1.72072 4.26276,2.42005 5.80658,1.36355 z m -42.97056,-2.63656 c 0.0737,-2.26343 0.18995,-2.80302 0.72729,-3.375 0.64563,-0.68724 1.85104,-0.88339 2.58172,-0.42012 0.55355,0.35098 0.9377,2.22443 0.94614,4.61429 l 0.007,2.025 0.9,0 0.9,0 0,-2.85 c 0,-3.21391 0.4291,-4.05 2.07857,-4.05 1.62426,0 2.05135,0.93282 2.19766,4.8 0.0682,1.80222 0.12804,1.95768 0.78984,2.05125 0.39384,0.0557 0.83053,-0.0793 0.97041,-0.3 0.35128,-0.55419 0.32533,-4.66671 -0.0377,-5.97352 -0.64286,-2.31417 -2.78671,-3.19772 -5.18492,-2.13688 l -1.36953,0.60581 -1.26238,-0.62457 c -1.12523,-0.55672 -1.39651,-0.58394 -2.49716,-0.25054 -1.26642,0.38362 -1.58688,0.41298 -2.88479,0.26434 l -0.75,-0.0859 -0.0844,3.88414 c -0.0464,2.13627 -0.0134,4.06906 0.0733,4.29509 0.0947,0.24667 0.48818,0.37294 0.9844,0.31587 0.82631,-0.0951 0.82675,-0.0964 0.9144,-2.78927 z m 34.41231,-1.50583 0,-4.2 -0.9,0 -0.9,0 -0.0844,3.88414 c -0.0464,2.13627 -0.0134,4.06906 0.0733,4.29509 0.0947,0.24667 0.48818,0.37294 0.9844,0.31587 l 0.82671,-0.0951 0,-4.2 z m -0.0214,-8.42142 c 0.61866,-0.61866 0.59494,-0.90507 -0.13545,-1.63545 -0.48942,-0.48942 -0.72494,-0.54369 -1.21694,-0.28038 -0.8064,0.43157 -0.99666,1.00158 -0.58873,1.76381 0.39595,0.73984 1.28377,0.80937 1.94112,0.15202 z m 28.78933,-5.10311 c 0.10017,-0.261 0.1821,-1.76133 0.1821,-3.33406 l 0,-2.85953 1.275,0.19052 c 2.66577,0.39834 5.025,-1.74145 5.025,-4.55761 0,-1.56924 -0.55956,-2.725 -1.84164,-3.80378 -0.87309,-0.73467 -1.11957,-0.79353 -2.63577,-0.62942 -0.91992,0.0996 -2.17884,0.18129 -2.79759,0.1816 l -1.125,6e-4 0,7.44312 c 0,4.09372 0.09,7.53313 0.20001,7.64313 0.3819,0.38191 1.53681,0.19735 1.71789,-0.27454 z m 0.44727,-8.56029 c -0.52575,-0.52576 -0.61026,-0.89039 -0.49188,-2.1224 0.15732,-1.63718 0.56178,-2.20158 1.79415,-2.50366 0.65946,-0.16164 0.99285,-0.025 1.725,0.70718 0.96864,0.96862 1.15626,2.02621 0.55857,3.14843 -0.79878,1.49975 -2.49261,1.86368 -3.58584,0.77045 z m 42.52812,8.80523 c 0.18882,-0.12122 1.83765,-3.4604 3.66405,-7.4204 2.79039,-6.05015 3.25596,-7.26482 2.91513,-7.60584 -0.83433,-0.83488 -1.67646,-0.0952 -2.8857,2.53461 -0.63762,1.38667 -1.30923,2.52123 -1.4925,2.52123 -0.18324,0 -0.87093,-1.1475 -1.52817,-2.55 -0.65721,-1.4025 -1.22223,-2.56285 -1.25553,-2.57855 -0.50031,-0.23582 -5.06424,-0.19603 -5.65836,0.0493 -0.55659,0.22986 -0.9735,0.23542 -1.37904,0.0184 -1.06305,-0.56892 -1.27317,0.12164 -1.27317,4.18411 0,4.00253 0.20754,4.6533 1.4106,4.42303 0.46728,-0.0894 0.55083,-0.48884 0.62481,-2.98771 0.0957,-3.23292 0.49929,-3.97166 2.14407,-3.92489 0.48471,0.0138 1.04163,-0.16817 1.23765,-0.40432 0.19599,-0.23616 0.47961,-0.42938 0.6303,-0.42938 0.15069,0 1.09026,1.66596 2.08794,3.70213 l 1.81395,3.70214 -1.37466,2.94169 c -1.56762,3.35459 -1.68882,4.05618 -0.69966,4.04945 0.37125,-0.002 0.8295,-0.10378 1.01829,-0.225 z m -101.90033,-6.91767 c 0.876,-0.6514 1.15641,-1.77587 0.50515,-2.02578 -0.24418,-0.0937 -0.85444,0.0419 -1.35614,0.30134 -1.3231,0.6842 -2.07505,0.58479 -3.06506,-0.40522 -0.98723,-0.98723 -1.08931,-1.74215 -0.41255,-3.05086 0.66591,-1.28773 1.77739,-1.63469 3.19249,-0.99657 0.91924,0.41452 1.21436,0.43872 1.58625,0.13008 0.25129,-0.20856 0.45689,-0.56714 0.45689,-0.79687 0,-0.65686 -1.83383,-1.6065 -3.10466,-1.60773 -4.09415,-0.004 -6.15662,4.57201 -3.45006,7.65461 1.48094,1.6867 3.97743,2.039 5.64769,0.797 z m 9,0.002 c 3.7391,-2.76797 2.16183,-8.45025 -2.34668,-8.45413 -2.50894,-0.002 -4.36168,1.90982 -4.36168,4.50114 0,1.87993 0.85261,3.27943 2.52225,4.14012 1.531,0.78922 2.95308,0.72565 4.18611,-0.18713 z m -3.67948,-1.85891 c -1.51766,-1.19379 -1.26252,-3.60736 0.46907,-4.43729 2.39293,-1.1469 4.41841,2.36725 2.48108,4.30459 -0.89389,0.89389 -1.92358,0.94021 -2.95015,0.1327 z m 23.27419,2.05674 c 0.33314,-0.17829 0.51211,-0.55091 0.45552,-0.94838 -0.0781,-0.54817 -0.28825,-0.65458 -1.2932,-0.65458 l -1.2,0 -0.0871,-2.475 c -0.0863,-2.45253 -0.0804,-2.475 0.65046,-2.475 1.18068,0 1.68667,-0.315 1.68667,-1.05 0,-0.73275 -0.50596,-1.05 -1.67454,-1.05 -0.61753,0 -0.72614,-0.14506 -0.73005,-0.975 -0.006,-1.30457 -0.36705,-1.79829 -1.2253,-1.67625 -0.5656,0.0804 -0.74994,0.33577 -0.89635,1.24168 -0.10888,0.67366 -0.44821,1.32526 -0.82904,1.59201 -0.84071,0.58886 -0.81394,1.06222 0.10528,1.86147 0.69244,0.60206 0.75035,0.85375 0.75459,3.2791 0.002,1.44484 0.10378,2.77352 0.225,2.95262 0.67586,0.99855 2.56861,1.17459 4.05809,0.37744 z m 8.53732,-0.12504 c 1.29141,-0.84516 0.50314,-2.18991 -0.95804,-1.63437 -1.26539,0.4811 -2.31857,0.36255 -3.07263,-0.34585 -1.28982,-1.21173 -0.94824,-1.4477 2.09567,-1.4477 3.62913,0 4.15195,-0.50651 3.00901,-2.91508 -1.32492,-2.79208 -5.68151,-2.96807 -7.31115,-0.29536 -1.10125,1.80611 -0.68206,4.9177 0.84919,6.30347 1.26248,1.14253 3.90308,1.30666 5.38795,0.33489 z m -4.425,-5.51737 c 0,-1.19407 2.21853,-1.63981 3.13289,-0.62946 0.77616,0.85765 0.33141,1.21891 -1.5006,1.21891 -1.42255,0 -1.63229,-0.0757 -1.63229,-0.58945 z m 40.20456,5.61445 c 1.68846,-0.85583 2.51586,-2.23908 2.48691,-4.15763 -0.0689,-4.56564 -5.82552,-6.17824 -8.19309,-2.29512 -1.46862,2.40873 -0.10089,6.01251 2.58741,6.81742 1.33857,0.40078 1.68957,0.35974 3.11877,-0.36467 z m -3.46821,-2.16137 c -1.93731,-1.93733 0.0882,-5.45149 2.48109,-4.30459 1.7316,0.82993 1.98672,3.24351 0.46908,4.4373 -1.02657,0.8075 -2.05626,0.76118 -2.95017,-0.13271 z m 18.35043,2.39033 c 0.77724,-0.32476 1.22493,-0.36177 1.64655,-0.13612 0.31848,0.17044 0.71127,0.22819 0.87288,0.12832 0.16527,-0.10215 0.29379,-1.75441 0.29379,-3.77751 0,-3.4179 -0.0365,-3.63238 -0.73635,-4.33229 -0.59793,-0.59792 -1.03506,-0.73559 -2.325,-0.73227 -1.99923,0.005 -2.84922,0.23017 -3.07308,0.81349 -0.33693,0.87802 0.37983,1.26061 2.00181,1.06852 1.26507,-0.14983 1.59024,-0.0867 1.92723,0.37416 0.62925,0.86056 0.52065,0.95588 -1.25706,1.1033 -2.35632,0.19541 -3.26094,0.93761 -3.38028,2.7734 -0.0983,1.51169 0.38481,2.38504 1.59273,2.87943 0.87609,0.35858 1.24938,0.3337 2.43678,-0.16243 z m -2.04081,-2.10275 c -0.28191,-0.6187 -0.24666,-0.85322 0.20292,-1.35 0.90114,-0.99575 2.85111,-0.64778 2.85111,0.50879 0,0.65234 -1.15374,1.59 -1.95642,1.59 -0.51543,0 -0.86514,-0.23859 -1.09761,-0.74879 z m -70.80997,-0.83731 0.086,-2.9361 0.964,-0.59545 c 0.96354,-0.59518 2.12203,-0.57318 2.764,0.0525 0.165,0.16081 0.3675,1.67001 0.45,3.35377 l 0.15,3.0614 0.9,0 0.9,0 0,-3.5503 0,-3.5503 -0.97973,-0.8747 c -0.77022,-0.68765 -1.2644,-0.8747 -2.31089,-0.8747 -0.73213,0 -1.675,0.15666 -2.09527,0.34815 -0.55706,0.25381 -0.95737,0.2601 -1.47731,0.0232 -1.21111,-0.55181 -1.3868,-0.008 -1.3868,4.28865 0,2.16701 0.0962,4.0362 0.21377,4.15378 0.11758,0.11757 0.55633,0.17382 0.975,0.125 0.75031,-0.0875 0.76246,-0.13089 0.84723,-3.02487 z m 27.28955,0.5361 c 0.0416,-1.32 0.14477,-2.7013 0.22935,-3.06955 0.1834,-0.79844 1.74694,-1.68378 2.533,-1.43429 1.04563,0.33187 1.31916,1.06545 1.49154,4.00018 0.16751,2.85175 0.18397,2.90366 0.92056,2.90366 0.73827,0 0.75234,-0.0456 0.9,-2.91567 0.1611,-3.13132 0.39543,-3.63444 1.85991,-3.99333 0.63021,-0.15444 0.97962,-0.0287 1.575,0.56663 0.70773,0.70774 0.76509,0.96923 0.76509,3.48814 0,2.2443 0.0863,2.75617 0.49077,2.91138 1.01265,0.38859 1.45467,-0.31954 1.55331,-2.48847 0.20859,-4.5869 -0.75054,-6.41868 -3.36081,-6.41868 -0.74961,0 -1.84383,0.22933 -2.43162,0.50963 -1.00557,0.47952 -1.11972,0.47952 -1.93148,0 -0.99939,-0.59035 -2.65825,-0.66167 -3.75606,-0.16148 -0.55706,0.25381 -0.95737,0.2601 -1.47731,0.0232 -1.20324,-0.54822 -1.3868,-0.002 -1.3868,4.12866 0,3.98028 0.18882,4.60241 1.34649,4.43649 0.53968,-0.0774 0.6115,-0.34031 0.67906,-2.48649 z m 36.9752,-0.51506 c 0.16857,-3.25892 0.52977,-3.94529 2.0535,-3.90196 1.0158,0.0289 2.01108,-0.8694 1.74156,-1.57181 -0.20376,-0.53098 -2.73615,-0.66222 -3.04779,-0.15795 -0.10308,0.16678 -0.75231,0.26803 -1.44273,0.225 l -1.25529,-0.0782 -0.0842,3.85816 c -0.0896,4.1046 0.0985,4.79698 1.25796,4.63131 0.57363,-0.0819 0.63891,-0.33446 0.777,-3.00453 z m -63.71733,-21.5898 c 0.7305,-0.73049 0.20075,-1.40327 -1.18439,-1.504163 l -1.24903,-0.09098 -0.0893,-2.052003 c -0.10144,-2.330337 0.15399,-2.821632 1.53666,-2.955657 0.79154,-0.07672 0.95266,-0.21918 0.95266,-0.842339 0,-0.610767 -0.16708,-0.768852 -0.9,-0.851547 -1.24786,-0.140793 -1.65,-0.558762 -1.65,-1.714971 0,-0.737328 -0.15821,-1.043265 -0.6144,-1.188051 -0.86942,-0.275943 -1.4856,0.358959 -1.4856,1.530747 0,0.695676 -0.18372,1.101039 -0.6,1.323822 -0.33,0.17661 -0.6,0.58161 -0.6,0.9 0,0.31839 0.27,0.723389 0.6,0.899999 0.52802,0.282585 0.6,0.628146 0.6,2.880279 0,2.432745 0.28404,3.576804 1.01991,4.107994 0.51165,0.36933 3.17296,0.0474 3.66351,-0.44313 z m 8.59371,-0.188939 c 0.60797,-0.607974 0.61906,-0.688587 0.15811,-1.149537 -0.43691,-0.436905 -0.66047,-0.449583 -1.88456,-0.10686 -1.26978,0.355518 -1.45793,0.337272 -2.19476,-0.212853 -0.44326,-0.330939 -0.80592,-0.857139 -0.80592,-1.169331 0,-0.506472 0.30704,-0.583785 2.85,-0.717624 l 2.85,-0.15 0.0817,-1.05 c 0.10776,-1.384161 -0.85354,-2.91437 -2.17868,-3.468053 -1.36751,-0.57138 -2.14305,-0.536787 -3.6882,0.164511 -3.06118,1.389371 -3.2742,6.088691 -0.36487,8.049116 1.38341,0.93219 4.15702,0.83074 5.17713,-0.189369 z m -4.87713,-5.144517 c 0,-0.509613 1.29263,-1.511688 1.95,-1.511688 0.74217,0 2.04425,1.104792 1.78895,1.517883 -0.23,0.372138 -3.73895,0.366321 -3.73895,-0.0062 z m 30.75,5.607386 1.2,-0.0691 0.0853,-3.05992 c 0.0611,-2.19273 -0.041,-3.362304 -0.36048,-4.126908 -0.65955,-1.578488 -2.27748,-2.033972 -4.7682,-1.342334 -0.9309,0.258504 -1.126,0.439356 -1.05,0.973329 0.0835,0.586754 0.27334,0.655829 1.80217,0.655829 1.79516,0 2.54222,0.393405 2.24045,1.179834 -0.13125,0.341982 -0.59823,0.470166 -1.71292,0.470166 -1.29381,0 -1.66907,0.136581 -2.40942,0.876924 -1.22255,1.222548 -1.21126,2.734893 0.0297,3.975837 0.82901,0.829003 1.02801,0.890723 2.325,0.720993 0.78012,-0.10208 1.9584,-0.21669 2.6184,-0.25468 z m -3.225,-1.443104 c -0.63439,-0.369495 -0.68934,-1.566111 -0.0946,-2.059707 0.23672,-0.196461 0.87797,-0.314241 1.42501,-0.261732 0.82764,0.07944 1.01025,0.231075 1.08786,0.903315 0.0741,0.641514 -0.0927,0.904035 -0.81009,1.275 -1.05089,0.543429 -0.93813,0.533394 -1.60818,0.143124 z m 11.62461,1.469614 c 0.53364,-0.24314 0.75,-0.54925 0.68913,-0.974998 -0.0708,-0.495027 -0.33975,-0.63891 -1.32936,-0.711156 -1.11753,-0.08158 -1.25889,-0.182031 -1.425,-1.0125 -0.29751,-1.487529 -0.21288,-3.095124 0.19062,-3.620925 0.20625,-0.268773 0.78,-0.530823 1.275,-0.582339 0.73503,-0.0765 0.9,-0.231147 0.9,-0.843665 0,-0.612519 -0.16497,-0.767169 -0.9,-0.843666 -1.07145,-0.111507 -1.65,-0.771249 -1.65,-1.881576 0,-0.445812 -0.2025,-0.88827 -0.45,-0.983247 -0.78963,-0.303006 -1.35,0.134877 -1.35,1.054911 0,0.55569 -0.27759,1.139496 -0.75,1.577304 -0.4125,0.382293 -0.75,0.866616 -0.75,1.076274 0,0.209658 0.3375,0.69398 0.75,1.076273 0.68952,0.639015 0.75,0.906051 0.75,3.310779 0,2.01294 0.11442,2.742126 0.4965,3.164321 0.57663,0.63716 2.36625,0.73498 3.55311,0.19421 z m 12.97812,-0.24396 c 3.03027,-1.847581 2.8944,-6.420151 -0.2385,-8.026623 -1.59978,-0.820332 -2.52183,-0.848634 -3.89391,-0.119517 -1.57008,0.834345 -2.39553,2.235452 -2.39421,4.06388 0.003,2.674824 1.86441,4.67839 4.34889,4.67839 0.66939,0 1.63233,-0.2636 2.17773,-0.59613 z m -3.2613,-1.65409 c -0.94992,-0.513144 -1.5981,-1.949142 -1.3092,-2.900418 0.60501,-1.992108 2.5668,-2.650361 3.90642,-1.310751 1.95456,1.954563 -0.22692,5.491623 -2.59722,4.211169 z m 23.28357,1.87154 1.2,-0.0691 0,-3.667441 c 0,-3.327693 -0.0584,-3.725816 -0.63099,-4.29764 -0.79563,-0.794679 -2.60028,-1.047732 -4.26846,-0.598539 -1.07379,0.289146 -1.27236,0.456282 -1.19424,1.005213 0.0839,0.589901 0.27159,0.658403 1.8036,0.658403 1.79568,0 2.54133,0.392859 2.23935,1.179834 -0.13125,0.341982 -0.59823,0.470166 -1.71291,0.470166 -1.29381,0 -1.66908,0.136581 -2.40942,0.876924 -1.22256,1.222548 -1.21128,2.734893 0.0297,3.975837 0.82902,0.829003 1.02801,0.890723 2.325,0.720993 0.78012,-0.10208 1.9584,-0.21669 2.6184,-0.25468 z m -3.225,-1.443104 c -0.63438,-0.369495 -0.68934,-1.566111 -0.0946,-2.059707 0.2367,-0.196461 0.87795,-0.314241 1.425,-0.261732 0.82764,0.07944 1.01025,0.231075 1.08786,0.903315 0.0741,0.641514 -0.0927,0.904035 -0.81009,1.275 -1.0509,0.543429 -0.93813,0.533394 -1.60818,0.143124 z m -91.575,-6.125969 0,-7.5 -0.9,0 -0.9,0 -0.0802,7.594395 -0.0802,7.594398 0.98019,-0.0944 0.98019,-0.0944 0,-7.500003 z m 5.18444,4.649999 c 0.0751,-2.533206 0.15843,-2.907615 0.75,-3.368328 1.30607,-1.01715 3.01165,-0.477567 3.3642,1.064307 0.0822,0.359712 0.1837,1.666521 0.22545,2.904021 l 0.0759,2.250004 0.9,0 0.9,0 0.0939,-2.550004 c 0.0517,-1.4025 -0.0473,-3.030585 -0.21995,-3.617967 -0.65732,-2.236445 -2.94872,-3.22292 -5.25142,-2.260793 -0.86453,0.361224 -1.25795,0.398367 -1.56045,0.147318 -0.22246,-0.184626 -0.60869,-0.257316 -0.85829,-0.161535 -0.37539,0.144051 -0.45382,0.904899 -0.45382,4.402568 l 0,4.228423 0.975,-0.094 0.975,-0.094 0.0844,-2.850004 z m 27.29505,0 c 0.0879,-3.150735 0.49973,-3.9 2.14374,-3.9 0.93194,0 1.52677,-0.488673 1.52677,-1.254284 0,-0.793965 -1.32872,-1.004013 -2.76995,-0.43788 -0.90498,0.355488 -1.33426,0.39615 -1.62601,0.154023 -0.21802,-0.180942 -0.60062,-0.250617 -0.85022,-0.154836 -0.37377,0.14343 -0.45382,0.881385 -0.45382,4.183562 0,2.205177 0.0962,4.105619 0.21377,4.223189 0.11758,0.11757 0.55633,0.17382 0.975,0.125 0.74888,-0.0873 0.76252,-0.13501 0.84072,-2.938774 z m 6.97051,0.171774 c 0,-2.698056 0.0364,-2.856843 0.79046,-3.45 0.95268,-0.749379 2.11505,-0.800277 2.86092,-0.125277 0.44717,0.404688 0.54862,0.954876 0.54862,2.975463 0,3.068234 0.12932,3.428044 1.2321,3.428044 l 0.8679,0 -10e-4,-3.225004 c -0.002,-3.917646 -0.44293,-4.924427 -2.41955,-5.516636 -1.07197,-0.321171 -1.4603,-0.299403 -2.73493,0.153306 -1.15376,0.409779 -1.58063,0.448734 -1.91116,0.174417 -0.23408,-0.194265 -0.62982,-0.274845 -0.87942,-0.179064 -0.37377,0.14343 -0.45382,0.881385 -0.45382,4.183562 0,2.205177 0.09,4.099419 0.2,4.209419 0.11,0.11 0.5825,0.2 1.05,0.2 l 0.85,0 0,-2.82823 z m 26.85636,2.153226 c 0.0923,-0.37125 0.12858,-2.213103 0.0807,-4.093005 -0.0702,-2.754866 -0.18102,-3.477125 -0.57129,-3.722741 -0.26631,-0.167607 -0.70506,-0.219993 -0.975,-0.116412 -0.4221,0.161976 -0.49077,0.777345 -0.49077,4.397744 l 0,4.209418 0.89427,0 c 0.6777,0 0.93492,-0.16349 1.06209,-0.675004 z m 14.54364,-2.153226 c 0,-2.698056 0.0364,-2.856843 0.79047,-3.45 0.43473,-0.341976 1.16958,-0.621774 1.63299,-0.621774 1.32843,0 1.77579,0.939801 1.78113,3.741753 0.005,2.729971 0.21213,3.253321 1.22934,3.109491 0.6969,-0.0985 0.7182,-0.18551 0.79539,-3.251244 0.0964,-3.82995 -0.33948,-4.839269 -2.34999,-5.441636 -1.07196,-0.321171 -1.46031,-0.299403 -2.73492,0.153306 -1.15377,0.409779 -1.58064,0.448734 -1.91118,0.174417 -0.23406,-0.194265 -0.62982,-0.274845 -0.87942,-0.179064 -0.37377,0.14343 -0.45381,0.881385 -0.45381,4.183562 0,2.205177 0.09,4.099419 0.20001,4.209419 0.10998,0.11 0.58248,0.2 1.05,0.2 l 0.84999,0 0,-2.82823 z m 19.6179,2.35369 c 0.28101,-0.732283 0.20625,-14.022861 -0.0814,-14.47671 -0.13989,-0.220686 -0.57657,-0.355686 -0.97041,-0.3 l -0.71607,0.101247 -0.0802,7.575 -0.0801,7.575003 0.87303,0 c 0.51939,0 0.94683,-0.19225 1.05516,-0.47454 z m -34.3779,-12.185463 c 0.55044,-0.550452 0.42867,-1.682136 -0.21828,-2.028369 -0.78213,-0.41859 -1.48866,-0.09783 -1.70781,0.775356 -0.31659,1.261425 1.03707,2.142045 1.92609,1.253013 z"
       id="path4140"
       inkscape:connector-curvature="0" />
  </g>
</svg>
