<?xml version="1.0" encoding="UTF-8" standalone="no"?>
<!-- Created with Inkscape (http://www.inkscape.org/) -->

<svg
   xmlns:dc="http://purl.org/dc/elements/1.1/"
   xmlns:cc="http://creativecommons.org/ns#"
   xmlns:rdf="http://www.w3.org/1999/02/22-rdf-syntax-ns#"
   xmlns:svg="http://www.w3.org/2000/svg"
   xmlns="http://www.w3.org/2000/svg"
   xmlns:sodipodi="http://sodipodi.sourceforge.net/DTD/sodipodi-0.dtd"
   xmlns:inkscape="http://www.inkscape.org/namespaces/inkscape"
   width="210mm"
   height="240mm"
   viewBox="0 0 744.09449 850.3937"
   id="svg21103"
   version="1.1"
   inkscape:version="0.91 r13725"
   sodipodi:docname="01w.svg">
  <defs
     id="defs21105">
    <inkscape:path-effect
       is_visible="true"
       id="path-effect20299"
       effect="spiro" />
    <inkscape:path-effect
       is_visible="true"
       id="path-effect20295"
       effect="spiro" />
    <inkscape:path-effect
       is_visible="true"
       id="path-effect20291"
       effect="spiro" />
    <inkscape:path-effect
       is_visible="true"
       id="path-effect20287"
       effect="spiro" />
    <inkscape:path-effect
       is_visible="true"
       id="path-effect20283"
       effect="spiro" />
    <inkscape:path-effect
       is_visible="true"
       id="path-effect20279"
       effect="spiro" />
    <inkscape:path-effect
       is_visible="true"
       id="path-effect20275"
       effect="spiro" />
    <inkscape:path-effect
       effect="spiro"
       id="path-effect20271"
       is_visible="true" />
  </defs>
  <sodipodi:namedview
     id="base"
     pagecolor="#ffffff"
     bordercolor="#666666"
     borderopacity="1.0"
     inkscape:pageopacity="0.0"
     inkscape:pageshadow="2"
     inkscape:zoom="0.57868371"
     inkscape:cx="174.28571"
     inkscape:cy="725.71429"
     inkscape:document-units="px"
     inkscape:current-layer="layer1"
     showgrid="false"
     inkscape:snap-page="true"
     inkscape:object-nodes="true"
     inkscape:window-width="1855"
     inkscape:window-height="1056"
     inkscape:window-x="65"
     inkscape:window-y="24"
     inkscape:window-maximized="1" />
  <metadata
     id="metadata21108">
    <rdf:RDF>
      <cc:Work
         rdf:about="">
        <dc:format>image/svg+xml</dc:format>
        <dc:type
           rdf:resource="http://purl.org/dc/dcmitype/StillImage" />
        <dc:title></dc:title>
      </cc:Work>
    </rdf:RDF>
  </metadata>
  <g
     inkscape:label="Layer 1"
     inkscape:groupmode="layer"
     id="layer1"
     transform="translate(0,-201.9685)">
    <path
       style="display:inline;fill:none;fill-opacity:1;stroke:#666666;stroke-width:5;stroke-linecap:round;stroke-linejoin:round;stroke-miterlimit:4;stroke-dasharray:none;stroke-opacity:1;filter:url(#filter5452)"
       d="M 72.8406,584.70736 708.53506,379.60306"
       id="path20269" />
    <path
       style="display:inline;fill:none;stroke:#666666;stroke-width:5;stroke-linecap:round;stroke-linejoin:round;stroke-miterlimit:4;stroke-dasharray:none;filter:url(#filter5452)"
       d="m 360.45476,309.05716 c -0.55124,2.0925 -0.95711,4.22328 -1.21371,6.3719 -0.59069,4.94602 -0.38493,9.98629 0.60694,14.8677 m 74.64792,-23.3636 0,2.124 m -138.37192,-2.5703 c 1.47744,-3.06559 4.01662,-5.60694 7.08096,-7.08698 3.06434,-1.48004 6.63347,-1.88895 9.95314,-1.1403 3.31967,0.74864 6.36783,2.64986 8.50031,5.30188 2.13249,2.65202 3.33513,6.03721 3.35379,9.4402 0.0229,4.18027 -1.7144,8.25905 -4.3714,11.48636 -2.657,3.22731 -6.18632,5.65312 -9.9512,7.46994 -4.78775,2.31042 -10.15865,3.70033 -15.43235,3.03051 -2.63685,-0.3349 -5.21977,-1.18832 -7.47361,-2.59733 -2.25385,-1.40901 -4.1703,-3.38204 -5.4058,-5.73548 -1.15848,-2.20673 -1.70447,-4.73104 -1.56147,-7.21927 0.14299,-2.48822 0.97457,-4.93337 2.37823,-6.99285 1.40365,-2.05949 3.37543,-3.72752 5.63908,-4.7704 2.26365,-1.04288 4.81281,-1.45768 7.29032,-1.18628 m -67.36514,-0.1605 c -1.14339,5.99649 -1.14339,12.20891 0,18.2054 0.46181,2.42195 1.12954,4.85694 2.49423,6.9104 1.93592,2.913 5.26606,4.85256 8.75499,5.09913 3.48892,0.24657 7.05875,-1.20535 9.38512,-3.81713 m -52.79989,-6.0685 c -4.66925,2.73476 -9.83723,4.61496 -15.17219,5.5199 -4.41575,0.74902 -8.97986,0.82806 -13.3517,-0.145 -4.55258,-1.01329 -8.94004,-3.24932 -11.91035,-6.84515 -1.48515,-1.79792 -2.5956,-3.91715 -3.13714,-6.18539 -0.54154,-2.26824 -0.50424,-4.68439 0.19665,-6.90856 0.98715,-3.13257 3.26934,-5.78153 6.07812,-7.48394 2.80878,-1.70241 6.11334,-2.49595 9.39706,-2.56425 6.56743,-0.1366 12.84697,2.50321 18.79628,5.28809 3.26493,1.52832 6.50236,3.11536 9.71022,4.7601 M 89.78,306.48686 c 1.47093,-3.20407 4.072601,-5.87523 7.2368,-7.43007 3.1642,-1.55485 6.86839,-1.98232 10.30356,-1.18905 3.43518,0.79327 6.57687,2.80163 8.73893,5.58645 2.16206,2.78482 3.32908,6.32627 3.24618,9.85087 -0.097,4.12641 -1.8745,8.11048 -4.5225,11.27667 -2.648,3.16619 -6.12507,5.56119 -9.83061,7.37933 -4.92095,2.41448 -10.460677,3.8767 -15.895732,3.16559 -2.717528,-0.35556 -5.376447,-1.25864 -7.678882,-2.74531 -2.302435,-1.48666 -4.238744,-3.56618 -5.441036,-6.02908 -1.076683,-2.20559 -1.552558,-4.70088 -1.363173,-7.14792 0.189386,-2.44704 1.043535,-4.8394 2.446761,-6.85306 1.403226,-2.01365 3.351848,-3.64333 5.58194,-4.66829 2.230092,-1.02496 4.735806,-1.44252 7.177762,-1.19613 m 416.28176,26.8145 c -3.01589,0.62096 -6.2115,0.34044 -9.07308,-0.79645 -2.86157,-1.1369 -5.3784,-3.12593 -7.14585,-5.64729 -1.76744,-2.52137 -2.77889,-5.56565 -2.87172,-8.6434 -0.0928,-3.07775 0.73329,-6.17745 2.34556,-8.80076 1.76557,-2.87275 4.44808,-5.14472 7.50638,-6.56486 3.05829,-1.42014 6.47875,-2.00327 9.84693,-1.84407 6.73635,0.31841 13.07996,3.55125 18.22897,7.90643 1.4617,1.23635 2.86983,2.59889 3.75664,4.29557 0.4434,0.84834 0.74951,1.77455 0.83868,2.72762 0.0892,0.95306 -0.0436,1.9335 -0.43822,2.80561 -0.47391,1.04738 -1.31518,1.90997 -2.31007,2.48599 -0.99489,0.57602 -2.13735,0.874 -3.28473,0.94548 -2.29477,0.14296 -4.55065,-0.59439 -6.67934,-1.46333 -2.1287,-0.86895 -4.22059,-1.88602 -6.47239,-2.35055 -1.12591,-0.23227 -2.28812,-0.32255 -3.42856,-0.1777 -1.14045,0.14484 -2.25984,0.53103 -3.19909,1.19391 -1.15698,0.81654 -2.008,2.03864 -2.44108,3.38689 -0.43307,1.34826 -0.45656,2.81529 -0.1373,4.19493 0.63851,2.75929 2.60412,5.07684 4.95964,6.64938 3.29888,2.20233 7.45098,3.08862 11.36157,2.42519 3.91059,-0.66342 7.53807,-2.8695 9.92604,-6.03659 m -92.85483,2.124 c 0.89155,-5.31095 0.89155,-10.77045 0,-16.0814 -0.18016,-1.07321 -0.39718,-2.14946 -0.37792,-3.23752 0.0193,-1.08805 0.29838,-2.20981 1.00293,-3.03918 0.38249,-0.45025 0.87754,-0.79848 1.41561,-1.0424 0.53807,-0.24393 1.1188,-0.38584 1.70527,-0.45708 1.17295,-0.14248 2.35912,-0.006 3.53691,0.0883 6.54208,0.52386 13.18709,-0.2717 19.42061,-2.3251 m -232.44047,0.3034 21.84805,-0.3034 m -21.84805,-8.4959 c 0.72222,1.31373 0.97814,2.87782 0.71227,4.35323 -0.26586,1.4754 -1.05165,2.85177 -2.18702,3.83077 -1.12334,0.96862 -2.58098,1.54191 -4.0632,1.59804 -1.48222,0.0561 -2.97905,-0.40526 -4.17243,-1.28614 m 140.19258,-10.3164 c -1.64842,1.87865 -2.48462,4.44677 -2.25834,6.93582 0.22628,2.48906 1.51188,4.86429 3.47205,6.41488 2.13917,1.69218 4.95513,2.36163 7.68209,2.30496 2.72696,-0.0567 5.39479,-0.78615 7.98298,-1.64683 2.5882,-0.86068 5.13749,-1.85961 7.79226,-2.48547 2.65478,-0.62586 5.45702,-0.86728 8.10127,-0.19836 2.38187,0.60255 4.56756,1.94617 6.19655,3.78539 1.62898,1.83923 2.6971,4.16487 3.0519,6.59601 0.3548,2.43115 -0.002,4.95899 -0.99681,7.20555 -0.99462,2.24657 -2.62146,4.20611 -4.63451,5.61465 -3.31852,2.32198 -7.5125,3.07424 -11.56255,3.03829 -4.05005,-0.036 -8.05435,-0.79482 -12.08213,-1.22049 -4.23075,-0.44712 -8.50031,-0.52652 -12.74476,-0.237"
       id="path20273" />
    <path
       style="display:inline;fill:none;stroke:#666666;stroke-width:5;stroke-linecap:round;stroke-linejoin:round;stroke-miterlimit:4;stroke-dasharray:none;filter:url(#filter5452)"
       d="m 223.86427,276.37766 -0.60677,8.1924 m 204.52316,-31.8594 0,0.6068 m 186.31654,-1.2137 0,2.124 m -73.43421,0 c 9.67506,-3.78745 21.19505,-2.44689 29.74188,3.461 1.59556,1.10291 3.10053,2.36246 4.30651,3.88162 1.20598,1.51916 2.10578,3.31244 2.3978,5.22998 0.27795,1.82513 -0.006,3.71944 -0.72073,5.42151 -0.71505,1.70208 -1.85208,3.21374 -3.22759,4.44513 -2.75101,2.46277 -6.37494,3.76622 -10.01885,4.36226 -7.75671,1.26877 -15.97458,-0.54268 -22.47902,-4.955 m -241.54385,-24.2739 c -0.52581,6.05327 -0.52581,12.15213 0,18.2054 0.20138,2.31836 0.49251,4.67667 1.47732,6.7851 0.82329,1.76263 2.12348,3.29972 3.72517,4.40393 1.60168,1.1042 3.50071,1.77266 5.4409,1.91518 1.9402,0.14253 3.91652,-0.24123 5.66238,-1.09953 1.74585,-0.85829 3.2567,-2.18888 4.32873,-3.81228 m -94.67549,-23.9704 c 6.25687,-0.91558 12.5293,-1.72477 18.81368,-2.4271 3.37104,-0.37674 6.78282,-0.72247 10.146,-0.28104 3.36318,0.44143 6.72004,1.74648 9.03555,4.22524 1.48122,1.58565 2.48208,3.60565 2.89388,5.73608 0.41179,2.13043 0.23899,4.36476 -0.44953,6.42249 -1.37705,4.11546 -4.81962,7.40258 -8.88113,8.93143 -3.91198,1.47256 -8.22764,1.39704 -12.38812,0.99406 -4.16048,-0.40298 -8.32324,-1.11427 -12.49447,-0.84446 -1.33523,0.0864 -2.67494,0.27315 -4.00596,0.13641 -0.6655,-0.0684 -1.32649,-0.21902 -1.93628,-0.49421 -0.60979,-0.27519 -1.16782,-0.67841 -1.58149,-1.2042 -0.70847,-0.9005 -0.94661,-2.09645 -0.91238,-3.24172 0.0342,-1.14528 0.31595,-2.2663 0.54637,-3.38868 1.04443,-5.08751 1.04443,-10.38709 0,-15.4746 m 440.60505,11.2267 c 2.72526,-4.4141 6.23574,-8.34184 10.31734,-11.5437 2.88939,-2.26661 6.0802,-4.17889 9.53372,-5.42763 3.45351,-1.24873 7.17812,-1.82095 10.82879,-1.42255 3.65066,0.39839 7.22096,1.7939 10.02552,4.16467 2.80456,2.37077 4.80235,5.73725 5.30944,9.37441 0.10568,0.75799 0.14785,1.53052 0.0381,2.28793 -0.10971,0.75741 -0.37739,1.50186 -0.84531,2.10747 -0.50962,0.65958 -1.24028,1.13047 -2.029,1.40006 -0.78873,0.26959 -1.63435,0.34576 -2.46685,0.30447 -1.665,-0.0826 -3.26893,-0.62148 -4.90493,-0.94173 -3.89044,-0.76157 -7.90237,-0.27937 -11.8429,0.15387 -3.94053,0.43325 -7.98045,0.80914 -11.82598,-0.15387 -2.07491,-0.51961 -4.06535,-1.42378 -6.19348,-1.63897 -1.06407,-0.1076 -2.16024,-0.0354 -3.16242,0.33799 -1.00219,0.37341 -1.90511,1.06578 -2.41779,2.00438 -0.47009,0.86064 -0.59077,1.89123 -0.41194,2.85545 0.17882,0.96422 0.64511,1.86262 1.26792,2.62012 1.24562,1.51499 3.05512,2.44287 4.85477,3.22263 11.59859,5.02549 25.11052,5.47019 37.01444,1.2182 m -93.46161,2.124 c 0.95974,-5.4053 0.95974,-10.9796 0,-16.3849 -0.18812,-1.0595 -0.41364,-2.12225 -0.39638,-3.19818 0.0173,-1.07593 0.3033,-2.18794 1.0202,-2.99042 0.39108,-0.43776 0.89607,-0.76658 1.44069,-0.9856 0.54462,-0.21903 1.12853,-0.33084 1.71422,-0.37005 1.1714,-0.0784 2.34022,0.12878 3.5039,0.28425 6.73889,0.90035 13.70432,0.0484 20.02756,-2.4496 m -175.39226,3.3378 c 4.28933,-0.70211 8.54435,-1.61385 12.74477,-2.7309 3.79172,-1.00836 7.58569,-2.19173 11.50589,-2.3528 1.9601,-0.0805 3.94265,0.10051 5.81758,0.67769 1.87493,0.57717 3.64119,1.56103 5.01939,2.95711 1.99176,2.01761 3.06873,4.76615 3.7536,7.5173 1.3572,5.45195 1.3572,11.23635 0,16.6883 m -77.0757,-0.3034 c 0.88966,-5.51526 0.88966,-11.17304 0,-16.6883 -0.17295,-1.07214 -0.37993,-2.14753 -0.3579,-3.23331 0.022,-1.08577 0.29455,-2.20248 0.98189,-3.04329 0.44028,-0.53859 1.03349,-0.94132 1.67622,-1.20745 0.64273,-0.26613 1.33463,-0.39988 2.02825,-0.45293 1.38724,-0.1061 2.7774,0.10457 4.16822,0.14088 5.28268,0.1379 10.2879,-2.21842 15.50322,-3.0706 2.60765,-0.42608 5.33189,-0.46536 7.84186,0.36017 1.25498,0.41276 2.44466,1.04126 3.45421,1.89341 1.00955,0.85216 1.83563,1.93121 2.33889,3.15272 0.89725,2.17776 0.72689,4.62558 0.59961,6.9775 -0.27887,5.15317 -0.27887,10.32143 0,15.4746 m -94.11625,3.0008 c -2.86959,0.0481 -5.74848,-0.6903 -8.24062,-2.11369 -2.49215,-1.4234 -4.5908,-3.52791 -6.00724,-6.02401 -1.41644,-2.49611 -2.14684,-5.37704 -2.09071,-8.24649 0.0561,-2.86944 0.89864,-5.71961 2.41161,-8.15841 1.64029,-2.64403 4.05312,-4.78559 6.82596,-6.19727 2.77283,-1.41168 5.89562,-2.10105 9.00711,-2.09679 6.223,0.009 12.2498,2.78798 16.89154,6.93286 1.3669,1.22059 2.65079,2.59054 3.4231,4.25241 0.38616,0.83093 0.6385,1.72912 0.68905,2.644 0.0506,0.91488 -0.10477,1.84666 -0.49691,2.67479 -0.49198,1.03897 -1.34669,1.88752 -2.34987,2.44888 -1.00318,0.56136 -2.14903,0.84414 -3.29711,0.90246 -2.29617,0.11665 -4.54412,-0.63847 -6.66958,-1.51505 -2.12547,-0.87658 -4.21926,-1.89221 -6.47382,-2.34269 -1.12729,-0.22524 -2.29076,-0.30514 -3.42936,-0.14675 -1.1386,0.15838 -2.25289,0.56146 -3.17999,1.24115 -0.88086,0.64579 -1.57741,1.53174 -2.03527,2.52336 -0.45786,0.99162 -0.67989,2.08637 -0.6867,3.17857 -0.0136,2.1844 0.82767,4.31452 2.07653,6.10677 1.38377,1.98586 3.27844,3.61255 5.45083,4.67989 2.17239,1.06733 4.61783,1.57301 7.03537,1.4548 2.41754,-0.11821 4.80198,-0.86006 6.85987,-2.13424 2.0579,-1.27418 3.78482,-3.07796 4.96825,-5.18935 m -93.46178,-23.667 21.84821,-0.3035 m -175.99926,13.0473 c 1.79759,-3.87449 4.27501,-7.43244 7.28518,-10.4626 2.89605,-2.91529 6.30206,-5.35123 10.08714,-6.95098 3.78508,-1.59974 7.95497,-2.34699 12.04467,-1.94652 4.0897,0.40047 8.08799,1.97402 11.22098,4.63304 3.13299,2.65901 5.35984,6.41744 5.9831,10.47916 0.0908,0.59165 0.14846,1.19146 0.10972,1.78878 -0.0387,0.59731 -0.17673,1.19418 -0.45938,1.72182 -0.42294,0.78953 -1.15669,1.38873 -1.98144,1.73806 -0.82474,0.34933 -1.7363,0.46114 -2.63118,0.42332 -1.78975,-0.0757 -3.49764,-0.72682 -5.24516,-1.12068 -4.06682,-0.91659 -8.30198,-0.43217 -12.44372,0.0424 -4.14174,0.47454 -8.38493,0.9296 -12.43887,-0.0424 -1.89467,-0.45427 -3.72541,-1.21646 -5.66396,-1.41186 -0.96927,-0.0977 -1.96364,-0.0487 -2.89119,0.24913 -0.92755,0.29781 -1.78615,0.85649 -2.35208,1.64943 -0.66238,0.92808 -0.88488,2.13386 -0.70325,3.25951 0.18164,1.12565 0.74634,2.1701 1.50892,3.01777 1.52516,1.69535 3.74125,2.57686 5.90971,3.28262 11.89442,3.87126 24.95527,4.07379 36.96401,0.5732 m -115.30982,-2.7308 c 1.710196,1.22951 3.553891,2.2732 5.48821,3.1068 7.171172,3.09042 15.304643,3.18388 23.03586,2.0863 2.54693,-0.36158 5.12483,-0.86317 7.38346,-2.09451 1.12932,-0.61567 2.1678,-1.41284 2.99302,-2.39945 0.82523,-0.98661 1.43246,-2.16703 1.67632,-3.42994 0.25258,-1.30809 0.1089,-2.68285 -0.35871,-3.93034 -0.46761,-1.2475 -1.25312,-2.36774 -2.23041,-3.27317 -1.95459,-1.81087 -4.6223,-2.72479 -7.28014,-2.91323 -2.65784,-0.18843 -5.321468,0.30035 -7.890957,1.00559 -2.569488,0.70524 -5.07538,1.62748 -7.644283,2.33485 -2.495616,0.68719 -5.163452,1.16679 -7.65239,0.45579 -1.244469,-0.35549 -2.416765,-1.01599 -3.28113,-1.97929 -0.864366,-0.9633 -1.402498,-2.23976 -1.37436,-3.5337 0.0245,-1.12644 0.474058,-2.22432 1.176754,-3.10505 0.702696,-0.88073 1.64833,-1.55108 2.676908,-2.01098 2.057154,-0.91978 4.380234,-1.00437 6.633558,-0.98397 9.069939,0.0821 18.12494,1.63616 26.70324,4.5829 m 185.10272,-13.6541 c 0.9347,1.23599 1.40298,2.81628 1.29256,4.36197 -0.11043,1.54569 -0.79859,3.04336 -1.8995,4.13393 -1.19569,1.18446 -2.8686,1.87278 -4.55164,1.87278 -1.68304,0 -3.35595,-0.68832 -4.55164,-1.87278 m 250.6473,-9.7095 0,35.8039"
       id="path20277" />
    <path
       style="display:inline;fill:none;stroke:#666666;stroke-width:5;stroke-linecap:round;stroke-linejoin:round;stroke-miterlimit:4;stroke-dasharray:none;filter:url(#filter5452)"
       d="m 284.69121,418.38416 0,10.0967 m -11.54016,-45.7746 c 9.79929,-6.48871 22.42054,-8.53863 33.76971,-5.48482 11.34917,3.05382 21.23748,11.16057 26.45739,21.69062 3.2676,6.59168 4.74107,14.03949 4.39602,21.38854 -0.34505,7.34904 -2.49231,14.58817 -6.06446,21.0199 -7.1443,12.86347 -19.91478,22.19881 -34.03582,26.33476 -9.19214,2.69231 -19.02685,3.29769 -28.42315,1.43927 -9.39629,-1.85841 -18.32952,-6.21033 -25.37472,-12.69949 -7.0452,-6.48916 -12.14887,-15.12502 -14.13144,-24.4959 -1.98257,-9.37088 -0.78071,-19.43554 3.62845,-27.93868 3.6781,-7.09329 9.54443,-13.03259 16.59172,-16.7981 7.04728,-3.76551 15.24526,-5.34105 23.1863,-4.4561 M 69.5644,382.32476 c 25.861117,2.98541 52.09325,2.7425 77.89465,-0.7213 3.90317,-0.52399 7.85756,-1.1221 11.76138,-0.60306 1.95192,0.25951 3.87836,0.80331 5.61353,1.73418 1.73516,0.93087 3.27511,2.25947 4.33201,3.92088 1.15852,1.82115 1.70682,4.00802 1.6365,6.16529 -0.0703,2.15727 -0.74757,4.28001 -1.86064,6.12929 -2.22614,3.69855 -6.11408,6.20036 -10.26241,7.39466 -4.14834,1.1943 -8.55646,1.18557 -12.84785,0.71757 -4.29139,-0.468 -8.5213,-1.38302 -12.79718,-1.97621 -3.20988,-0.44531 -6.59881,-0.68678 -9.58252,0.57775 -1.49186,0.63227 -2.84356,1.64837 -3.73336,3.00249 -0.8898,1.35413 -1.28713,3.05752 -0.93346,4.63876 0.35529,1.58844 1.44016,2.95768 2.79635,3.85776 1.35618,0.90008 2.96612,1.36217 4.58299,1.54955 3.23374,0.37475 6.50459,-0.30163 9.75468,-0.11611 4.05774,0.23162 8.00527,1.84057 11.15234,4.41251 3.14708,2.57194 5.49368,6.08283 6.79136,9.93444 1.29769,3.85162 1.55763,8.0309 0.87731,12.03791 -0.68032,4.00701 -2.28901,7.8393 -4.56319,11.20784 -4.54836,6.73707 -11.66639,11.49373 -19.36135,14.11351 -7.69497,2.61978 -15.95766,3.22157 -24.07592,2.80979 -12.302957,-0.62403 -24.485527,-3.54644 -35.7327,-8.5717"
       id="path20281" />
    <path
       style="display:inline;fill:none;stroke:#666666;stroke-width:5;stroke-linecap:round;stroke-linejoin:round;stroke-miterlimit:4;stroke-dasharray:none;filter:url(#filter5452)"
       d="m 639.86199,526.41906 33.17724,0 m -25.9677,-46.5339 c 0.38559,-4.79239 1.99454,-9.48136 4.63261,-13.50084 2.63807,-4.01948 6.2998,-7.36117 10.54314,-9.62164 4.24334,-2.26047 9.05951,-3.43505 13.86709,-3.38194 4.80759,0.0531 9.59663,1.33381 13.789,3.68748 4.19236,2.35366 7.77937,5.77543 10.328,9.85221 2.54862,4.07679 4.05358,8.80016 4.33321,13.5999 0.27962,4.79973 -0.66669,9.66591 -2.72467,14.01106 -2.05798,4.34516 -5.22339,8.16031 -9.11408,10.98487 -3.99315,2.89895 -8.70162,4.75308 -12.49042,7.91442 -1.89441,1.58068 -3.55084,3.50422 -4.52501,5.771 -0.97417,2.26678 -1.21895,4.90119 -0.36321,7.21528 0.82125,2.22082 2.58923,3.99947 4.62227,5.21325 2.03304,1.21377 4.32907,1.91317 6.6285,2.47806 2.29944,0.5649 4.63399,1.00838 6.87815,1.76355 2.24415,0.75516 4.42294,1.84776 6.09062,3.52864 1.57114,1.58358 2.63062,3.64973 3.09057,5.83254 0.45996,2.18281 0.32984,4.47575 -0.2845,6.62023 -1.22868,4.28897 -4.34536,7.87203 -8.07789,10.31602 -3.73253,2.44399 -8.05703,3.84159 -12.41479,4.79804 -4.35776,0.95646 -8.79659,1.49812 -13.16845,2.38787 -7.68477,1.56399 -15.11136,4.19218 -22.73162,6.04512 -7.62025,1.85294 -15.6172,2.92181 -23.29227,1.31091 -3.83754,-0.80545 -7.55477,-2.2874 -10.76698,-4.53621 -3.21221,-2.2488 -5.90695,-5.28022 -7.56054,-8.83565 -1.65358,-3.55543 -2.23315,-7.63835 -1.41517,-11.47323 0.81798,-3.83488 3.07129,-7.38514 6.31996,-9.58094 2.42767,-1.64088 5.30243,-2.49323 8.17738,-3.05956 2.87495,-0.56632 5.80022,-0.87083 8.65301,-1.5399 2.8528,-0.66908 5.67907,-1.73594 7.91644,-3.62809 1.11869,-0.94607 2.07663,-2.09314 2.73961,-3.39966 0.66298,-1.30651 1.025,-2.77488 0.9685,-4.23889 -0.0898,-2.3268 -1.2411,-4.53802 -2.89413,-6.17801 -1.65303,-1.63998 -3.77661,-2.74565 -5.98879,-3.47253 -4.42435,-1.45376 -9.19731,-1.4576 -13.7096,-2.60976 -4.66462,-1.19106 -9.00495,-3.62814 -12.45024,-6.99077 -3.44529,-3.36263 -5.98703,-7.64251 -7.291,-12.27683 -1.30396,-4.63432 -1.36692,-9.61166 -0.18061,-14.27749 1.18632,-4.66582 3.61899,-9.00863 6.97811,-12.45734 3.35913,-3.4487 7.63642,-5.9948 12.26942,-7.30347 4.63299,-1.30867 9.61026,-1.3767 14.27729,-0.19513 4.66703,1.18158 9.01231,3.60983 12.46443,6.96545 3.45211,3.35561 6.00256,7.63032 7.31594,12.26198"
       id="path20285" />
    <path
       style="display:inline;fill:none;stroke:#666666;stroke-width:5;stroke-linecap:round;stroke-linejoin:round;stroke-miterlimit:4;stroke-dasharray:none;filter:url(#filter5452)"
       d="m 630.35244,643.08676 -2.34392,11.4257 m -306.46501,-19.3358 -0.58602,11.4257 m 103.13178,-1.7578 c -7.49379,0.17683 -14.96902,1.13084 -22.26702,2.8418 -2.25534,0.52875 -4.53626,1.134 -6.84959,1.01291 -1.15666,-0.0605 -2.3126,-0.30763 -3.35381,-0.81499 -1.04121,-0.50737 -1.96423,-1.28378 -2.56272,-2.27542 -0.87038,-1.44213 -0.99747,-3.25014 -0.60969,-4.88932 0.38778,-1.63918 1.25073,-3.13017 2.25094,-4.48548 3.8009,-5.15029 9.81524,-8.60712 16.17871,-9.29894 6.36347,-0.69183 12.98016,1.39178 17.79904,5.60494 m -88.48222,-0.5861 21.68116,15.5272 m 173.44857,-23.7301 0,0.8788 m -316.4267,-1.7576 c 0.2764,6.93087 0.47175,13.86497 0.58602,20.8004 0.0259,1.5704 0.0471,3.14888 -0.18052,4.70292 -0.22762,1.55403 -0.71689,3.09561 -1.6302,4.37338 -1.07791,1.50806 -2.73725,2.58911 -4.55227,2.96577 -1.81501,0.37665 -3.76749,0.0451 -5.35647,-0.90947 m -19.92326,-31.933 0,23.7301 m 398.46319,-24.3162 c -1.98043,2.41205 -3.09344,5.52159 -3.09344,8.6425 0,3.12091 1.11301,6.23045 3.09344,8.6425 2.21585,2.69877 5.44897,4.47297 8.86222,5.2099 4.53762,0.97968 9.44019,0.14954 13.40233,-2.2694 m -148.24914,-7.921 c 0.96489,-3.57083 2.79215,-6.90543 5.28259,-9.6403 4.61842,-5.07171 11.54847,-7.93886 18.40196,-7.65284 6.85349,0.28601 13.50628,3.70768 17.75683,9.09144 0.89814,1.13758 1.70778,2.38922 2.03925,3.8002 0.16574,0.70549 0.20737,1.4445 0.077,2.15738 -0.13035,0.71287 -0.43671,1.39866 -0.9151,1.94302 -0.53794,0.61213 -1.27795,1.02844 -2.06271,1.24805 -0.78476,0.21962 -1.61374,0.25014 -2.42468,0.16984 -1.62189,-0.1606 -3.16604,-0.7519 -4.75454,-1.11659 -3.73038,-0.85643 -7.62066,-0.44989 -11.42491,-0.0293 -3.80424,0.42061 -7.68917,0.84738 -11.42814,0.0293 -1.85395,-0.40566 -3.64806,-1.11376 -5.53691,-1.29807 -0.94442,-0.0921 -1.91133,-0.0492 -2.8194,0.22619 -0.90807,0.27537 -1.75602,0.79374 -2.33999,1.54168 -0.74569,0.95507 -1.01319,2.23909 -0.82799,3.43656 0.1852,1.19747 0.79741,2.30615 1.62567,3.19058 1.65651,1.76886 4.05682,2.61334 6.39153,3.26296 11.04121,3.07217 22.90346,3.13735 33.97776,0.1867 m -110.74924,-18.4568 c 2.28,-1.26192 4.62846,-2.40015 7.0316,-3.408 5.05838,-2.12143 10.46357,-3.67718 15.94643,-3.51611 2.74143,0.0805 5.48117,0.59622 8.01644,1.64233 2.53526,1.04611 4.86239,2.63095 6.66738,4.69588 2.35935,2.69912 3.77817,6.20495 3.96013,9.78526 0.18196,3.58032 -0.87412,7.21193 -2.94767,10.13634 m -134.77432,-4.3945 c -5.68807,4.96941 -13.1529,7.861 -20.70432,8.02005 -7.55142,0.15905 -15.13139,-2.41565 -21.02366,-7.14115 -1.4008,-1.12342 -2.71992,-2.37683 -3.7132,-3.87274 -0.99328,-1.4959 -1.64852,-3.25449 -1.63322,-5.05006 0.0117,-1.36949 0.41398,-2.7239 1.08456,-3.91803 0.67058,-1.19414 1.60387,-2.23103 2.67316,-3.08675 2.13857,-1.71144 4.77297,-2.68308 7.41766,-3.39592 11.95666,-3.22273 25.16662,-1.50233 35.89902,4.6753 m 282.44007,-5.8592 8.78967,0 m -50.39393,24.023 c 0.81367,-4.93601 0.81367,-10.00519 0,-14.9412 -0.16047,-0.97345 -0.353,-1.9502 -0.32938,-2.9365 0.0236,-0.98631 0.28522,-2.00187 0.93186,-2.747 0.37214,-0.42882 0.85828,-0.75151 1.38402,-0.96591 0.52574,-0.2144 1.09069,-0.32316 1.65724,-0.3604 1.13311,-0.0745 2.26295,0.13223 3.38804,0.28601 6.31299,0.86285 12.8484,0.041 18.75121,-2.358 m 25.1968,-7.9101 c -0.96925,2.6188 -0.96925,5.5841 0,8.2029 0.84043,2.27074 2.398,4.27002 4.3942,5.64033 1.9962,1.37032 4.42169,2.10527 6.84275,2.07344 2.42107,-0.0318 4.82639,-0.83031 6.78587,-2.25264 1.95947,-1.42234 3.46394,-3.46188 4.24437,-5.75393 m -448.85712,-8.4961 c -2.18128,9.79226 -6.17533,19.17764 -11.71945,27.5388 -1.23043,1.85563 -2.58226,3.70583 -4.45495,4.91014 -0.93635,0.60215 -1.99587,1.02985 -3.10174,1.15787 -1.10586,0.12802 -2.25864,-0.0541 -3.23173,-0.59491 -1.27738,-0.70988 -2.16237,-1.97919 -2.73216,-3.32491 -0.56979,-1.34573 -0.86423,-2.78831 -1.24545,-4.19909 -1.66429,-6.15906 -4.98418,-11.71886 -7.50938,-17.5778 -0.72222,-1.67568 -1.39291,-3.40101 -2.49184,-4.85768 -0.54947,-0.72833 -1.20537,-1.38368 -1.97444,-1.87451 -0.76906,-0.49083 -1.65495,-0.81306 -2.56598,-0.86211 -0.96963,-0.0522 -1.94335,0.20689 -2.79833,0.66723 -0.85498,0.46033 -1.59523,1.11622 -2.21815,1.86112 -1.24584,1.48981 -2.01833,3.30667 -2.84086,5.06595 -2.89376,6.18939 -6.61457,12.01039 -8.87867,18.4568 -0.437581,1.24589 -0.821795,2.51758 -1.422883,3.69335 -0.601087,1.17577 -1.445438,2.2683 -2.595197,2.91775 -1.00943,0.57018 -2.209838,0.76579 -3.361765,0.63493 -1.151927,-0.13086 -2.255787,-0.57708 -3.228607,-1.2077 -1.945641,-1.26123 -3.336655,-3.20413 -4.582868,-5.15943 -5.202366,-8.16247 -8.715385,-17.3964 -10.25407,-26.9527 m 248.45351,-1.758 c 0.52949,4.96166 0.52949,9.97964 0,14.9413 -0.14586,1.36677 -0.33205,2.73975 -0.23524,4.11087 0.0968,1.37111 0.50296,2.76388 1.40728,3.79903 0.8573,0.98134 2.11422,1.5706 3.40648,1.73813 1.29225,0.16754 2.61612,-0.0656 3.83171,-0.53501 2.43119,-0.93877 4.3943,-2.75904 6.41389,-4.40622 0.94615,-0.77168 1.91727,-1.51309 2.9181,-2.2124 5.1889,-3.62563 11.18018,-6.09621 17.41645,-7.1819 m -141.22022,-10.5467 0,1.4649 m -31.0567,-1.4649 0,1.4649"
       id="path20289" />
    <path
       style="display:inline;fill:none;stroke:#666666;stroke-width:5;stroke-linecap:round;stroke-linejoin:round;stroke-miterlimit:4;stroke-dasharray:none;filter:url(#filter5452)"
       d="m 114.69427,705.48826 1.17187,2.0508 m 103.71764,-12.0117 c 0.8199,2.72916 2.1076,5.31712 3.79005,7.6171 4.31205,5.89473 11.30057,9.748 18.58695,10.24831 7.28638,0.50031 14.73599,-2.36158 19.81328,-7.61161 m 225.60047,-20.5075 0,22.2654 M 76.60581,683.51586 c -0.113023,5.07719 -0.113023,10.15691 0,15.2341 0.05349,2.40298 0.158363,4.90642 1.30547,7.0186 0.636438,1.17188 1.574898,2.17 2.6714,2.92897 1.096502,0.75898 2.348275,1.28228 3.645674,1.59069 2.594798,0.61681 5.32743,0.37628 7.928161,-0.21502 2.60073,-0.5913 5.109098,-1.52422 7.659007,-2.30614 2.549908,-0.78193 5.180038,-1.41807 7.846968,-1.3876 1.34516,0.0154 2.6918,0.20035 4.03185,0.0823 0.67003,-0.059 1.33752,-0.19521 1.9567,-0.45795 0.61919,-0.26274 1.18975,-0.65603 1.6128,-1.17895 0.66068,-0.81664 0.92164,-1.89651 0.94294,-2.94672 0.0213,-1.05022 -0.17674,-2.09062 -0.34064,-3.12818 -0.79556,-5.03642 -0.79556,-10.19768 0,-15.2341 m 33.40061,-0.293 0.58602,2.9296 m 515.07232,9.0821 c 1.42754,-3.54679 3.45074,-6.853 5.95926,-9.7383 2.65757,-3.05675 5.87749,-5.65042 9.52724,-7.40705 3.64975,-1.75664 7.73536,-2.65905 11.77715,-2.39386 4.0418,0.2652 8.02783,1.7244 11.15908,4.29378 3.13125,2.56937 5.36503,6.26268 5.98825,10.26493 0.12082,0.77592 0.18252,1.5674 0.0843,2.34651 -0.0982,0.7791 -0.36364,1.54875 -0.84603,2.16839 -0.49411,0.63469 -1.19915,1.08818 -1.96001,1.34908 -0.76087,0.26089 -1.57648,0.33663 -2.37998,0.29967 -1.60701,-0.0739 -3.15715,-0.5858 -4.73676,-0.89035 -3.75771,-0.72448 -7.62931,-0.26916 -11.43414,0.14126 -3.80484,0.41041 -7.70166,0.76828 -11.41891,-0.14126 -1.99919,-0.48916 -3.92089,-1.34024 -5.96922,-1.54118 -1.02416,-0.10048 -2.07781,-0.0316 -3.04443,0.32147 -0.96661,0.35309 -1.84173,1.00651 -2.35421,1.89891 -0.50391,0.87748 -0.63183,1.94632 -0.43527,2.93892 0.19655,0.9926 0.70314,1.90944 1.37305,2.6678 1.33983,1.51671 3.26025,2.37668 5.15622,3.08438 11.18763,4.17594 23.7754,4.49229 35.15867,0.8836 m -110.7494,-20.5076 c 3.69735,-3.40933 8.36562,-5.75384 13.30823,-6.68369 4.9426,-0.92985 10.14371,-0.44206 14.82723,1.39059 3.05168,1.19411 5.91661,2.97883 8.06339,5.4547 2.14679,2.47587 3.53355,5.67891 3.50816,8.9558 -0.0196,2.53027 -0.873,5.01743 -2.23004,7.1531 -1.35704,2.13567 -3.20258,3.93325 -5.2484,5.4223 -4.66295,3.39393 -10.44857,5.21722 -16.21488,5.10999 -5.76631,-0.10722 -11.48014,-2.14435 -16.01369,-5.70929 m -71.48891,-20.5076 c 6.46881,-4.71631 15.07548,-6.36917 22.83116,-4.3846 3.13933,0.80331 6.1469,2.18019 8.71229,4.15997 2.56538,1.97977 4.67893,4.57189 5.95899,7.54883 1.86385,4.33462 1.86385,9.43458 0,13.7692 m -74.41895,-23.1442 c 0.15538,0.40897 0.35204,0.80224 0.58602,1.1719 0.84318,1.33213 2.165,2.32976 3.63427,2.90138 1.46928,0.57161 3.0795,0.73229 4.65033,0.59805 3.14165,-0.26846 6.0604,-1.66892 8.88548,-3.06927 2.82507,-1.40035 5.71126,-2.84657 8.84231,-3.21881 1.56553,-0.18611 3.17815,-0.0925 4.67397,0.40557 1.49583,0.49802 2.86995,1.41512 3.79936,2.68858 1.27526,1.74734 1.62479,3.9877 1.84477,6.1397 0.52724,5.15778 0.52724,10.36932 0,15.5271 M 415.3256,687.74406 c 1.02573,-2.52819 2.71452,-4.78398 4.85146,-6.48026 2.13694,-1.69628 4.71709,-2.82915 7.41209,-3.25443 2.695,-0.42529 5.49863,-0.142 8.05408,0.8138 2.55545,0.9558 4.85682,2.58192 6.61124,4.67139 3.16438,3.76871 4.42779,9.06001 3.29713,13.84938 -1.13066,4.78937 -4.63167,8.96004 -9.15686,10.89372 -2.90442,1.2411 -6.18689,1.58023 -9.28371,0.95914 -3.09681,-0.62108 -5.99466,-2.19971 -8.1959,-4.46478 -2.20124,-2.26508 -3.6964,-5.20686 -4.22873,-8.32016 -0.53233,-3.1133 -0.0995,-6.38473 1.22406,-9.2525 m -73.85783,-1.8857 c 9.20521,-5.12109 20.80249,-5.69824 30.47067,-1.5164 2.30185,0.99563 4.51527,2.25836 6.34341,3.97524 1.82814,1.71689 3.25828,3.91554 3.79467,6.36546 0.72898,3.32957 -0.26674,6.89577 -2.23664,9.67731 -1.96989,2.78153 -4.83708,4.83396 -7.91986,6.28789 -4.87634,2.29983 -10.40681,3.1921 -15.759,2.5425 -5.35219,-0.6496 -10.50865,-2.83894 -14.69325,-6.2385 m -106.06156,-23.2855 c 1.6698,-1.93764 3.833,-3.44659 6.22811,-4.34444 2.39511,-0.89786 5.01716,-1.18276 7.54921,-0.82026 2.53206,0.36249 4.96886,1.37163 7.01585,2.90542 2.04699,1.53379 3.69992,3.58907 4.759,5.91738 0.6105,1.34214 1.02765,2.78383 1.10641,4.25619 0.0788,1.47236 -0.19119,2.97741 -0.88448,4.27871 -0.6284,1.17951 -1.59211,2.16759 -2.71783,2.88792 -1.12573,0.72033 -2.40979,1.1779 -3.72676,1.40528 -2.63396,0.45476 -5.34729,-0.002 -7.91301,-0.75136 -2.56572,-0.74941 -5.03956,-1.78871 -7.60529,-2.53807 -2.56574,-0.74936 -5.2791,-1.20598 -7.91303,-0.75107 -1.92063,0.33171 -3.74019,1.13765 -5.67076,1.40545 -0.96529,0.1339 -1.9619,0.12898 -2.89927,-0.13757 -0.93736,-0.26655 -1.81375,-0.81018 -2.37469,-1.60708 -0.37582,-0.53391 -0.60072,-1.16505 -0.70436,-1.8097 -0.10364,-0.64464 -0.0894,-1.30383 -0.0159,-1.9526 0.39363,-3.47545 2.58998,-6.69682 5.68141,-8.33288 3.09144,-1.63607 6.9903,-1.64045 10.0854,-0.0113 m -86.1383,24.1643 c 0.7317,-4.84613 0.7317,-9.80207 0,-14.6482 -0.14886,-0.98592 -0.32834,-1.97492 -0.30167,-2.97166 0.0267,-0.99673 0.27818,-2.01939 0.90398,-2.79564 0.39077,-0.48471 0.91325,-0.85457 1.4817,-1.10857 0.56844,-0.25401 1.18254,-0.39545 1.80106,-0.46666 1.23706,-0.14242 2.48734,-0.009 3.73256,-0.0121 5.30771,-0.0152 10.25767,-2.49673 15.41777,-3.73983 2.58006,-0.62156 5.2788,-0.93364 7.89035,-0.46165 2.61156,0.47198 5.13849,1.79517 6.68511,3.95178 1.50244,2.095 1.9605,4.74795 2.2355,7.3113 0.53227,4.96142 0.53227,9.97978 0,14.9412 m 405.4948,-33.9839 0,33.6909 m -254.31318,-34.5698 0,24.0231 0,11.1328"
       id="path20293" />
    <path
       style="display:inline;fill:none;stroke:#666666;stroke-width:5;stroke-linecap:round;stroke-linejoin:round;stroke-miterlimit:4;stroke-dasharray:none;filter:url(#filter5452)"
       d="m 594.64114,753.99396 c -1.83191,2.50234 -4.76793,4.16447 -7.85621,4.44752 -3.08828,0.28305 -6.27753,-0.81767 -8.53379,-2.94532 -0.86703,-0.81761 -1.60741,-1.79159 -2.02952,-2.90606 -0.42212,-1.11448 -0.50788,-2.37787 -0.10528,-3.49954 0.401,-1.1172 1.26579,-2.03539 2.29659,-2.62395 1.03079,-0.58857 2.21873,-0.86488 3.40376,-0.93294 2.37007,-0.13612 4.7036,0.52868 7.05825,0.83099 2.03009,0.26064 4.09468,0.2512 6.1223,-0.028 m -429.18696,7.6571 c -0.81335,1.68675 -2.07799,3.15329 -3.6268,4.20582 -1.54882,1.05252 -3.37795,1.68842 -5.24566,1.82364 -1.86772,0.13522 -3.76937,-0.23057 -5.45364,-1.04902 -1.68427,-0.81846 -3.14697,-2.08754 -4.1948,-3.63954 -1.33035,-1.97046 -1.97725,-4.39754 -1.7805,-6.7669 0.19854,-2.39085 1.25712,-4.70121 2.93825,-6.41276 1.68113,-1.71155 3.97214,-2.81139 6.35904,-3.05277 2.38691,-0.24138 4.85173,0.37752 6.84148,1.71785 1.98976,1.34033 3.48945,3.39198 4.16263,5.69468 m 375.40506,-0.3562 12.8222,9.2597 m -86.5498,-14.7799 c 1.42957,2.11368 2.20986,4.66017 2.20986,7.2119 0,2.55173 -0.78029,5.09822 -2.20986,7.2119 -1.46648,2.16826 -3.61075,3.87095 -6.0549,4.808 m -12.8222,-19.2318 0,14.4238 m -200.88076,-14.4238 0,14.4238 m 412.09066,-14.6019 0,1.2465 m -392.85746,-1.4245 0,1.7807 m -80.851,-1.7807 0,1.4245 m 498.64046,-1.6026 19.2333,0 m -44.1653,15.1361 c 0.52955,-3.11616 0.52955,-6.32164 0,-9.4378 -0.10605,-0.62406 -0.23362,-1.24997 -0.22226,-1.88287 0.0114,-0.63291 0.17577,-1.28574 0.58916,-1.76513 0.22587,-0.26193 0.51826,-0.46257 0.8353,-0.60082 0.31704,-0.13825 0.6585,-0.21552 1.00256,-0.25091 0.6881,-0.0708 1.38086,0.0235 2.06934,0.0905 3.71611,0.36173 7.50847,-0.081 11.0413,-1.2891 m -61.6177,7.479 c 1.43427,-2.39082 3.244,-4.55589 5.3425,-6.3915 1.74338,-1.52498 3.69727,-2.82913 5.84332,-3.70057 2.14605,-0.87144 4.4907,-1.30062 6.79647,-1.08071 2.30577,0.21992 4.5675,1.10898 6.3031,2.64282 1.73559,1.53384 2.91259,3.72648 3.07571,6.03696 0.0271,0.38319 0.0269,0.77036 -0.0378,1.14902 -0.0647,0.37867 -0.19574,0.74971 -0.4145,1.06548 -0.29984,0.43281 -0.75528,0.74515 -1.25142,0.92139 -0.49615,0.17623 -1.03181,0.22234 -1.55731,0.1896 -1.05101,-0.0655 -2.05583,-0.436 -3.08597,-0.65439 -2.33516,-0.49504 -4.75588,-0.20217 -7.12743,0.0694 -2.37155,0.27161 -4.80542,0.51637 -7.11947,-0.0694 -1.11599,-0.28252 -2.19014,-0.75567 -3.33478,-0.87836 -0.57232,-0.0613 -1.16108,-0.0316 -1.70664,0.15186 -0.54557,0.18351 -1.04613,0.52894 -1.35898,1.0121 -0.31736,0.49013 -0.42615,1.10103 -0.3472,1.67957 0.079,0.57854 0.33757,1.12452 0.69543,1.58591 0.71572,0.92277 1.78818,1.49133 2.85377,1.96912 6.76947,3.03528 14.68472,3.42464 21.7194,1.0684 m -66.9603,-11.3966 c 1.41967,-0.71707 2.84439,-1.42416 4.274,-2.1212 3.1522,-1.53692 6.44611,-3.05423 9.95197,-3.14021 1.75294,-0.043 3.53423,0.28889 5.08248,1.11201 1.54826,0.82312 2.84899,2.15845 3.48295,3.7933 0.48024,1.23843 0.56848,2.59005 0.6126,3.9176 0.0947,2.85068 0.0102,5.70731 -0.2529,8.5474 m -62.33,-7.3009 21.0141,-7.6571 m -40.6036,11.9308 c -1.79519,2.65905 -4.74115,4.51138 -7.91549,4.97702 -3.17434,0.46565 -6.52817,-0.46257 -9.01141,-2.49402 -2.16421,-1.77046 -3.6704,-4.42505 -3.74114,-7.22029 -0.0354,-1.39761 0.28633,-2.80853 0.96408,-4.03132 0.67775,-1.2228 1.71462,-2.251 2.96386,-2.87869 1.24765,-0.62689 2.67165,-0.84507 4.06733,-0.8038 1.39569,0.0413 2.77209,0.33196 4.12467,0.6786 2.93437,0.75201 5.79966,1.77336 8.5481,3.047 m -203.37406,4.2737 c 1.22191,-1.99743 2.53444,-3.93942 3.9322,-5.818 2.13223,-2.86571 4.4973,-5.61527 7.42654,-7.65936 2.92924,-2.04408 6.48785,-3.34461 10.04846,-3.06041 1.7803,0.1421 3.53678,0.68262 5.04829,1.63395 1.5115,0.95133 2.77047,2.31918 3.52338,3.93869 0.75291,1.61951 0.98567,3.48893 0.57771,5.22768 -0.40796,1.73875 -1.46867,3.32971 -2.95968,4.31285 -1.4187,0.93546 -3.13099,1.29314 -4.8019,1.6027 -5.54451,1.02721 -11.36782,1.7136 -16.74,0 -0.9707,-0.30963 -1.93248,-0.69862 -2.94864,-0.77309 -0.50809,-0.0372 -1.02676,0.007 -1.50723,0.17634 -0.48047,0.16936 -0.92148,0.46883 -1.21903,0.88235 -0.35405,0.49205 -0.48734,1.12589 -0.41538,1.7278 0.072,0.60191 0.33957,1.17125 0.71426,1.64778 0.74938,0.95305 1.88033,1.51783 2.99892,1.98542 6.67985,2.79231 14.35351,3.13241 21.2542,0.942 m -67.6727,0.8904 c 0.45198,-3.00471 0.45198,-6.07699 0,-9.0817 -0.0901,-0.59916 -0.19843,-1.20025 -0.18194,-1.80593 0.0165,-0.60569 0.16899,-1.22687 0.54804,-1.69957 0.23697,-0.29551 0.55394,-0.52165 0.89909,-0.67769 0.34516,-0.15604 0.7183,-0.24395 1.09437,-0.28923 0.75214,-0.0906 1.51319,-0.0133 2.27074,-0.0186 3.4228,-0.0238 6.59041,-1.70883 9.92224,-2.49304 1.66592,-0.3921 3.41888,-0.55683 5.08597,-0.16975 0.83354,0.19354 1.63845,0.52542 2.34439,1.00905 0.70594,0.48364 1.31115,1.12126 1.7232,1.87124 0.70662,1.28611 0.81079,2.80724 0.8698,4.2735 0.11699,2.90696 0.11699,5.81864 0,8.7256 m -74.0838,-14.78 12.1099,0 m -17.4524,0 4.6302,0 m -30.6308,15.1361 c 0.56277,-3.1123 0.56277,-6.3255 0,-9.4378 -0.1127,-0.6233 -0.2483,-1.24841 -0.2391,-1.88175 0.009,-0.63334 0.17912,-1.28877 0.6053,-1.75735 0.42207,-0.46406 1.05069,-0.69557 1.67387,-0.76733 0.62317,-0.0718 1.25262,-4.6e-4 1.87783,0.0506 3.83795,0.31361 7.73746,-0.14571 11.3975,-1.3425 m -58.7683,2.8491 c 0.71307,-2.38642 2.19786,-4.53561 4.17759,-6.04695 1.97972,-1.51134 4.44428,-2.37712 6.93426,-2.43595 2.48998,-0.0588 4.99268,0.6896 7.04157,2.10577 2.04888,1.41617 3.63351,3.49285 4.45848,5.84293 0.46267,1.31801 0.68956,2.70714 0.8416,4.0957 0.29771,2.71903 0.31584,5.46858 0.054,8.1913 m 50.9326,-14.78 -0.3562,0.1781 m 474.06456,-4.808 c -0.32856,4.80048 -0.32856,9.62342 0,14.4239 0.12343,1.80346 0.31037,3.6625 1.179,5.2478 0.54066,0.98675 1.33608,1.83252 2.28783,2.43265 0.95176,0.60014 2.05777,0.95334 3.18119,1.01589 1.12343,0.0626 2.26182,-0.16566 3.27431,-0.65642 1.0125,-0.49076 1.8969,-1.243 2.54377,-2.16362 m -486.53066,-20.478 c -0.46912,4.73311 -0.46912,9.51259 0,14.2457 0.18882,1.90505 0.4752,3.86601 1.4774,5.4971 1.16049,1.88871 3.27001,3.15977 5.48212,3.30317 2.2121,0.14339 4.46806,-0.84468 5.86268,-2.56777 m 151.01676,-20.6563 c 2.67713,3.82022 4.65361,8.12981 5.8021,12.6511 0.51007,2.00801 0.89031,4.12945 2.12344,5.79429 0.61656,0.83242 1.4494,1.52685 2.43053,1.85918 0.49057,0.16617 1.01402,0.24001 1.53032,0.19871 0.5163,-0.0413 1.0249,-0.19907 1.46511,-0.47198 0.69621,-0.43162 1.19245,-1.12881 1.54105,-1.87008 0.34861,-0.74126 0.56575,-1.5359 0.82535,-2.31282 1.29687,-3.88115 3.65018,-7.31316 5.339,-11.0405 0.48127,-1.06219 0.91712,-2.16331 1.6352,-3.08213 0.35903,-0.45941 0.78831,-0.86924 1.29022,-1.16598 0.5019,-0.29675 1.07904,-0.47716 1.66208,-0.47179 0.58821,0.005 1.16694,0.19988 1.66576,0.51165 0.49882,0.31177 0.9204,0.73753 1.26749,1.21246 0.69416,0.94985 1.08913,2.0787 1.51885,3.17389 1.42032,3.61985 3.31176,7.04316 4.6766,10.6843 0.35691,0.95217 0.68199,1.92775 1.22677,2.78636 0.2724,0.42931 0.59957,0.82695 0.99187,1.15037 0.39231,0.32342 0.85153,0.57128 1.34636,0.68807 0.73391,0.17321 1.52191,0.0486 2.20098,-0.27924 0.67907,-0.32784 1.25327,-0.84971 1.70609,-1.45269 0.90564,-1.20595 1.32501,-2.69613 1.77693,-4.13497 1.58682,-5.05218 3.79331,-9.90941 6.5543,-14.4282 m -353.32236,20.1221 c 0.789924,-3.61995 1.030446,-7.35928 0.7108,-11.0506 -0.163446,-1.88751 -0.46702,-3.83131 0.08278,-5.64435 0.274899,-0.90652 0.772291,-1.76186 1.505987,-2.36105 0.733695,-0.5992 1.716476,-0.92001 2.649437,-0.7559 0.770079,0.13546 1.455276,0.5823 2.021994,1.121 0.566719,0.5387 1.033216,1.17187 1.531906,1.7741 2.325772,2.80865 5.349359,4.94223 7.969,7.479 0.808166,0.7826 1.583418,1.6085 2.495568,2.26697 0.912151,0.65846 1.990145,1.14759 3.115132,1.14723 1.132496,-3.6e-4 2.215936,-0.4963 3.135476,-1.15738 0.91953,-0.66108 1.7058,-1.48645 2.53592,-2.25682 2.8096,-2.60735 6.16388,-4.62092 8.718,-7.479 0.58706,-0.65692 1.13141,-1.35805 1.79872,-1.93327 0.66731,-0.57523 1.48574,-1.02521 2.36598,-1.06203 0.8218,-0.0344 1.63665,0.30252 2.25552,0.8443 0.61887,0.54179 1.05072,1.27599 1.31185,2.05595 0.52226,1.55993 0.38128,3.25117 0.31963,4.89505 -0.15013,4.00331 0.2091,8.02545 1.0663,11.9388 m 408.52896,-21.0125 0,21.0125 m -64.4671,-21.0125 0,0.8903 m -18.8771,-0.8903 0,0.5342 m -200.88076,-0.5342 0,0.8903"
       id="path20297" />
    <rect
       style="display:inline;fill:#ffffff;fill-opacity:1;fill-rule:evenodd;stroke:none;stroke-width:5;stroke-linecap:butt;stroke-linejoin:round;stroke-miterlimit:4;stroke-dasharray:none;stroke-dashoffset:0;stroke-opacity:1;filter:url(#filter5452)"
       id="rect21054"
       width="35.433071"
       height="35.433071"
       x="0"
       y="201.96848" />
  </g>
</svg>
