<?xml version="1.0" encoding="UTF-8" standalone="no"?>
<!-- Created with Inkscape (http://www.inkscape.org/) -->

<svg
   xmlns:dc="http://purl.org/dc/elements/1.1/"
   xmlns:cc="http://creativecommons.org/ns#"
   xmlns:rdf="http://www.w3.org/1999/02/22-rdf-syntax-ns#"
   xmlns:svg="http://www.w3.org/2000/svg"
   xmlns="http://www.w3.org/2000/svg"
   xmlns:sodipodi="http://sodipodi.sourceforge.net/DTD/sodipodi-0.dtd"
   xmlns:inkscape="http://www.inkscape.org/namespaces/inkscape"
   width="210mm"
   height="110mm"
   viewBox="0 0 744.09449 389.76378"
   id="svg3764"
   version="1.1"
   inkscape:version="0.91 r"
   sodipodi:docname="pieces-stencil-skate.svg">
  <defs
     id="defs3766" />
  <sodipodi:namedview
     id="base"
     pagecolor="#ffffff"
     bordercolor="#666666"
     borderopacity="1.0"
     inkscape:pageopacity="0.0"
     inkscape:pageshadow="2"
     inkscape:zoom="0.96756385"
     inkscape:cx="310.68183"
     inkscape:cy="193.96269"
     inkscape:document-units="px"
     inkscape:current-layer="g3446"
     showgrid="false"
     borderlayer="true"
     inkscape:showpageshadow="false"
     inkscape:window-width="1440"
     inkscape:window-height="845"
     inkscape:window-x="0"
     inkscape:window-y="27"
     inkscape:window-maximized="1" />
  <metadata
     id="metadata3769">
    <rdf:RDF>
      <cc:Work
         rdf:about="">
        <dc:format>image/svg+xml</dc:format>
        <dc:type
           rdf:resource="http://purl.org/dc/dcmitype/StillImage" />
        <dc:title></dc:title>
      </cc:Work>
    </rdf:RDF>
  </metadata>
  <g
     inkscape:label="Layer 1"
     inkscape:groupmode="layer"
     id="layer1"
     transform="translate(0,-662.59848)">
    <g
       id="g3446"
       transform="matrix(0.86928978,0,0,0.86928978,-645.54975,72.546506)">
      <path
         sodipodi:nodetypes="ccccccsssssssccccsccssssssscccc"
         inkscape:connector-curvature="0"
         id="path3733"
         d="m 830.16733,689.11147 0,16.94408 0,16.94407 9.77699,0 9.77698,0 1.52158,4.20799 c 2.30512,6.37451 5.87216,8.95482 12.37936,8.95482 4.75505,0 6.17121,-0.6254 9.27032,-4.09397 2.01188,-2.25166 3.65801,-5.21337 3.65801,-6.58139 0,-2.38034 0.89057,-2.48745 20.68441,-2.48745 19.79387,0 20.68443,0.10716 20.68443,2.48745 0,1.36802 1.64612,4.32973 3.658,6.58139 3.0991,3.46857 4.51527,4.09397 9.27034,4.09397 6.50718,0 10.07424,-2.58031 12.37936,-8.95482 l 1.52156,-4.20799 19.70861,0 19.70852,0 1.48006,4.48459 c 1.6707,5.06213 7.48168,9.29308 12.77374,9.30031 4.1313,0.0107 11.945,-6.49365 12.5004,-10.39776 0.384,-2.69886 0.8463,-2.76796 20.7637,-3.10483 19.68,-0.33275 20.371,-0.25894 20.371,2.17404 0,1.38518 1.6461,4.36083 3.658,6.61249 3.1405,3.51481 4.485,4.09397 9.5048,4.09397 5.0198,0 6.3643,-0.57916 9.5048,-4.09397 2.0119,-2.25166 3.658,-5.21337 3.658,-6.58139 0,-2.27283 0.8622,-2.48745 9.9924,-2.48745 l 9.9925,0 0.3498,-16.61021 0.3498,-16.61022 z"
         style="fill:#000000;stroke:none" />
    </g>
  </g>
</svg>
